EESchema Schematic File Version 4
LIBS:DSP-ADAU1452-cache
EELAYER 26 0
EELAYER END
$Descr A4 11693 8268
encoding utf-8
Sheet 3 6
Title "DSP-ADAU1452 - ADAU1452, ADAU1451, ADAU1450 supported"
Date "2018-09-05"
Rev "3.0"
Comp "Open Hardware DSP Platform - www.ohdsp.org"
Comment1 "MERCHANTABILITY, SATISFACTORY QUALITY AND FITNESS FOR A PARTICULAR PURPOSE."
Comment2 "is distributed WITHOUT ANY EXPRESS OR IMPLIED WARRANTY, INCLUDING OF"
Comment3 "Licensed under the TAPR Open Hardware License (www.tapr.org/OHL). This documentation"
Comment4 "Copyright Paul Janicki 2018"
$EndDescr
$Comp
L power:GNDD #PWR309
U 1 1 54DA1026
P 1050 3550
F 0 "#PWR309" H 1050 3300 60  0001 C CNN
F 1 "GNDD" H 1050 3400 60  0000 C CNN
F 2 "" H 1050 3550 60  0000 C CNN
F 3 "" H 1050 3550 60  0000 C CNN
	1    1050 3550
	1    0    0    -1  
$EndComp
$Comp
L power:GNDD #PWR308
U 1 1 54DA105A
P 2700 3500
F 0 "#PWR308" H 2700 3250 60  0001 C CNN
F 1 "GNDD" H 2700 3350 60  0000 C CNN
F 2 "" H 2700 3500 60  0000 C CNN
F 3 "" H 2700 3500 60  0000 C CNN
	1    2700 3500
	1    0    0    -1  
$EndComp
$Comp
L power:GNDD #PWR312
U 1 1 54DA12A0
P 5400 3700
F 0 "#PWR312" H 5400 3450 60  0001 C CNN
F 1 "GNDD" H 5400 3550 60  0000 C CNN
F 2 "" H 5400 3700 60  0000 C CNN
F 3 "" H 5400 3700 60  0000 C CNN
	1    5400 3700
	1    0    0    -1  
$EndComp
$Comp
L power:GNDD #PWR313
U 1 1 54DA12D4
P 5700 3700
F 0 "#PWR313" H 5700 3450 60  0001 C CNN
F 1 "GNDD" H 5700 3550 60  0000 C CNN
F 2 "" H 5700 3700 60  0000 C CNN
F 3 "" H 5700 3700 60  0000 C CNN
	1    5700 3700
	1    0    0    -1  
$EndComp
$Comp
L power:GNDD #PWR302
U 1 1 54DA1308
P 2850 2200
F 0 "#PWR302" H 2850 1950 60  0001 C CNN
F 1 "GNDD" H 2850 2050 60  0000 C CNN
F 2 "" H 2850 2200 60  0000 C CNN
F 3 "" H 2850 2200 60  0000 C CNN
	1    2850 2200
	1    0    0    -1  
$EndComp
$Comp
L power:GNDD #PWR303
U 1 1 54DA1946
P 8200 2200
F 0 "#PWR303" H 8200 1950 60  0001 C CNN
F 1 "GNDD" H 8200 2050 60  0000 C CNN
F 2 "" H 8200 2200 60  0000 C CNN
F 3 "" H 8200 2200 60  0000 C CNN
	1    8200 2200
	1    0    0    -1  
$EndComp
$Comp
L power:VCC #PWR306
U 1 1 54DA4B8B
P 750 2800
F 0 "#PWR306" H 750 2650 60  0001 C CNN
F 1 "VCC" H 750 2950 60  0000 C CNN
F 2 "" H 750 2800 60  0000 C CNN
F 3 "" H 750 2800 60  0000 C CNN
	1    750  2800
	1    0    0    -1  
$EndComp
$Comp
L power:GNDD #PWR310
U 1 1 54DA689D
P 1400 3550
F 0 "#PWR310" H 1400 3300 60  0001 C CNN
F 1 "GNDD" H 1400 3400 60  0000 C CNN
F 2 "" H 1400 3550 60  0000 C CNN
F 3 "" H 1400 3550 60  0000 C CNN
	1    1400 3550
	1    0    0    -1  
$EndComp
$Comp
L power:GNDD #PWR315
U 1 1 54DA7D4A
P 6300 3700
F 0 "#PWR315" H 6300 3450 60  0001 C CNN
F 1 "GNDD" H 6300 3550 60  0000 C CNN
F 2 "" H 6300 3700 60  0000 C CNN
F 3 "" H 6300 3700 60  0000 C CNN
	1    6300 3700
	1    0    0    -1  
$EndComp
$Comp
L power:PWR_FLAG #FLG303
U 1 1 54DAF847
P 6450 2950
F 0 "#FLG303" H 6450 3045 30  0001 C CNN
F 1 "PWR_FLAG" H 6450 3130 30  0000 C CNN
F 2 "" H 6450 2950 60  0000 C CNN
F 3 "" H 6450 2950 60  0000 C CNN
	1    6450 2950
	1    0    0    -1  
$EndComp
$Comp
L power:PWR_FLAG #FLG302
U 1 1 54DB050F
P 5550 1550
F 0 "#FLG302" H 5550 1645 30  0001 C CNN
F 1 "PWR_FLAG" H 5550 1730 30  0000 C CNN
F 2 "" H 5550 1550 60  0000 C CNN
F 3 "" H 5550 1550 60  0000 C CNN
	1    5550 1550
	1    0    0    -1  
$EndComp
Text Notes 800  850  0    118  ~ 0
Power Supply
$Comp
L power:VCC #PWR321
U 1 1 54E988AC
P 4000 5950
F 0 "#PWR321" H 4000 5800 60  0001 C CNN
F 1 "VCC" H 4000 6100 60  0000 C CNN
F 2 "" H 4000 5950 60  0000 C CNN
F 3 "" H 4000 5950 60  0000 C CNN
	1    4000 5950
	1    0    0    -1  
$EndComp
$Comp
L power:PWR_FLAG #FLG301
U 1 1 54E9EF28
P 3350 1550
F 0 "#FLG301" H 3350 1645 30  0001 C CNN
F 1 "PWR_FLAG" H 3350 1730 30  0000 C CNN
F 2 "" H 3350 1550 60  0000 C CNN
F 3 "" H 3350 1550 60  0000 C CNN
	1    3350 1550
	1    0    0    -1  
$EndComp
$Comp
L power:GNDD #PWR323
U 1 1 54E53D95
P 1350 6650
F 0 "#PWR323" H 1350 6400 60  0001 C CNN
F 1 "GNDD" H 1350 6500 60  0000 C CNN
F 2 "" H 1350 6650 60  0000 C CNN
F 3 "" H 1350 6650 60  0000 C CNN
	1    1350 6650
	1    0    0    -1  
$EndComp
$Comp
L power:GNDD #PWR324
U 1 1 54E5499B
P 3800 7000
F 0 "#PWR324" H 3800 6750 60  0001 C CNN
F 1 "GNDD" H 3800 6850 60  0000 C CNN
F 2 "" H 3800 7000 60  0000 C CNN
F 3 "" H 3800 7000 60  0000 C CNN
	1    3800 7000
	1    0    0    -1  
$EndComp
$Comp
L power:GNDD #PWR325
U 1 1 54E562EF
P 3350 7500
F 0 "#PWR325" H 3350 7250 60  0001 C CNN
F 1 "GNDD" H 3350 7350 60  0000 C CNN
F 2 "" H 3350 7500 60  0000 C CNN
F 3 "" H 3350 7500 60  0000 C CNN
	1    3350 7500
	1    0    0    -1  
$EndComp
Text Notes 850  5800 0    60   ~ 0
5V Input\n
$Comp
L MyKiCadLibs-Lib:LED D305
U 1 1 54E5948E
P 6250 7250
F 0 "D305" H 6250 7350 50  0000 C CNN
F 1 "Green LED 1206" H 6250 7450 50  0000 C CNN
F 2 "MyKiCadLibs-Footprints:SMD-1206" H 6250 7250 60  0001 C CNN
F 3 "" H 6250 7250 60  0000 C CNN
F 4 "1206" H 6250 7250 60  0001 C CNN "Size"
F 5 "Green LED - SMD - Vf 1.8V to 2.2V" H 6250 7250 60  0001 C CNN "Description"
	1    6250 7250
	0    1    1    0   
$EndComp
$Comp
L power:GNDD #PWR326
U 1 1 54E5949B
P 6250 7500
F 0 "#PWR326" H 6250 7250 60  0001 C CNN
F 1 "GNDD" H 6250 7350 60  0000 C CNN
F 2 "" H 6250 7500 60  0000 C CNN
F 3 "" H 6250 7500 60  0000 C CNN
	1    6250 7500
	1    0    0    -1  
$EndComp
Text Notes 800  5650 0    118  ~ 0
Power Input
Text Notes 6550 1450 0    60   ~ 0
3V3 Supply
$Comp
L power:GNDD #PWR304
U 1 1 54DA133C
P 3650 2250
F 0 "#PWR304" H 3650 2000 60  0001 C CNN
F 1 "GNDD" H 3650 2100 60  0000 C CNN
F 2 "" H 3650 2250 60  0000 C CNN
F 3 "" H 3650 2250 60  0000 C CNN
	1    3650 2250
	1    0    0    -1  
$EndComp
$Comp
L power:GNDD #PWR320
U 1 1 56290915
P 9150 5800
F 0 "#PWR320" H 9150 5550 60  0001 C CNN
F 1 "GNDD" H 9150 5650 60  0000 C CNN
F 2 "" H 9150 5800 60  0000 C CNN
F 3 "" H 9150 5800 60  0000 C CNN
	1    9150 5800
	1    0    0    -1  
$EndComp
$Comp
L power:GNDD #PWR314
U 1 1 5631F912
P 6000 3700
F 0 "#PWR314" H 6000 3450 60  0001 C CNN
F 1 "GNDD" H 6000 3550 60  0000 C CNN
F 2 "" H 6000 3700 60  0000 C CNN
F 3 "" H 6000 3700 60  0000 C CNN
	1    6000 3700
	1    0    0    -1  
$EndComp
$Comp
L power:GNDD #PWR311
U 1 1 56322380
P 1650 3550
F 0 "#PWR311" H 1650 3300 60  0001 C CNN
F 1 "GNDD" H 1650 3400 60  0000 C CNN
F 2 "" H 1650 3550 60  0000 C CNN
F 3 "" H 1650 3550 60  0000 C CNN
	1    1650 3550
	1    0    0    -1  
$EndComp
Text Notes 1750 2750 0    60   ~ 0
Delay 1V2 to\nstart after 3V3
Text Notes 8150 4350 0    60   ~ 0
External 3V3 connections.\nDo not overload these!\nRecommend 100mA maximum total\n
$Comp
L MyKiCadLibs-Lib:MNT_HOLE MNT301
U 1 1 56E77C6A
P 900 7300
F 0 "MNT301" H 900 7400 60  0000 C CNN
F 1 "MNT_HOLE" H 900 7400 60  0001 C CNN
F 2 "MyKiCadLibs-Footprints:MNT_HOLE_3.2mm" H 900 7400 60  0001 C CNN
F 3 "" H 900 7400 60  0000 C CNN
F 4 "Mounting hole" H 900 7300 60  0001 C CNN "Description"
	1    900  7300
	1    0    0    -1  
$EndComp
Text Notes 700  7100 0    60   ~ 0
Mounting Holes and Fiducials
$Comp
L MyKiCadLibs-Lib:IC-REG-1117 U301
U 1 1 56E95C33
P 4200 1550
F 0 "U301" H 4400 1800 60  0000 C CNN
F 1 "TLV1117LV33DCY" H 4650 1700 60  0000 C CNN
F 2 "MyKiCadLibs-Footprints:IC-SOT-223" H 4200 1550 60  0001 C CNN
F 3 "" H 4200 1550 60  0000 C CNN
F 4 "TLV1117LV 1-A, Positive Fixed-Voltage, Low-Dropout Regulator - Fixed 3V3" H 4200 1550 60  0001 C CNN "Description"
	1    4200 1550
	1    0    0    -1  
$EndComp
Wire Wire Line
	4650 1950 4650 2150
Connection ~ 9700 5750
Wire Wire Line
	9700 5750 9700 5350
Connection ~ 9700 4650
Wire Wire Line
	9700 4650 9700 4950
Wire Wire Line
	6450 3050 6450 2950
Connection ~ 6350 2150
Wire Wire Line
	6350 2150 6350 2050
Connection ~ 6350 1550
Wire Wire Line
	6350 1550 6350 1650
Connection ~ 5200 1550
Wire Wire Line
	5200 1150 5200 1550
Wire Wire Line
	5050 1150 5200 1150
Connection ~ 3800 1550
Wire Wire Line
	3800 1550 3800 1150
Wire Wire Line
	3800 1150 4650 1150
Wire Wire Line
	1750 3300 1650 3300
Connection ~ 2300 3050
Wire Wire Line
	2300 3050 2300 3400
Wire Wire Line
	2250 3300 2300 3300
Wire Wire Line
	1650 3050 1750 3050
Wire Wire Line
	1650 2600 1650 3050
Connection ~ 6000 3050
Wire Wire Line
	6000 3700 6000 3650
Wire Wire Line
	6000 3050 6000 3250
Connection ~ 6300 3050
Wire Wire Line
	6300 3050 6300 3250
Connection ~ 950  2850
Wire Wire Line
	950  1550 950  2850
Wire Wire Line
	950  1550 4200 1550
Connection ~ 9950 4650
Wire Wire Line
	9950 4650 9950 5150
Wire Wire Line
	9950 5150 10000 5150
Connection ~ 9900 5750
Wire Wire Line
	9950 5750 9950 5250
Wire Wire Line
	9950 5250 10000 5250
Wire Wire Line
	8250 4650 8450 4650
Wire Wire Line
	8250 4600 8250 4650
Wire Wire Line
	9900 4750 10000 4750
Wire Wire Line
	9900 5750 9900 4750
Connection ~ 9400 5750
Connection ~ 9150 5750
Wire Wire Line
	9400 5750 9400 5350
Wire Wire Line
	9150 5750 9950 5750
Connection ~ 9400 4650
Wire Wire Line
	9400 4650 9400 4950
Connection ~ 9150 4650
Wire Wire Line
	9150 4700 9150 4650
Wire Wire Line
	8950 4650 10000 4650
Wire Wire Line
	9150 5650 9150 5800
Wire Wire Line
	9150 5200 9150 5250
Connection ~ 6700 2150
Connection ~ 6950 2150
Connection ~ 6950 1550
Connection ~ 6700 1550
Wire Wire Line
	6950 1550 6950 1650
Wire Wire Line
	6700 1550 6700 1650
Wire Wire Line
	6700 2150 6700 2050
Wire Wire Line
	6950 2150 6950 2050
Connection ~ 7700 2150
Connection ~ 7950 2150
Connection ~ 7950 1550
Connection ~ 7700 1550
Wire Wire Line
	7950 1550 7950 1650
Wire Wire Line
	7700 1550 7700 1650
Wire Wire Line
	7700 2150 7700 2050
Wire Wire Line
	7950 2150 7950 2050
Connection ~ 5900 1550
Wire Wire Line
	5900 1550 5900 1650
Connection ~ 7200 2150
Connection ~ 7450 2150
Connection ~ 7450 1550
Connection ~ 7200 1550
Wire Wire Line
	7450 1550 7450 1650
Wire Wire Line
	7200 1550 7200 1650
Wire Wire Line
	7200 2150 7200 2050
Wire Wire Line
	7450 2150 7450 2050
Wire Wire Line
	8200 2150 8200 2200
Wire Wire Line
	5050 3050 6950 3050
Wire Wire Line
	3950 1550 3950 1700
Wire Wire Line
	3650 1550 3650 1700
Connection ~ 3950 1550
Connection ~ 3650 1550
Wire Wire Line
	5100 1550 8300 1550
Wire Wire Line
	5400 1550 5650 1550
Wire Wire Line
	3650 2100 3650 2250
Wire Wire Line
	3950 2200 3950 2100
Connection ~ 3650 2200
Wire Wire Line
	3650 2200 3950 2200
Connection ~ 4700 3250
Wire Wire Line
	4700 3250 4700 3650
Wire Wire Line
	4700 3650 4800 3650
Wire Wire Line
	5500 3150 5700 3150
Wire Wire Line
	5500 3150 5500 3450
Wire Wire Line
	5300 3250 5500 3250
Wire Wire Line
	1350 6500 1350 6650
Wire Wire Line
	2250 6400 2500 6400
Wire Wire Line
	8300 1550 8300 1500
Connection ~ 3350 1550
Connection ~ 5550 1550
Wire Wire Line
	6950 2900 6950 3250
Wire Wire Line
	750  2800 750  2850
Wire Wire Line
	6250 6400 6250 6450
Wire Wire Line
	6250 7500 6250 7450
Wire Wire Line
	6250 6950 6250 7050
Wire Wire Line
	1350 6500 1300 6500
Wire Wire Line
	3350 7500 3350 7450
Connection ~ 3350 6400
Wire Wire Line
	3350 6950 3350 7050
Wire Wire Line
	3350 6400 3350 6450
Connection ~ 4200 6950
Connection ~ 3800 6950
Wire Wire Line
	4200 6950 4200 6900
Wire Wire Line
	3800 6900 3800 7000
Connection ~ 3800 6400
Wire Wire Line
	3800 6400 3800 6500
Connection ~ 4200 6400
Wire Wire Line
	4200 6400 4200 6500
Connection ~ 4000 6400
Wire Wire Line
	4000 6400 4000 5950
Wire Wire Line
	1300 6400 1850 6400
Wire Wire Line
	6300 3700 6300 3650
Wire Wire Line
	1400 3550 1400 3500
Connection ~ 1400 2850
Wire Wire Line
	1400 2850 1400 3100
Wire Wire Line
	2250 3050 2750 3050
Connection ~ 5400 2150
Connection ~ 5650 2150
Wire Wire Line
	5400 2150 5400 2050
Connection ~ 5900 2150
Wire Wire Line
	5650 2150 5650 2050
Wire Wire Line
	5900 2150 5900 2050
Wire Wire Line
	2850 2200 2850 2150
Wire Wire Line
	5700 3700 5700 3650
Wire Wire Line
	2700 3150 2750 3150
Wire Wire Line
	2700 3150 2700 3500
Wire Wire Line
	1050 3550 1050 3500
Connection ~ 5650 1550
Wire Wire Line
	5650 1550 5650 1650
Connection ~ 5400 1550
Wire Wire Line
	5400 1550 5400 1650
Connection ~ 1050 2850
Connection ~ 2850 1550
Wire Wire Line
	2850 1550 2850 1750
Connection ~ 5700 3050
Wire Wire Line
	750  2850 2600 2850
Wire Wire Line
	1050 2850 1050 3100
Connection ~ 5700 3150
Wire Wire Line
	5700 3050 5700 3250
Connection ~ 4350 3050
Wire Wire Line
	4350 3050 4350 2850
Wire Wire Line
	4350 2850 4300 2850
Wire Wire Line
	3750 2850 3900 2850
Wire Wire Line
	3600 3050 4450 3050
Wire Wire Line
	4650 2150 8200 2150
$Comp
L MyKiCadLibs-Lib:MNT_HOLE FID301
U 1 1 56E9E8FD
P 1700 7300
F 0 "FID301" H 1700 7400 60  0000 C CNN
F 1 "MNT_HOLE" H 1700 7400 60  0001 C CNN
F 2 "MyKiCadLibs-Footprints:FID-1MM-3MM" H 1700 7400 60  0001 C CNN
F 3 "" H 1700 7400 60  0000 C CNN
F 4 "Fiducial" H 1700 7300 60  0001 C CNN "Description"
	1    1700 7300
	1    0    0    -1  
$EndComp
$Comp
L MyKiCadLibs-Lib:CP1 C312
U 1 1 5714CF67
P 2850 1950
F 0 "C312" H 2900 2050 50  0000 L CNN
F 1 "220u" H 2900 1850 50  0000 L CNN
F 2 "MyKiCadLibs-Footprints:CAP-TH-D6.3mmP2.5mm" H 2850 1950 60  0001 C CNN
F 3 "" H 2850 1950 60  0000 C CNN
F 4 "16V" H 2905 1765 50  0000 L CNN "Voltage"
F 5 "2.5mm pitch, 6.3mm diameter" H 2850 2250 40  0001 L CNN "Type"
F 6 "Aluminium electrolytic capacitor" H 2850 2350 40  0001 L CNN "Description"
	1    2850 1950
	1    0    0    -1  
$EndComp
$Comp
L MyKiCadLibs-Lib:CP1 C326
U 1 1 5714D6B3
P 3800 6700
F 0 "C326" H 3850 6800 50  0000 L CNN
F 1 "220u" H 3850 6600 50  0000 L CNN
F 2 "MyKiCadLibs-Footprints:CAP-TH-D6.3mmP2.5mm" H 3800 6700 60  0001 C CNN
F 3 "" H 3800 6700 60  0000 C CNN
F 4 "16V" H 3855 6515 50  0000 L CNN "Voltage"
F 5 "2.5mm pitch, 6.3mm diameter" H 3800 7000 40  0001 L CNN "Type"
F 6 "Aluminium electrolytic capacitor" H 3800 7100 40  0001 L CNN "Description"
	1    3800 6700
	1    0    0    -1  
$EndComp
Wire Wire Line
	1650 3300 1650 3550
$Comp
L MyKiCadLibs-Lib:C C331
U 1 1 57156536
P 3350 7250
F 0 "C331" H 3350 7350 40  0000 L CNN
F 1 "100p" H 3360 7165 40  0000 L CNN
F 2 "MyKiCadLibs-Footprints:SMD-0805" H 3388 7100 30  0001 C CNN
F 3 "" H 3350 7350 60  0000 C CNN
F 4 "50V" H 3415 7100 40  0000 C CNN "Voltage"
F 5 "C0G" H 3420 7025 40  0000 C CNN "Type"
F 6 "Ceramic capacitor" H 3350 7550 40  0001 L CNN "Description"
F 7 "5%" H 3750 7750 40  0001 C CNN "Tolerance"
F 8 "0805" H 3350 7250 60  0001 C CNN "Size"
	1    3350 7250
	1    0    0    -1  
$EndComp
$Comp
L MyKiCadLibs-Lib:C C325
U 1 1 57158E89
P 9150 5450
F 0 "C325" H 9150 5550 40  0000 L CNN
F 1 "100p" H 9160 5365 40  0000 L CNN
F 2 "MyKiCadLibs-Footprints:SMD-0805" H 9188 5300 30  0001 C CNN
F 3 "" H 9150 5550 60  0000 C CNN
F 4 "50V" H 9215 5300 40  0000 C CNN "Voltage"
F 5 "C0G" H 9220 5225 40  0000 C CNN "Type"
F 6 "Ceramic capacitor" H 9150 5750 40  0001 L CNN "Description"
F 7 "5%" H 9550 5950 40  0001 C CNN "Tolerance"
F 8 "0805" H 9150 5450 60  0001 C CNN "Size"
	1    9150 5450
	1    0    0    -1  
$EndComp
$Comp
L MyKiCadLibs-Lib:CP1 C321
U 1 1 5715DFCB
P 6950 3450
F 0 "C321" H 7000 3550 50  0000 L CNN
F 1 "220u" H 7000 3350 50  0000 L CNN
F 2 "MyKiCadLibs-Footprints:CAP-TH-D6.3mmP2.5mm" H 6950 3450 60  0001 C CNN
F 3 "" H 6950 3450 60  0000 C CNN
F 4 "10V" H 7005 3265 50  0000 L CNN "Voltage"
F 5 "2.5mm pitch, 6.3mm diameter" H 6950 3750 40  0001 L CNN "Type"
F 6 "Low impedance aluminium electrolytic capacitor - Panasonic FC, FR or similar" H 6950 3850 40  0001 L CNN "Description"
	1    6950 3450
	1    0    0    -1  
$EndComp
$Comp
L MyKiCadLibs-Lib:CP1 C303
U 1 1 571622B7
P 5900 1850
F 0 "C303" H 5950 1950 50  0000 L CNN
F 1 "220u" H 5950 1750 50  0000 L CNN
F 2 "MyKiCadLibs-Footprints:CAP-TH-D6.3mmP2.5mm" H 5900 1850 60  0001 C CNN
F 3 "" H 5900 1850 60  0000 C CNN
F 4 "10V" H 5955 1665 50  0000 L CNN "Voltage"
F 5 "2.5mm pitch, 6.3mm diameter" H 5900 2150 40  0001 L CNN "Type"
F 6 "Low impedance aluminium electrolytic capacitor - Panasonic FC, FR or similar" H 5900 2250 40  0001 L CNN "Description"
	1    5900 1850
	1    0    0    -1  
$EndComp
$Comp
L MyKiCadLibs-Lib:INDUCTOR L302
U 1 1 571725F8
P 2800 6400
F 0 "L302" V 2750 6400 40  0000 C CNN
F 1 "600R@100MHz" V 2900 6400 40  0000 C CNN
F 2 "MyKiCadLibs-Footprints:SMD-0805" H 2800 6400 60  0001 C CNN
F 3 "" H 2800 6400 60  0000 C CNN
F 4 "=>1A" V 2950 6400 40  0000 C CNN "Current"
F 5 "Ferrite bead, current rating 1A or higher, 600R@100MHz" V 3000 6450 40  0001 C CNN "Description"
F 6 "0805" V 2800 6400 60  0001 C CNN "Size"
	1    2800 6400
	0    -1   -1   0   
$EndComp
$Comp
L MyKiCadLibs-Lib:CONN_2x1 P303
U 1 1 57182425
P 1300 6400
F 0 "P303" V 1795 6245 40  0000 C CNN
F 1 "CONN_2x1" V 1740 6360 40  0000 C CNN
F 2 "MyKiCadLibs-Footprints:CONN-2WAY-2.54mm-3.81mm-SPACING" H 1640 6290 60  0001 C CNN
F 3 "" H 1640 6290 60  0000 C CNN
F 4 "2 way screw terminal, any 2.54mm to 3.81mm pitch part" H 1550 6150 40  0001 C CNN "Description"
	1    1300 6400
	-1   0    0    -1  
$EndComp
$Comp
L MyKiCadLibs-Lib:CONN_2x1 P301
U 1 1 5718A88A
P 10000 4650
F 0 "P301" V 10495 4495 40  0000 C CNN
F 1 "CONN_2x1" V 10440 4610 40  0000 C CNN
F 2 "MyKiCadLibs-Footprints:CONN_SIL_2_1MM" H 10340 4540 60  0001 C CNN
F 3 "" H 10340 4540 60  0000 C CNN
F 4 "1x2 2.54mm pitch pin header" H 10250 4400 40  0001 C CNN "Description"
	1    10000 4650
	1    0    0    -1  
$EndComp
$Comp
L MyKiCadLibs-Lib:CONN_2x1 P302
U 1 1 5718A91C
P 10000 5150
F 0 "P302" V 10495 4995 40  0000 C CNN
F 1 "CONN_2x1" V 10440 5110 40  0000 C CNN
F 2 "MyKiCadLibs-Footprints:CONN_SIL_2_1MM" H 10340 5040 60  0001 C CNN
F 3 "" H 10340 5040 60  0000 C CNN
F 4 "1x2 2.54mm pitch pin header" H 10250 4900 40  0001 C CNN "Description"
	1    10000 5150
	1    0    0    -1  
$EndComp
$Comp
L MyKiCadLibs-Lib:C C328
U 1 1 57145274
P 4550 6700
F 0 "C328" H 4550 6800 40  0000 L CNN
F 1 "100n" H 4560 6615 40  0000 L CNN
F 2 "MyKiCadLibs-Footprints:SMD-0805" H 4588 6550 30  0001 C CNN
F 3 "" H 4550 6800 60  0000 C CNN
F 4 "50V" H 4615 6550 40  0000 C CNN "Voltage"
F 5 "X7R" H 4620 6475 40  0000 C CNN "Type"
F 6 "Ceramic capacitor" H 4550 7000 40  0001 L CNN "Description"
F 7 "10%" H 4950 7200 40  0001 C CNN "Tolerance"
F 8 "0805" H 4550 6700 60  0001 C CNN "Size"
	1    4550 6700
	1    0    0    1   
$EndComp
$Comp
L MyKiCadLibs-Lib:C C327
U 1 1 5714560E
P 4200 6700
F 0 "C327" H 4200 6800 40  0000 L CNN
F 1 "22u" H 4210 6615 40  0000 L CNN
F 2 "MyKiCadLibs-Footprints:SMD-0805" H 4238 6550 30  0001 C CNN
F 3 "" H 4200 6800 60  0000 C CNN
F 4 "25V" H 4265 6550 40  0000 C CNN "Voltage"
F 5 "X5R" H 4270 6475 40  0000 C CNN "Type"
F 6 "Ceramic capacitor" H 4200 7000 40  0001 L CNN "Description"
F 7 "20%" H 4600 7200 40  0001 C CNN "Tolerance"
F 8 "0805" H 4200 6700 60  0001 C CNN "Size"
	1    4200 6700
	1    0    0    1   
$EndComp
$Comp
L MyKiCadLibs-Lib:C C324
U 1 1 57146A0C
P 9700 5150
F 0 "C324" H 9700 5250 40  0000 L CNN
F 1 "10u" H 9710 5065 40  0000 L CNN
F 2 "MyKiCadLibs-Footprints:SMD-0805" H 9738 5000 30  0001 C CNN
F 3 "" H 9700 5250 60  0000 C CNN
F 4 "10V" H 9765 5000 40  0000 C CNN "Voltage"
F 5 "X5R" H 9770 4925 40  0000 C CNN "Type"
F 6 "Ceramic capacitor" H 9700 5450 40  0001 L CNN "Description"
F 7 "20%" H 10100 5650 40  0001 C CNN "Tolerance"
F 8 "0805" H 9700 5150 60  0001 C CNN "Size"
	1    9700 5150
	1    0    0    -1  
$EndComp
$Comp
L MyKiCadLibs-Lib:C C323
U 1 1 57146B36
P 9400 5150
F 0 "C323" H 9400 5250 40  0000 L CNN
F 1 "100n" H 9410 5065 40  0000 L CNN
F 2 "MyKiCadLibs-Footprints:SMD-0805" H 9438 5000 30  0001 C CNN
F 3 "" H 9400 5250 60  0000 C CNN
F 4 "50V" H 9465 5000 40  0000 C CNN "Voltage"
F 5 "X7R" H 9470 4925 40  0000 C CNN "Type"
F 6 "Ceramic capacitor" H 9400 5450 40  0001 L CNN "Description"
F 7 "10%" H 9800 5650 40  0001 C CNN "Tolerance"
F 8 "0805" H 9400 5150 60  0001 C CNN "Size"
	1    9400 5150
	1    0    0    -1  
$EndComp
$Comp
L MyKiCadLibs-Lib:C C317
U 1 1 57149DB2
P 5700 3450
F 0 "C317" H 5700 3550 40  0000 L CNN
F 1 "22u" H 5710 3365 40  0000 L CNN
F 2 "MyKiCadLibs-Footprints:SMD-0805" H 5738 3300 30  0001 C CNN
F 3 "" H 5700 3550 60  0000 C CNN
F 4 "10V" H 5765 3300 40  0000 C CNN "Voltage"
F 5 "X5R" H 5770 3225 40  0000 C CNN "Type"
F 6 "Ceramic capacitor" H 5700 3750 40  0001 L CNN "Description"
F 7 "20%" H 6100 3950 40  0001 C CNN "Tolerance"
F 8 "0805" H 5700 3450 60  0001 C CNN "Size"
	1    5700 3450
	1    0    0    -1  
$EndComp
$Comp
L MyKiCadLibs-Lib:C C318
U 1 1 57149EE6
P 6000 3450
F 0 "C318" H 6000 3550 40  0000 L CNN
F 1 "22u" H 6010 3365 40  0000 L CNN
F 2 "MyKiCadLibs-Footprints:SMD-0805" H 6038 3300 30  0001 C CNN
F 3 "" H 6000 3550 60  0000 C CNN
F 4 "10V" H 6065 3300 40  0000 C CNN "Voltage"
F 5 "X5R" H 6070 3225 40  0000 C CNN "Type"
F 6 "Ceramic capacitor" H 6000 3750 40  0001 L CNN "Description"
F 7 "20%" H 6400 3950 40  0001 C CNN "Tolerance"
F 8 "0805" H 6000 3450 60  0001 C CNN "Size"
	1    6000 3450
	1    0    0    -1  
$EndComp
$Comp
L MyKiCadLibs-Lib:C C319
U 1 1 57149FF1
P 6300 3450
F 0 "C319" H 6300 3550 40  0000 L CNN
F 1 "100n" H 6310 3365 40  0000 L CNN
F 2 "MyKiCadLibs-Footprints:SMD-0805" H 6338 3300 30  0001 C CNN
F 3 "" H 6300 3550 60  0000 C CNN
F 4 "50V" H 6365 3300 40  0000 C CNN "Voltage"
F 5 "X7R" H 6370 3225 40  0000 C CNN "Type"
F 6 "Ceramic capacitor" H 6300 3750 40  0001 L CNN "Description"
F 7 "10%" H 6700 3950 40  0001 C CNN "Tolerance"
F 8 "0805" H 6300 3450 60  0001 C CNN "Size"
	1    6300 3450
	1    0    0    -1  
$EndComp
$Comp
L MyKiCadLibs-Lib:C C313
U 1 1 5714AA05
P 4100 2850
F 0 "C313" H 4100 2950 40  0000 L CNN
F 1 "100n" H 4110 2765 40  0000 L CNN
F 2 "MyKiCadLibs-Footprints:SMD-0805" H 4138 2700 30  0001 C CNN
F 3 "" H 4100 2950 60  0000 C CNN
F 4 "50V" H 4165 2700 40  0000 C CNN "Voltage"
F 5 "X7R" H 4170 2625 40  0000 C CNN "Type"
F 6 "Ceramic capacitor" H 4100 3150 40  0001 L CNN "Description"
F 7 "10%" H 4500 3350 40  0001 C CNN "Tolerance"
F 8 "0805" H 4100 2850 60  0001 C CNN "Size"
	1    4100 2850
	0    -1   -1   0   
$EndComp
$Comp
L MyKiCadLibs-Lib:C C315
U 1 1 5714C4A0
P 1400 3300
F 0 "C315" H 1400 3400 40  0000 L CNN
F 1 "100n" H 1410 3215 40  0000 L CNN
F 2 "MyKiCadLibs-Footprints:SMD-0805" H 1438 3150 30  0001 C CNN
F 3 "" H 1400 3400 60  0000 C CNN
F 4 "50V" H 1465 3150 40  0000 C CNN "Voltage"
F 5 "X7R" H 1470 3075 40  0000 C CNN "Type"
F 6 "Ceramic capacitor" H 1400 3600 40  0001 L CNN "Description"
F 7 "10%" H 1800 3800 40  0001 C CNN "Tolerance"
F 8 "0805" H 1400 3300 60  0001 C CNN "Size"
	1    1400 3300
	1    0    0    1   
$EndComp
$Comp
L MyKiCadLibs-Lib:C C314
U 1 1 5714C4AB
P 1050 3300
F 0 "C314" H 1050 3400 40  0000 L CNN
F 1 "22u" H 1060 3215 40  0000 L CNN
F 2 "MyKiCadLibs-Footprints:SMD-0805" H 1088 3150 30  0001 C CNN
F 3 "" H 1050 3400 60  0000 C CNN
F 4 "25V" H 1115 3150 40  0000 C CNN "Voltage"
F 5 "X5R" H 1120 3075 40  0000 C CNN "Type"
F 6 "Ceramic capacitor" H 1050 3600 40  0001 L CNN "Description"
F 7 "20%" H 1450 3800 40  0001 C CNN "Tolerance"
F 8 "0805" H 1050 3300 60  0001 C CNN "Size"
	1    1050 3300
	1    0    0    1   
$EndComp
$Comp
L MyKiCadLibs-Lib:C C311
U 1 1 5714D57A
P 3950 1900
F 0 "C311" H 3950 2000 40  0000 L CNN
F 1 "100n" H 3960 1815 40  0000 L CNN
F 2 "MyKiCadLibs-Footprints:SMD-0805" H 3988 1750 30  0001 C CNN
F 3 "" H 3950 2000 60  0000 C CNN
F 4 "50V" H 4015 1750 40  0000 C CNN "Voltage"
F 5 "X7R" H 4020 1675 40  0000 C CNN "Type"
F 6 "Ceramic capacitor" H 3950 2200 40  0001 L CNN "Description"
F 7 "10%" H 4350 2400 40  0001 C CNN "Tolerance"
F 8 "0805" H 3950 1900 60  0001 C CNN "Size"
	1    3950 1900
	1    0    0    -1  
$EndComp
$Comp
L MyKiCadLibs-Lib:C C310
U 1 1 5714D585
P 3650 1900
F 0 "C310" H 3650 2000 40  0000 L CNN
F 1 "22u" H 3660 1815 40  0000 L CNN
F 2 "MyKiCadLibs-Footprints:SMD-0805" H 3688 1750 30  0001 C CNN
F 3 "" H 3650 2000 60  0000 C CNN
F 4 "25V" H 3715 1750 40  0000 C CNN "Voltage"
F 5 "X5R" H 3720 1675 40  0000 C CNN "Type"
F 6 "Ceramic capacitor" H 3650 2200 40  0001 L CNN "Description"
F 7 "20%" H 4050 2400 40  0001 C CNN "Tolerance"
F 8 "0805" H 3650 1900 60  0001 C CNN "Size"
	1    3650 1900
	1    0    0    -1  
$EndComp
$Comp
L MyKiCadLibs-Lib:C C302
U 1 1 5714EFE5
P 5650 1850
F 0 "C302" H 5650 1950 40  0000 L CNN
F 1 "22u" H 5660 1765 40  0000 L CNN
F 2 "MyKiCadLibs-Footprints:SMD-0805" H 5688 1700 30  0001 C CNN
F 3 "" H 5650 1950 60  0000 C CNN
F 4 "10V" H 5715 1700 40  0000 C CNN "Voltage"
F 5 "X5R" H 5720 1625 40  0000 C CNN "Type"
F 6 "Ceramic capacitor" H 5650 2150 40  0001 L CNN "Description"
F 7 "20%" H 6050 2350 40  0001 C CNN "Tolerance"
F 8 "0805" H 5650 1850 60  0001 C CNN "Size"
	1    5650 1850
	1    0    0    -1  
$EndComp
$Comp
L MyKiCadLibs-Lib:C C301
U 1 1 5714EFF0
P 5400 1850
F 0 "C301" H 5400 1950 40  0000 L CNN
F 1 "100n" H 5410 1765 40  0000 L CNN
F 2 "MyKiCadLibs-Footprints:SMD-0805" H 5438 1700 30  0001 C CNN
F 3 "" H 5400 1950 60  0000 C CNN
F 4 "50V" H 5465 1700 40  0000 C CNN "Voltage"
F 5 "X7R" H 5470 1625 40  0000 C CNN "Type"
F 6 "Ceramic capacitor" H 5400 2150 40  0001 L CNN "Description"
F 7 "10%" H 5800 2350 40  0001 C CNN "Tolerance"
F 8 "0805" H 5400 1850 60  0001 C CNN "Size"
	1    5400 1850
	1    0    0    -1  
$EndComp
$Comp
L MyKiCadLibs-Lib:C C304
U 1 1 5714FE7B
P 6700 1850
F 0 "C304" H 6700 1950 40  0000 L CNN
F 1 "100n" H 6710 1765 40  0000 L CNN
F 2 "MyKiCadLibs-Footprints:SMD-0805" H 6738 1700 30  0001 C CNN
F 3 "" H 6700 1950 60  0000 C CNN
F 4 "50V" H 6765 1700 40  0000 C CNN "Voltage"
F 5 "X7R" H 6770 1625 40  0000 C CNN "Type"
F 6 "Ceramic capacitor" H 6700 2150 40  0001 L CNN "Description"
F 7 "10%" H 7100 2350 40  0001 C CNN "Tolerance"
F 8 "0805" H 6700 1850 60  0001 C CNN "Size"
	1    6700 1850
	1    0    0    -1  
$EndComp
$Comp
L MyKiCadLibs-Lib:C C305
U 1 1 5714FE86
P 6950 1850
F 0 "C305" H 6950 1950 40  0000 L CNN
F 1 "10u" H 6960 1765 40  0000 L CNN
F 2 "MyKiCadLibs-Footprints:SMD-0805" H 6988 1700 30  0001 C CNN
F 3 "" H 6950 1950 60  0000 C CNN
F 4 "10V" H 7015 1700 40  0000 C CNN "Voltage"
F 5 "X5R" H 7020 1625 40  0000 C CNN "Type"
F 6 "Ceramic capacitor" H 6950 2150 40  0001 L CNN "Description"
F 7 "20%" H 7350 2350 40  0001 C CNN "Tolerance"
F 8 "0805" H 6950 1850 60  0001 C CNN "Size"
	1    6950 1850
	1    0    0    -1  
$EndComp
$Comp
L MyKiCadLibs-Lib:C C306
U 1 1 57150611
P 7200 1850
F 0 "C306" H 7200 1950 40  0000 L CNN
F 1 "100n" H 7210 1765 40  0000 L CNN
F 2 "MyKiCadLibs-Footprints:SMD-0805" H 7238 1700 30  0001 C CNN
F 3 "" H 7200 1950 60  0000 C CNN
F 4 "50V" H 7265 1700 40  0000 C CNN "Voltage"
F 5 "X7R" H 7270 1625 40  0000 C CNN "Type"
F 6 "Ceramic capacitor" H 7200 2150 40  0001 L CNN "Description"
F 7 "10%" H 7600 2350 40  0001 C CNN "Tolerance"
F 8 "0805" H 7200 1850 60  0001 C CNN "Size"
	1    7200 1850
	1    0    0    -1  
$EndComp
$Comp
L MyKiCadLibs-Lib:C C307
U 1 1 5715061C
P 7450 1850
F 0 "C307" H 7450 1950 40  0000 L CNN
F 1 "10u" H 7460 1765 40  0000 L CNN
F 2 "MyKiCadLibs-Footprints:SMD-0805" H 7488 1700 30  0001 C CNN
F 3 "" H 7450 1950 60  0000 C CNN
F 4 "10V" H 7515 1700 40  0000 C CNN "Voltage"
F 5 "X5R" H 7520 1625 40  0000 C CNN "Type"
F 6 "Ceramic capacitor" H 7450 2150 40  0001 L CNN "Description"
F 7 "20%" H 7850 2350 40  0001 C CNN "Tolerance"
F 8 "0805" H 7450 1850 60  0001 C CNN "Size"
	1    7450 1850
	1    0    0    -1  
$EndComp
$Comp
L MyKiCadLibs-Lib:C C308
U 1 1 57150A49
P 7700 1850
F 0 "C308" H 7700 1950 40  0000 L CNN
F 1 "100n" H 7710 1765 40  0000 L CNN
F 2 "MyKiCadLibs-Footprints:SMD-0805" H 7738 1700 30  0001 C CNN
F 3 "" H 7700 1950 60  0000 C CNN
F 4 "50V" H 7765 1700 40  0000 C CNN "Voltage"
F 5 "X7R" H 7770 1625 40  0000 C CNN "Type"
F 6 "Ceramic capacitor" H 7700 2150 40  0001 L CNN "Description"
F 7 "10%" H 8100 2350 40  0001 C CNN "Tolerance"
F 8 "0805" H 7700 1850 60  0001 C CNN "Size"
	1    7700 1850
	1    0    0    -1  
$EndComp
$Comp
L MyKiCadLibs-Lib:C C309
U 1 1 57150A54
P 7950 1850
F 0 "C309" H 7950 1950 40  0000 L CNN
F 1 "10u" H 7960 1765 40  0000 L CNN
F 2 "MyKiCadLibs-Footprints:SMD-0805" H 7988 1700 30  0001 C CNN
F 3 "" H 7950 1950 60  0000 C CNN
F 4 "10V" H 8015 1700 40  0000 C CNN "Voltage"
F 5 "X5R" H 8020 1625 40  0000 C CNN "Type"
F 6 "Ceramic capacitor" H 7950 2150 40  0001 L CNN "Description"
F 7 "20%" H 8350 2350 40  0001 C CNN "Tolerance"
F 8 "0805" H 7950 1850 60  0001 C CNN "Size"
	1    7950 1850
	1    0    0    -1  
$EndComp
$Comp
L MyKiCadLibs-Lib:R R301
U 1 1 570EE68B
P 2000 3050
F 0 "R301" V 1900 3050 40  0000 C CNN
F 1 "100k" V 2007 3051 40  0000 C CNN
F 2 "MyKiCadLibs-Footprints:SMD-0805" V 1930 3050 30  0001 C CNN
F 3 "" V 1920 3050 30  0000 C CNN
F 4 "100mW" V 2100 3050 40  0001 C CNN "Power"
F 5 "Thick or thin film resistor" V 2245 3050 40  0001 C CNN "Description"
F 6 "0805" V 2175 3050 40  0001 C CNN "Size"
F 7 "1%" V 2325 3050 40  0001 C CNN "Tolerance"
	1    2000 3050
	0    1    1    0   
$EndComp
$Comp
L MyKiCadLibs-Lib:R R304
U 1 1 570EF283
P 2000 3300
F 0 "R304" V 1900 3300 40  0000 C CNN
F 1 "100k" V 2007 3301 40  0000 C CNN
F 2 "MyKiCadLibs-Footprints:SMD-0805" V 1930 3300 30  0001 C CNN
F 3 "" V 1920 3300 30  0000 C CNN
F 4 "100mW" V 2100 3300 40  0001 C CNN "Power"
F 5 "Thick or thin film resistor" V 2245 3300 40  0001 C CNN "Description"
F 6 "0805" V 2175 3300 40  0001 C CNN "Size"
F 7 "1%" V 2325 3300 40  0001 C CNN "Tolerance"
	1    2000 3300
	0    -1   1    0   
$EndComp
$Comp
L MyKiCadLibs-Lib:R R303
U 1 1 570F0188
P 5050 3250
F 0 "R303" V 4950 3250 40  0000 C CNN
F 1 "10k" V 5057 3251 40  0000 C CNN
F 2 "MyKiCadLibs-Footprints:SMD-0805" V 4980 3250 30  0001 C CNN
F 3 "" V 4970 3250 30  0000 C CNN
F 4 "100mW" V 5150 3250 40  0001 C CNN "Power"
F 5 "Thick or thin film resistor" V 5295 3250 40  0001 C CNN "Description"
F 6 "0805" V 5225 3250 40  0001 C CNN "Size"
F 7 "1%" V 5375 3250 40  0001 C CNN "Tolerance"
	1    5050 3250
	0    -1   1    0   
$EndComp
$Comp
L MyKiCadLibs-Lib:R R305
U 1 1 570F087A
P 5050 3650
F 0 "R305" V 5150 3650 40  0000 C CNN
F 1 "10k" V 5057 3651 40  0000 C CNN
F 2 "MyKiCadLibs-Footprints:SMD-0805" V 4980 3650 30  0001 C CNN
F 3 "" V 4970 3650 30  0000 C CNN
F 4 "100mW" V 5150 3650 40  0001 C CNN "Power"
F 5 "Thick or thin film resistor" V 5295 3650 40  0001 C CNN "Description"
F 6 "0805" V 5225 3650 40  0001 C CNN "Size"
F 7 "1%" V 5375 3650 40  0001 C CNN "Tolerance"
	1    5050 3650
	0    1    1    0   
$EndComp
$Comp
L MyKiCadLibs-Lib:R R307
U 1 1 570E3C05
P 9150 4950
F 0 "R307" V 9070 4950 40  0000 C CNN
F 1 "47" V 9157 4951 40  0000 C CNN
F 2 "MyKiCadLibs-Footprints:SMD-0805" V 9080 4950 30  0001 C CNN
F 3 "" V 9070 4950 30  0000 C CNN
F 4 "100mW" V 9250 4950 40  0001 C CNN "Power"
F 5 "Thick or thin film resistor" V 9395 4950 40  0001 C CNN "Description"
F 6 "0805" V 9325 4950 40  0001 C CNN "Size"
F 7 "1%" V 9475 4950 40  0001 C CNN "Tolerance"
	1    9150 4950
	1    0    0    -1  
$EndComp
$Comp
L MyKiCadLibs-Lib:R R306
U 1 1 570E3C10
P 8700 4650
F 0 "R306" V 8620 4650 40  0000 C CNN
F 1 "1" V 8707 4651 40  0000 C CNN
F 2 "MyKiCadLibs-Footprints:SMD-0805" V 8630 4650 30  0001 C CNN
F 3 "" V 8620 4650 30  0000 C CNN
F 4 "100mW" V 8800 4650 40  0001 C CNN "Power"
F 5 "Thick or thin film resistor" V 8945 4650 40  0001 C CNN "Description"
F 6 "0805" V 8875 4650 40  0001 C CNN "Size"
F 7 "1%" V 9025 4650 40  0001 C CNN "Tolerance"
	1    8700 4650
	0    1    1    0   
$EndComp
$Comp
L MyKiCadLibs-Lib:R R308
U 1 1 570E49A4
P 3350 6700
F 0 "R308" V 3270 6700 40  0000 C CNN
F 1 "47" V 3357 6701 40  0000 C CNN
F 2 "MyKiCadLibs-Footprints:SMD-0805" V 3280 6700 30  0001 C CNN
F 3 "" V 3270 6700 30  0000 C CNN
F 4 "100mW" V 3450 6700 40  0001 C CNN "Power"
F 5 "Thick or thin film resistor" V 3595 6700 40  0001 C CNN "Description"
F 6 "0805" V 3525 6700 40  0001 C CNN "Size"
F 7 "1%" V 3675 6700 40  0001 C CNN "Tolerance"
	1    3350 6700
	1    0    0    -1  
$EndComp
$Comp
L MyKiCadLibs-Lib:R R309
U 1 1 570E4DCF
P 6250 6700
F 0 "R309" V 6170 6700 40  0000 C CNN
F 1 "470" V 6257 6701 40  0000 C CNN
F 2 "MyKiCadLibs-Footprints:SMD-0805" V 6180 6700 30  0001 C CNN
F 3 "" V 6170 6700 30  0000 C CNN
F 4 "100mW" V 6350 6700 40  0001 C CNN "Power"
F 5 "Thick or thin film resistor" V 6495 6700 40  0001 C CNN "Description"
F 6 "0805" V 6425 6700 40  0001 C CNN "Size"
F 7 "1%" V 6575 6700 40  0001 C CNN "Tolerance"
	1    6250 6700
	1    0    0    -1  
$EndComp
$Comp
L MyKiCadLibs-Lib:SCHOTTKY_DIODE D304
U 1 1 57194B07
P 2050 6400
F 0 "D304" H 2050 6500 40  0000 C CNN
F 1 "B240A" H 2050 6300 40  0000 C CNN
F 2 "MyKiCadLibs-Footprints:DIODE-SMA" H 2050 6400 60  0001 C CNN
F 3 "~" H 2050 6400 60  0000 C CNN
F 4 "B240A 2A 40V Schottky Rectifier - SMA (DO-214AC)" H 2050 6400 60  0001 C CNN "Description"
	1    2050 6400
	1    0    0    -1  
$EndComp
$Comp
L MyKiCadLibs-Lib:MNT_HOLE MNT302
U 1 1 5727A158
P 1300 7300
F 0 "MNT302" H 1300 7400 60  0000 C CNN
F 1 "MNT_HOLE" H 1300 7400 60  0001 C CNN
F 2 "MyKiCadLibs-Footprints:MNT_HOLE_3.2mm" H 1300 7400 60  0001 C CNN
F 3 "" H 1300 7400 60  0000 C CNN
F 4 "Mounting hole" H 1300 7300 60  0001 C CNN "Description"
	1    1300 7300
	1    0    0    -1  
$EndComp
$Comp
L MyKiCadLibs-Lib:MNT_HOLE MNT303
U 1 1 5727A361
P 900 7550
F 0 "MNT303" H 900 7650 60  0000 C CNN
F 1 "MNT_HOLE" H 900 7650 60  0001 C CNN
F 2 "MyKiCadLibs-Footprints:MNT_HOLE_3.2mm" H 900 7650 60  0001 C CNN
F 3 "" H 900 7650 60  0000 C CNN
F 4 "Mounting hole" H 900 7550 60  0001 C CNN "Description"
	1    900  7550
	1    0    0    -1  
$EndComp
$Comp
L MyKiCadLibs-Lib:MNT_HOLE MNT304
U 1 1 5727A63C
P 1300 7550
F 0 "MNT304" H 1300 7650 60  0000 C CNN
F 1 "MNT_HOLE" H 1300 7650 60  0001 C CNN
F 2 "MyKiCadLibs-Footprints:MNT_HOLE_3.2mm" H 1300 7650 60  0001 C CNN
F 3 "" H 1300 7650 60  0000 C CNN
F 4 "Mounting hole" H 1300 7550 60  0001 C CNN "Description"
	1    1300 7550
	1    0    0    -1  
$EndComp
$Comp
L MyKiCadLibs-Lib:MNT_HOLE FID302
U 1 1 5727AC23
P 2100 7300
F 0 "FID302" H 2100 7400 60  0000 C CNN
F 1 "MNT_HOLE" H 2100 7400 60  0001 C CNN
F 2 "MyKiCadLibs-Footprints:FID-1MM-3MM" H 2100 7400 60  0001 C CNN
F 3 "" H 2100 7400 60  0000 C CNN
F 4 "Fiducial" H 2100 7300 60  0001 C CNN "Description"
	1    2100 7300
	1    0    0    -1  
$EndComp
$Comp
L MyKiCadLibs-Lib:MNT_HOLE FID303
U 1 1 5727AF05
P 1700 7550
F 0 "FID303" H 1700 7650 60  0000 C CNN
F 1 "MNT_HOLE" H 1700 7650 60  0001 C CNN
F 2 "MyKiCadLibs-Footprints:FID-1MM-3MM" H 1700 7650 60  0001 C CNN
F 3 "" H 1700 7650 60  0000 C CNN
F 4 "Fiducial" H 1700 7550 60  0001 C CNN "Description"
	1    1700 7550
	1    0    0    -1  
$EndComp
$Comp
L MyKiCadLibs-Lib:MNT_HOLE FID304
U 1 1 5727B1E9
P 2100 7550
F 0 "FID304" H 2100 7650 60  0000 C CNN
F 1 "MNT_HOLE" H 2100 7650 60  0001 C CNN
F 2 "MyKiCadLibs-Footprints:FID-1MM-3MM" H 2100 7650 60  0001 C CNN
F 3 "" H 2100 7650 60  0000 C CNN
F 4 "Fiducial" H 2100 7550 60  0001 C CNN "Description"
	1    2100 7550
	1    0    0    -1  
$EndComp
$Comp
L power:+3V3 #PWR301
U 1 1 5924BB28
P 8300 1500
F 0 "#PWR301" H 8300 1350 50  0001 C CNN
F 1 "+3V3" H 8300 1640 50  0000 C CNN
F 2 "" H 8300 1500 50  0001 C CNN
F 3 "" H 8300 1500 50  0001 C CNN
	1    8300 1500
	1    0    0    -1  
$EndComp
$Comp
L power:+3V3 #PWR319
U 1 1 5924BD0F
P 8250 4600
F 0 "#PWR319" H 8250 4450 50  0001 C CNN
F 1 "+3V3" H 8250 4740 50  0000 C CNN
F 2 "" H 8250 4600 50  0001 C CNN
F 3 "" H 8250 4600 50  0001 C CNN
	1    8250 4600
	1    0    0    -1  
$EndComp
$Comp
L power:+1V2 #PWR307
U 1 1 5924E896
P 6950 2900
F 0 "#PWR307" H 6950 2750 50  0001 C CNN
F 1 "+1V2" H 6950 3040 50  0000 C CNN
F 2 "" H 6950 2900 50  0001 C CNN
F 3 "" H 6950 2900 50  0001 C CNN
	1    6950 2900
	1    0    0    -1  
$EndComp
$Comp
L power:+3V3 #PWR305
U 1 1 5929EFE7
P 1650 2600
F 0 "#PWR305" H 1650 2450 50  0001 C CNN
F 1 "+3V3" H 1650 2740 50  0000 C CNN
F 2 "" H 1650 2600 50  0001 C CNN
F 3 "" H 1650 2600 50  0001 C CNN
	1    1650 2600
	1    0    0    -1  
$EndComp
Text Notes 5450 1250 0    60   ~ 0
Max 0.35A, Vdrop 2.7V @ 6V input\nPower dissipation = 0.35A*2.7V = 0.75W\nTemperature rise = 63C/W * 0.95W = 60C\nJunction = 60C + 60C = 120C \nSo 30C margin at 60C ambient
Wire Wire Line
	2600 2950 2750 2950
Wire Wire Line
	2600 2550 2600 2950
Wire Wire Line
	3750 2950 3600 2950
Wire Wire Line
	3750 2550 3750 2950
Wire Wire Line
	3600 3150 3750 3150
Wire Wire Line
	3750 3150 3750 3250
$Comp
L MyKiCadLibs-Lib:DIODE D303
U 1 1 592E6691
P 3200 2550
F 0 "D303" H 3200 2650 40  0000 C CNN
F 1 "1N4148W-7-F" H 3200 2450 40  0000 C CNN
F 2 "MyKiCadLibs-Footprints:DIODE-SOD-123" H 3200 2550 60  0001 C CNN
F 3 "" H 3200 2550 60  0000 C CNN
F 4 "1N4148 SOD-123 Diode" H 3200 2550 60  0001 C CNN "Description"
	1    3200 2550
	1    0    0    -1  
$EndComp
Wire Wire Line
	3400 2550 3750 2550
Connection ~ 3750 2850
Wire Wire Line
	3000 2550 2600 2550
Connection ~ 2600 2850
$Comp
L power:GNDD #PWR317
U 1 1 592E9078
P 6950 3700
F 0 "#PWR317" H 6950 3450 60  0001 C CNN
F 1 "GNDD" H 6950 3550 60  0000 C CNN
F 2 "" H 6950 3700 60  0000 C CNN
F 3 "" H 6950 3700 60  0000 C CNN
	1    6950 3700
	1    0    0    -1  
$EndComp
Wire Wire Line
	6950 3700 6950 3650
Connection ~ 6950 3050
Connection ~ 6450 3050
Wire Wire Line
	5400 3700 5400 3650
Wire Wire Line
	5400 3650 5300 3650
$Comp
L MyKiCadLibs-Lib:C C316
U 1 1 592EB8D1
P 5050 3450
F 0 "C316" V 5000 3200 40  0000 L CNN
F 1 "N/F" V 5100 3200 40  0000 L CNN
F 2 "MyKiCadLibs-Footprints:SMD-0805" H 5088 3300 30  0001 C CNN
F 3 "" H 5050 3550 60  0000 C CNN
F 4 "50V" V 5000 3650 40  0000 C CNN "Voltage"
F 5 "C0G" V 5100 3650 40  0000 C CNN "Type"
F 6 "Ceramic capacitor - NOT FITTED" H 5050 3750 40  0001 L CNN "Description"
F 7 "5%" H 5450 3950 40  0001 C CNN "Tolerance"
F 8 "0805" H 5050 3450 60  0001 C CNN "Size"
	1    5050 3450
	0    1    1    0   
$EndComp
Wire Wire Line
	4850 3450 4700 3450
Connection ~ 4700 3450
Wire Wire Line
	5500 3450 5250 3450
Connection ~ 5500 3250
$Comp
L MyKiCadLibs-Lib:C C320
U 1 1 592EF076
P 6600 3450
F 0 "C320" H 6600 3550 40  0000 L CNN
F 1 "10n" H 6610 3365 40  0000 L CNN
F 2 "MyKiCadLibs-Footprints:SMD-0805" H 6638 3300 30  0001 C CNN
F 3 "" H 6600 3550 60  0000 C CNN
F 4 "50V" H 6665 3300 40  0000 C CNN "Voltage"
F 5 "X7R" H 6670 3225 40  0000 C CNN "Type"
F 6 "Ceramic capacitor" H 6600 3750 40  0001 L CNN "Description"
F 7 "10%" H 7000 3950 40  0001 C CNN "Tolerance"
F 8 "0805" H 6600 3450 60  0001 C CNN "Size"
	1    6600 3450
	1    0    0    -1  
$EndComp
Wire Wire Line
	6600 3250 6600 3050
Connection ~ 6600 3050
$Comp
L power:GNDD #PWR316
U 1 1 592EF24D
P 6600 3700
F 0 "#PWR316" H 6600 3450 60  0001 C CNN
F 1 "GNDD" H 6600 3550 60  0000 C CNN
F 2 "" H 6600 3700 60  0000 C CNN
F 3 "" H 6600 3700 60  0000 C CNN
	1    6600 3700
	1    0    0    -1  
$EndComp
Wire Wire Line
	6600 3700 6600 3650
$Comp
L MyKiCadLibs-Lib:R R302
U 1 1 592F44FB
P 4300 3250
F 0 "R302" V 4200 3250 40  0000 C CNN
F 1 "4k7" V 4307 3251 40  0000 C CNN
F 2 "MyKiCadLibs-Footprints:SMD-0805" V 4230 3250 30  0001 C CNN
F 3 "" V 4220 3250 30  0000 C CNN
F 4 "100mW" V 4400 3250 40  0001 C CNN "Power"
F 5 "Thick or thin film resistor" V 4545 3250 40  0001 C CNN "Description"
F 6 "0805" V 4475 3250 40  0001 C CNN "Size"
F 7 "1%" V 4625 3250 40  0001 C CNN "Tolerance"
	1    4300 3250
	0    -1   1    0   
$EndComp
Wire Wire Line
	4550 3250 4800 3250
Wire Wire Line
	3750 3250 4050 3250
$Comp
L MyKiCadLibs-Lib:IC-REG-RT7285C U302
U 1 1 5966D0AC
P 2750 2950
F 0 "U302" H 3200 3100 60  0000 C CNN
F 1 "RT7285CJ6" H 3200 2600 60  0000 C CNN
F 2 "MyKiCadLibs-Footprints:IC-SOT23-6" H 3150 2600 60  0001 C CNN
F 3 "" H 3200 3100 60  0001 C CNN
F 4 "Richtek RT7285C 1.5A 18V Step Down Converter SOT-23-6" H 3150 2500 60  0001 C CNN "Description"
	1    2750 2950
	1    0    0    -1  
$EndComp
Text Notes 850  5900 0    60   ~ 0
4.85V to 5.5V max
$Comp
L MyKiCadLibs-Lib:IND-P3.5mm-D7.5mm L301
U 1 1 5967C407
P 4750 3050
F 0 "L301" V 4700 3050 40  0000 C CNN
F 1 "DR0608-472L" V 4850 3050 40  0000 C CNN
F 2 "MyKiCadLibs-Footprints:IND-TH-DR0608" V 5060 3055 40  0001 C CNN
F 3 "" H 4750 3050 60  0000 C CNN
F 4 "Isat 4.6A" V 4915 3050 40  0001 C CNN "Current"
F 5 "eg Coilcraft DR0608" V 4985 3050 40  0001 C CNN "Description"
	1    4750 3050
	0    -1   -1   0   
$EndComp
$Comp
L MyKiCadLibs-Lib:C C322
U 1 1 5967DBD4
P 2300 3600
F 0 "C322" H 2300 3700 40  0000 L CNN
F 1 "10n" H 2310 3515 40  0000 L CNN
F 2 "MyKiCadLibs-Footprints:SMD-0805" H 2338 3450 30  0001 C CNN
F 3 "" H 2300 3700 60  0000 C CNN
F 4 "50V" H 2365 3450 40  0000 C CNN "Voltage"
F 5 "X7R" H 2370 3375 40  0000 C CNN "Type"
F 6 "Ceramic capacitor" H 2300 3900 40  0001 L CNN "Description"
F 7 "10%" H 2700 4100 40  0001 C CNN "Tolerance"
F 8 "0805" H 2300 3600 60  0001 C CNN "Size"
	1    2300 3600
	1    0    0    1   
$EndComp
$Comp
L power:GNDD #PWR318
U 1 1 5967E0F5
P 2300 3900
F 0 "#PWR318" H 2300 3650 60  0001 C CNN
F 1 "GNDD" H 2300 3750 60  0000 C CNN
F 2 "" H 2300 3900 60  0000 C CNN
F 3 "" H 2300 3900 60  0000 C CNN
	1    2300 3900
	1    0    0    -1  
$EndComp
Wire Wire Line
	2300 3800 2300 3900
Connection ~ 2300 3300
Wire Wire Line
	4550 6900 4550 6950
Wire Wire Line
	4550 6950 3800 6950
Wire Wire Line
	4550 6500 4550 6400
Wire Wire Line
	4550 6400 3100 6400
$Comp
L power:VCC #PWR322
U 1 1 59B1C103
P 6250 6400
F 0 "#PWR322" H 6250 6250 60  0001 C CNN
F 1 "VCC" H 6250 6550 60  0000 C CNN
F 2 "" H 6250 6400 60  0000 C CNN
F 3 "" H 6250 6400 60  0000 C CNN
	1    6250 6400
	1    0    0    -1  
$EndComp
$Comp
L MyKiCadLibs-Lib:DIODE_1N5819HW D301
U 1 1 59B6C4C4
P 4850 1150
F 0 "D301" H 4850 1250 40  0000 C CNN
F 1 "1N5819HW" H 4850 1050 40  0000 C CNN
F 2 "MyKiCadLibs-Footprints:DIODE-SOD-123" H 4850 850 60  0001 C CNN
F 3 "" H 4850 1150 60  0000 C CNN
F 4 "1A 40V Schottky Rectifier - SOD-123" H 4850 950 40  0001 C CNN "Description"
	1    4850 1150
	-1   0    0    1   
$EndComp
$Comp
L MyKiCadLibs-Lib:DIODE_1N5819HW D302
U 1 1 59B6CC6A
P 6350 1850
F 0 "D302" H 6350 1950 40  0000 C CNN
F 1 "1N5819HW" H 6350 1750 40  0000 C CNN
F 2 "MyKiCadLibs-Footprints:DIODE-SOD-123" H 6350 1550 60  0001 C CNN
F 3 "" H 6350 1850 60  0000 C CNN
F 4 "1A 40V Schottky Rectifier - SOD-123" H 6350 1650 40  0001 C CNN "Description"
	1    6350 1850
	0    -1   -1   0   
$EndComp
$EndSCHEMATC
