EESchema Schematic File Version 4
LIBS:DSP-ADAU1452-cache
EELAYER 26 0
EELAYER END
$Descr A3 16535 11693
encoding utf-8
Sheet 5 6
Title "DSP-ADAU1452 - ADAU1452, ADAU1451, ADAU1450 supported"
Date "2018-09-05"
Rev "3.0"
Comp "Open Hardware DSP Platform - www.ohdsp.org"
Comment1 "MERCHANTABILITY, SATISFACTORY QUALITY AND FITNESS FOR A PARTICULAR PURPOSE."
Comment2 "is distributed WITHOUT ANY EXPRESS OR IMPLIED WARRANTY, INCLUDING OF"
Comment3 "Licensed under the TAPR Open Hardware License (www.tapr.org/OHL). This documentation"
Comment4 "Copyright Paul Janicki 2018"
$EndDescr
Text HLabel 3700 1950 2    60   Output ~ 0
ADC_LRCLK0
Text HLabel 3700 2150 2    60   Output ~ 0
ADC_BCLK0
Text HLabel 3700 2350 2    60   Output ~ 0
ADC_SDATA0
$Comp
L power:GNDD #PWR507
U 1 1 54DB76B6
P 6850 2350
F 0 "#PWR507" H 6850 2100 60  0001 C CNN
F 1 "GNDD" H 6850 2200 60  0000 C CNN
F 2 "" H 6850 2350 60  0000 C CNN
F 3 "" H 6850 2350 60  0000 C CNN
	1    6850 2350
	1    0    0    -1  
$EndComp
Text Notes 5200 3625 0    118  ~ 0
ADI EVAL-ADUSB2Z USB/I2C\nProgramming/Control
Text Label 5500 4100 0    60   ~ 0
SL_SCL
Text Label 5500 4200 0    60   ~ 0
SL_SDA
Text HLabel 12400 2050 0    60   Input ~ 0
DAC_LRCLK0
Text HLabel 12400 2250 0    60   Input ~ 0
DAC_BCLK0
Text HLabel 12400 2450 0    60   Input ~ 0
DAC_SDATA0
Text Notes 6300 1250 0    118  ~ 0
AUX ADC Inputs
Text HLabel 5400 4100 0    60   BiDi ~ 0
I2C_SCL
Text HLabel 5400 4200 0    60   BiDi ~ 0
I2C_SDA
Text Notes 5200 3850 0    59   ~ 0
These go to the slave port\nThese are 3V3 lines only!
Text HLabel 3650 3850 2    60   Output ~ 0
ADC_LRCLK1
Text HLabel 3650 4050 2    60   Output ~ 0
ADC_BCLK1
Text HLabel 3650 4250 2    60   Output ~ 0
ADC_SDATA1
Text HLabel 3550 7650 2    60   Output ~ 0
ADC_LRCLK3
Text HLabel 3550 7850 2    60   Output ~ 0
ADC_BCLK3
Text HLabel 3550 8050 2    60   Output ~ 0
ADC_SDATA3
$Comp
L power:GNDD #PWR544
U 1 1 54E4C333
P 2300 9050
F 0 "#PWR544" H 2300 8800 60  0001 C CNN
F 1 "GNDD" H 2300 8900 60  0000 C CNN
F 2 "" H 2300 9050 60  0000 C CNN
F 3 "" H 2300 9050 60  0000 C CNN
	1    2300 9050
	1    0    0    -1  
$EndComp
Text Notes 1050 1250 0    118  ~ 0
I2S Inputs
Text Notes 1050 1450 0    59   ~ 0
See ADAU1452 datasheet for details\nInputs are highly flexible
$Comp
L power:GNDD #PWR519
U 1 1 54E56282
P 13050 3350
F 0 "#PWR519" H 13050 3100 60  0001 C CNN
F 1 "GNDD" H 13050 3200 60  0000 C CNN
F 2 "" H 13050 3350 60  0000 C CNN
F 3 "" H 13050 3350 60  0000 C CNN
	1    13050 3350
	1    0    0    -1  
$EndComp
Text HLabel 12400 3900 0    60   Input ~ 0
DAC_LRCLK1
Text HLabel 12400 4100 0    60   Input ~ 0
DAC_BCLK1
Text HLabel 12400 4300 0    60   Input ~ 0
DAC_SDATA1
$Comp
L power:GNDD #PWR526
U 1 1 54E5AD24
P 13050 5200
F 0 "#PWR526" H 13050 4950 60  0001 C CNN
F 1 "GNDD" H 13050 5050 60  0000 C CNN
F 2 "" H 13050 5200 60  0000 C CNN
F 3 "" H 13050 5200 60  0000 C CNN
	1    13050 5200
	1    0    0    -1  
$EndComp
Text HLabel 12400 5750 0    60   Input ~ 0
DAC_LRCLK2
Text HLabel 12400 5950 0    60   Input ~ 0
DAC_BCLK2
Text HLabel 12400 6150 0    60   Input ~ 0
DAC_SDATA2
$Comp
L power:GNDD #PWR534
U 1 1 54E5B2A7
P 13050 7050
F 0 "#PWR534" H 13050 6800 60  0001 C CNN
F 1 "GNDD" H 13050 6900 60  0000 C CNN
F 2 "" H 13050 7050 60  0000 C CNN
F 3 "" H 13050 7050 60  0000 C CNN
	1    13050 7050
	1    0    0    -1  
$EndComp
Text HLabel 12400 7700 0    60   Input ~ 0
DAC_LRCLK3
Text HLabel 12400 7900 0    60   Input ~ 0
DAC_BCLK3
Text HLabel 12400 8100 0    60   Input ~ 0
DAC_SDATA3
$Comp
L power:GNDD #PWR543
U 1 1 54E5B61C
P 13050 9000
F 0 "#PWR543" H 13050 8750 60  0001 C CNN
F 1 "GNDD" H 13050 8850 60  0000 C CNN
F 2 "" H 13050 9000 60  0000 C CNN
F 3 "" H 13050 9000 60  0000 C CNN
	1    13050 9000
	1    0    0    -1  
$EndComp
Text Notes 11800 1250 0    118  ~ 0
I2S Outputs
Text HLabel 9300 2300 2    60   Output ~ 0
AUXADCIN_6
Text HLabel 9300 2200 2    60   Output ~ 0
AUXADCIN_5
Text HLabel 9300 2100 2    60   Output ~ 0
AUXADCIN_4
Text HLabel 9300 2000 2    60   Output ~ 0
AUXADCIN_3
Text HLabel 9300 1900 2    60   Output ~ 0
AUXADCIN_2
Text HLabel 9300 1800 2    60   Output ~ 0
AUXADCIN_1
$Comp
L power:GNDD #PWR517
U 1 1 54E49180
P 9200 3200
F 0 "#PWR517" H 9200 2950 60  0001 C CNN
F 1 "GNDD" H 9200 3050 60  0000 C CNN
F 2 "" H 9200 3200 60  0000 C CNN
F 3 "" H 9200 3200 60  0000 C CNN
	1    9200 3200
	1    0    0    -1  
$EndComp
Text Notes 6300 1550 0    59   ~ 0
These are 3V3 max input\nThey have some protection\nbut don't push it!
$Comp
L power:GNDD #PWR538
U 1 1 54E3B9EA
P 1050 8100
F 0 "#PWR538" H 1050 7850 60  0001 C CNN
F 1 "GNDD" H 1050 7950 60  0000 C CNN
F 2 "" H 1050 8100 60  0000 C CNN
F 3 "" H 1050 8100 60  0000 C CNN
	1    1050 8100
	-1   0    0    -1  
$EndComp
$Comp
L power:GNDD #PWR539
U 1 1 54E3BA07
P 1650 8100
F 0 "#PWR539" H 1650 7850 60  0001 C CNN
F 1 "GNDD" H 1650 7950 60  0000 C CNN
F 2 "" H 1650 8100 60  0000 C CNN
F 3 "" H 1650 8100 60  0000 C CNN
	1    1650 8100
	-1   0    0    -1  
$EndComp
$Comp
L power:GNDD #PWR523
U 1 1 54E3C3B6
P 15000 4350
F 0 "#PWR523" H 15000 4100 60  0001 C CNN
F 1 "GNDD" H 15000 4200 60  0000 C CNN
F 2 "" H 15000 4350 60  0000 C CNN
F 3 "" H 15000 4350 60  0000 C CNN
	1    15000 4350
	1    0    0    -1  
$EndComp
$Comp
L power:GNDD #PWR522
U 1 1 54E3C3CF
P 14400 4350
F 0 "#PWR522" H 14400 4100 60  0001 C CNN
F 1 "GNDD" H 14400 4200 60  0000 C CNN
F 2 "" H 14400 4350 60  0000 C CNN
F 3 "" H 14400 4350 60  0000 C CNN
	1    14400 4350
	1    0    0    -1  
$EndComp
$Comp
L power:GNDD #PWR532
U 1 1 54E3DF9C
P 15000 6200
F 0 "#PWR532" H 15000 5950 60  0001 C CNN
F 1 "GNDD" H 15000 6050 60  0000 C CNN
F 2 "" H 15000 6200 60  0000 C CNN
F 3 "" H 15000 6200 60  0000 C CNN
	1    15000 6200
	1    0    0    -1  
$EndComp
$Comp
L power:GNDD #PWR541
U 1 1 54E3E233
P 15000 8150
F 0 "#PWR541" H 15000 7900 60  0001 C CNN
F 1 "GNDD" H 15000 8000 60  0000 C CNN
F 2 "" H 15000 8150 60  0000 C CNN
F 3 "" H 15000 8150 60  0000 C CNN
	1    15000 8150
	1    0    0    -1  
$EndComp
$Comp
L power:GNDD #PWR540
U 1 1 54E3E24B
P 14400 8150
F 0 "#PWR540" H 14400 7900 60  0001 C CNN
F 1 "GNDD" H 14400 8000 60  0000 C CNN
F 2 "" H 14400 8150 60  0000 C CNN
F 3 "" H 14400 8150 60  0000 C CNN
	1    14400 8150
	1    0    0    -1  
$EndComp
$Comp
L power:GNDD #PWR511
U 1 1 54E3EEEB
P 15000 2500
F 0 "#PWR511" H 15000 2250 60  0001 C CNN
F 1 "GNDD" H 15000 2350 60  0000 C CNN
F 2 "" H 15000 2500 60  0000 C CNN
F 3 "" H 15000 2500 60  0000 C CNN
	1    15000 2500
	1    0    0    -1  
$EndComp
$Comp
L power:GNDD #PWR510
U 1 1 54E3EF03
P 14400 2500
F 0 "#PWR510" H 14400 2250 60  0001 C CNN
F 1 "GNDD" H 14400 2350 60  0000 C CNN
F 2 "" H 14400 2500 60  0000 C CNN
F 3 "" H 14400 2500 60  0000 C CNN
	1    14400 2500
	1    0    0    -1  
$EndComp
NoConn ~ 6550 4200
NoConn ~ 6550 4100
Text HLabel 7550 4300 2    60   Output ~ 0
~USB_RST
$Comp
L MyKiCadLibs-Lib:IC-CLK-FANOUT-NB3L553 U501
U 1 1 55623333
P 8550 7350
F 0 "U501" H 8800 7600 60  0000 C CNN
F 1 "NB3L553" H 8950 7500 60  0000 C CNN
F 2 "MyKiCadLibs-Footprints:IC_SOIC_8" H 8550 7350 60  0001 C CNN
F 3 "" H 8550 7350 60  0000 C CNN
F 4 "On Semi - 1:4 Clock Fanout Buffer" H 8550 7350 60  0001 C CNN "Description"
	1    8550 7350
	1    0    0    -1  
$EndComp
Text HLabel 7550 7500 0    60   Input ~ 0
MCLK_IN
$Comp
L power:GNDD #PWR536
U 1 1 55623365
P 8450 7850
F 0 "#PWR536" H 8450 7600 60  0001 C CNN
F 1 "GNDD" H 8450 7700 60  0000 C CNN
F 2 "" H 8450 7850 60  0000 C CNN
F 3 "" H 8450 7850 60  0000 C CNN
	1    8450 7850
	1    0    0    -1  
$EndComp
$Comp
L power:GNDD #PWR537
U 1 1 5562338E
P 6100 7900
F 0 "#PWR537" H 6100 7650 60  0001 C CNN
F 1 "GNDD" H 6100 7750 60  0000 C CNN
F 2 "" H 6100 7900 60  0000 C CNN
F 3 "" H 6100 7900 60  0000 C CNN
	1    6100 7900
	1    0    0    -1  
$EndComp
Text Label 10650 7650 2    60   ~ 0
MCLKA1
Text Label 10650 7500 2    60   ~ 0
MCLKA2
Text Label 10650 7350 2    60   ~ 0
MCLKA3
Text Label 10650 7800 2    60   ~ 0
MCLKA4
$Comp
L MyKiCadLibs-Lib:IC-CLK-FANOUT-NB3L553 U502
U 1 1 5562AB99
P 8550 8950
F 0 "U502" H 8800 9200 60  0000 C CNN
F 1 "NB3L553" H 8950 9100 60  0000 C CNN
F 2 "MyKiCadLibs-Footprints:IC_SOIC_8" H 8550 8950 60  0001 C CNN
F 3 "" H 8550 8950 60  0000 C CNN
F 4 "On Semi - 1:4 Clock Fanout Buffer" H 8550 8950 60  0001 C CNN "Description"
	1    8550 8950
	1    0    0    -1  
$EndComp
$Comp
L power:GNDD #PWR545
U 1 1 5562ABC4
P 8450 9450
F 0 "#PWR545" H 8450 9200 60  0001 C CNN
F 1 "GNDD" H 8450 9300 60  0000 C CNN
F 2 "" H 8450 9450 60  0000 C CNN
F 3 "" H 8450 9450 60  0000 C CNN
	1    8450 9450
	1    0    0    -1  
$EndComp
Text Label 10650 9400 2    60   ~ 0
MCLKB1
Text Label 10650 9250 2    60   ~ 0
MCLKB2
Text Label 10650 9100 2    60   ~ 0
MCLKB3
Text Label 10650 8950 2    60   ~ 0
MCLKB4
Text Label 4250 1750 2    60   ~ 0
MCLKA1
Text Label 4200 3650 2    60   ~ 0
MCLKA2
Text Label 4150 5550 2    60   ~ 0
MCLKA3
Text Label 4100 7450 2    60   ~ 0
MCLKA4
$Comp
L power:GNDD #PWR531
U 1 1 54E3DFB4
P 14400 6200
F 0 "#PWR531" H 14400 5950 60  0001 C CNN
F 1 "GNDD" H 14400 6050 60  0000 C CNN
F 2 "" H 14400 6200 60  0000 C CNN
F 3 "" H 14400 6200 60  0000 C CNN
	1    14400 6200
	1    0    0    -1  
$EndComp
Text Label 11800 1850 0    60   ~ 0
MCLKB1
Text Label 11800 3700 0    60   ~ 0
MCLKB2
Text Label 11800 5550 0    60   ~ 0
MCLKB3
Text Label 11800 7500 0    60   ~ 0
MCLKB4
Text HLabel 5400 4300 0    60   Input ~ 0
SPI_MISO
Text HLabel 5400 4400 0    60   Output ~ 0
SPI_SCLK
Text HLabel 5400 4500 0    60   Output ~ 0
SPI_SS
Text HLabel 7550 4400 2    60   Output ~ 0
SPI_MOSI
$Comp
L power:GNDD #PWR524
U 1 1 561875D1
P 6650 4600
F 0 "#PWR524" H 6650 4350 60  0001 C CNN
F 1 "GNDD" H 6650 4450 60  0000 C CNN
F 2 "" H 6650 4600 60  0000 C CNN
F 3 "" H 6650 4600 60  0000 C CNN
	1    6650 4600
	1    0    0    -1  
$EndComp
$Comp
L MyKiCadLibs-Lib:PIN TP503
U 1 1 561D32CC
P 13850 2500
F 0 "TP503" H 14225 2500 40  0000 C CNN
F 1 "PIN" H 14200 2500 40  0001 C CNN
F 2 "MyKiCadLibs-Footprints:TP-TH-1mm" H 14190 2390 60  0001 C CNN
F 3 "" H 14190 2390 60  0000 C CNN
	1    13850 2500
	1    0    0    -1  
$EndComp
$Comp
L MyKiCadLibs-Lib:PIN TP504
U 1 1 561D343D
P 13850 2650
F 0 "TP504" H 14075 2550 40  0000 C CNN
F 1 "PIN" H 14200 2650 40  0001 C CNN
F 2 "MyKiCadLibs-Footprints:TP-TH-1mm" H 14190 2540 60  0001 C CNN
F 3 "" H 14190 2540 60  0000 C CNN
	1    13850 2650
	1    0    0    -1  
$EndComp
Wire Wire Line
	13700 2350 13700 2650
Wire Wire Line
	13000 2450 13700 2450
Wire Wire Line
	13000 2050 13700 2050
Wire Wire Line
	13700 2050 13700 2150
Wire Wire Line
	13000 2250 14450 2250
Wire Wire Line
	13850 2050 14450 2050
Wire Wire Line
	14400 2450 14450 2450
Connection ~ 15000 2350
Wire Wire Line
	15000 2350 14950 2350
Connection ~ 15000 2150
Wire Wire Line
	14950 2150 15000 2150
Wire Wire Line
	13700 2350 14450 2350
Wire Wire Line
	13700 2150 14450 2150
Connection ~ 15000 2250
Wire Wire Line
	14950 2050 15000 2050
Connection ~ 15000 2450
Wire Wire Line
	15000 2250 14950 2250
Wire Wire Line
	15000 2050 15000 2500
Wire Wire Line
	15000 2450 14950 2450
Wire Wire Line
	13700 8000 13700 8450
Wire Wire Line
	13000 8100 13700 8100
Wire Wire Line
	13000 7700 13700 7700
Wire Wire Line
	13700 7700 13700 7800
Wire Wire Line
	13000 7900 14450 7900
Wire Wire Line
	13850 7700 14450 7700
Wire Wire Line
	14400 8100 14450 8100
Connection ~ 15000 8000
Wire Wire Line
	15000 8000 14950 8000
Connection ~ 15000 7800
Wire Wire Line
	14950 7800 15000 7800
Wire Wire Line
	13700 8000 14450 8000
Wire Wire Line
	13700 7800 14450 7800
Connection ~ 15000 7900
Wire Wire Line
	14950 7700 15000 7700
Connection ~ 15000 8100
Wire Wire Line
	15000 7900 14950 7900
Wire Wire Line
	15000 7700 15000 8150
Wire Wire Line
	15000 8100 14950 8100
Wire Wire Line
	13700 6050 13700 6450
Wire Wire Line
	13000 6150 13700 6150
Wire Wire Line
	13000 5750 13700 5750
Wire Wire Line
	13700 5750 13700 5850
Wire Wire Line
	13000 5950 14450 5950
Wire Wire Line
	13850 5750 14450 5750
Wire Wire Line
	14400 6150 14450 6150
Connection ~ 15000 6050
Wire Wire Line
	15000 6050 14950 6050
Connection ~ 15000 5850
Wire Wire Line
	14950 5850 15000 5850
Wire Wire Line
	13700 6050 14450 6050
Wire Wire Line
	13700 5850 14450 5850
Connection ~ 15000 5950
Wire Wire Line
	14950 5750 15000 5750
Connection ~ 15000 6150
Wire Wire Line
	15000 5950 14950 5950
Wire Wire Line
	15000 5750 15000 6200
Wire Wire Line
	15000 6150 14950 6150
Wire Wire Line
	13700 4200 13700 4600
Wire Wire Line
	13000 4300 13700 4300
Wire Wire Line
	13000 3900 13700 3900
Wire Wire Line
	13700 3900 13700 4000
Wire Wire Line
	13000 4100 14450 4100
Wire Wire Line
	13850 3900 14450 3900
Wire Wire Line
	14400 4300 14450 4300
Connection ~ 15000 4200
Wire Wire Line
	15000 4200 14950 4200
Connection ~ 15000 4000
Wire Wire Line
	14950 4000 15000 4000
Wire Wire Line
	13700 4200 14450 4200
Wire Wire Line
	13700 4000 14450 4000
Connection ~ 15000 4100
Wire Wire Line
	14950 3900 15000 3900
Connection ~ 15000 4300
Wire Wire Line
	15000 4100 14950 4100
Wire Wire Line
	15000 3900 15000 4350
Wire Wire Line
	15000 4300 14950 4300
Wire Wire Line
	1650 8050 1600 8050
Connection ~ 1050 7950
Wire Wire Line
	1050 7950 1100 7950
Connection ~ 1050 7750
Wire Wire Line
	1100 7750 1050 7750
Wire Wire Line
	2300 8050 2950 8050
Wire Wire Line
	2300 7950 2300 8300
Wire Wire Line
	1600 7950 2300 7950
Wire Wire Line
	1600 7850 2950 7850
Wire Wire Line
	2300 7650 2950 7650
Wire Wire Line
	2300 7350 2300 7750
Wire Wire Line
	2300 7750 1600 7750
Connection ~ 1050 7850
Wire Wire Line
	1100 7650 1050 7650
Connection ~ 1050 8050
Wire Wire Line
	1050 7850 1100 7850
Wire Wire Line
	1050 7650 1050 8100
Wire Wire Line
	1050 8050 1100 8050
Connection ~ 13350 7700
Connection ~ 13200 7900
Connection ~ 13050 8100
Wire Wire Line
	13350 7700 13350 8250
Wire Wire Line
	13200 7900 13200 8250
Wire Wire Line
	13050 8100 13050 8250
Wire Wire Line
	12400 8100 12500 8100
Wire Wire Line
	12400 7900 12500 7900
Wire Wire Line
	13050 8750 13050 9000
Connection ~ 13200 8900
Wire Wire Line
	13350 8900 13350 8750
Connection ~ 13050 8900
Wire Wire Line
	13050 8900 13500 8900
Wire Wire Line
	13200 8750 13200 8900
Wire Wire Line
	12400 7700 12500 7700
Connection ~ 13350 5750
Connection ~ 13200 5950
Connection ~ 13050 6150
Wire Wire Line
	13350 5750 13350 6300
Wire Wire Line
	13200 5950 13200 6300
Wire Wire Line
	13050 6150 13050 6300
Wire Wire Line
	12400 6150 12500 6150
Wire Wire Line
	12400 5950 12500 5950
Wire Wire Line
	13050 6800 13050 7050
Connection ~ 13200 6950
Wire Wire Line
	13350 6950 13350 6800
Connection ~ 13050 6950
Wire Wire Line
	13050 6950 13500 6950
Wire Wire Line
	13200 6800 13200 6950
Wire Wire Line
	12400 5750 12500 5750
Connection ~ 13350 3900
Connection ~ 13200 4100
Connection ~ 13050 4300
Wire Wire Line
	13350 3900 13350 4450
Wire Wire Line
	13200 4100 13200 4450
Wire Wire Line
	13050 4300 13050 4450
Wire Wire Line
	12400 4300 12500 4300
Wire Wire Line
	12400 4100 12500 4100
Wire Wire Line
	13050 4950 13050 5200
Connection ~ 13200 5100
Wire Wire Line
	13350 5100 13350 4950
Connection ~ 13050 5100
Wire Wire Line
	13050 5100 13500 5100
Wire Wire Line
	13200 4950 13200 5100
Wire Wire Line
	12400 3900 12500 3900
Connection ~ 13350 2050
Connection ~ 13200 2250
Connection ~ 13050 2450
Wire Wire Line
	13350 2050 13350 2600
Wire Wire Line
	13200 2250 13200 2600
Wire Wire Line
	13050 2450 13050 2600
Wire Wire Line
	12400 2450 12500 2450
Wire Wire Line
	12400 2250 12500 2250
Wire Wire Line
	13050 3100 13050 3350
Connection ~ 13200 3250
Wire Wire Line
	13350 3250 13350 3100
Connection ~ 13050 3250
Wire Wire Line
	13050 3250 13500 3250
Wire Wire Line
	13200 3100 13200 3250
Wire Wire Line
	2300 8800 2300 9050
Connection ~ 2450 8950
Wire Wire Line
	2600 8950 2600 8800
Connection ~ 2300 8950
Wire Wire Line
	2300 8950 2750 8950
Wire Wire Line
	2450 8800 2450 8950
Wire Wire Line
	12400 2050 12500 2050
Wire Wire Line
	5400 4200 6050 4200
Wire Wire Line
	5400 4100 6050 4100
Connection ~ 6850 1900
Wire Wire Line
	6950 1800 6850 1800
Connection ~ 6850 2000
Wire Wire Line
	6850 1900 6950 1900
Connection ~ 6850 2100
Wire Wire Line
	6850 2000 6950 2000
Connection ~ 6850 2200
Wire Wire Line
	6850 2100 6950 2100
Connection ~ 6850 2300
Wire Wire Line
	6850 2200 6950 2200
Wire Wire Line
	6850 2300 6950 2300
Wire Wire Line
	6850 1800 6850 2350
Wire Wire Line
	7550 2300 7450 2300
Wire Wire Line
	7450 2200 7550 2200
Wire Wire Line
	7550 2100 7450 2100
Wire Wire Line
	7450 2000 7550 2000
Wire Wire Line
	7550 1900 7450 1900
Wire Wire Line
	7450 1800 7550 1800
Wire Wire Line
	7550 4300 7450 4300
Wire Wire Line
	6950 4300 6550 4300
Wire Wire Line
	7550 7500 8550 7500
Wire Wire Line
	9450 7800 9700 7800
Wire Wire Line
	9700 7650 9450 7650
Wire Wire Line
	9450 7500 9700 7500
Wire Wire Line
	9700 7350 9450 7350
Wire Wire Line
	8550 7650 8450 7650
Wire Wire Line
	5900 6750 7850 6750
Wire Wire Line
	7850 7350 8550 7350
Wire Wire Line
	7850 7650 7950 7650
Wire Wire Line
	8450 7850 8450 7800
Wire Wire Line
	8450 7800 8550 7800
Wire Wire Line
	6100 6750 6100 6800
Wire Wire Line
	6100 7300 6100 7350
Connection ~ 6100 6750
Wire Wire Line
	6400 6750 6400 7150
Connection ~ 6400 6750
Wire Wire Line
	6100 7750 6100 7900
Connection ~ 6100 7850
Wire Wire Line
	6400 7850 6400 7550
Connection ~ 6400 7850
Wire Wire Line
	6700 6750 6700 7150
Wire Wire Line
	6700 7850 6700 7550
Connection ~ 6700 6750
Wire Wire Line
	5250 6600 5250 6750
Wire Wire Line
	5250 6750 5400 6750
Connection ~ 7850 7350
Wire Wire Line
	10650 7350 10200 7350
Wire Wire Line
	10650 7500 10200 7500
Wire Wire Line
	10650 7650 10200 7650
Wire Wire Line
	10650 7800 10200 7800
Wire Wire Line
	7650 9100 8550 9100
Wire Wire Line
	9450 9400 9700 9400
Wire Wire Line
	9700 9250 9450 9250
Wire Wire Line
	9450 9100 9700 9100
Wire Wire Line
	9700 8950 9450 8950
Wire Wire Line
	8550 9250 8450 9250
Wire Wire Line
	7100 8950 8550 8950
Wire Wire Line
	7850 9250 7950 9250
Wire Wire Line
	8450 9450 8450 9400
Wire Wire Line
	8450 9400 8550 9400
Connection ~ 7850 8950
Wire Wire Line
	10650 8950 10200 8950
Wire Wire Line
	10650 9100 10200 9100
Wire Wire Line
	10650 9250 10200 9250
Wire Wire Line
	10650 9400 10200 9400
Wire Wire Line
	1650 8100 1650 8050
Wire Wire Line
	1600 7650 2200 7650
Wire Wire Line
	2200 7650 2200 7450
Wire Wire Line
	2200 7450 2950 7450
Wire Wire Line
	13850 7500 13850 7700
Wire Wire Line
	13000 7500 13850 7500
Wire Wire Line
	14400 8150 14400 8100
Wire Wire Line
	14400 6200 14400 6150
Wire Wire Line
	13850 5550 13850 5750
Wire Wire Line
	13000 5550 13850 5550
Wire Wire Line
	14400 4300 14400 4350
Wire Wire Line
	13850 3700 13850 3900
Wire Wire Line
	13000 3700 13850 3700
Wire Wire Line
	13850 1850 13850 2050
Wire Wire Line
	13000 1850 13850 1850
Wire Wire Line
	14400 2450 14400 2500
Wire Wire Line
	4100 7450 3450 7450
Wire Wire Line
	11800 1850 12500 1850
Wire Wire Line
	12500 3700 11800 3700
Wire Wire Line
	11800 5550 12500 5550
Wire Wire Line
	11800 7500 12500 7500
Wire Wire Line
	7550 4400 6550 4400
Wire Wire Line
	6050 4300 5400 4300
Wire Wire Line
	5400 4400 6050 4400
Wire Wire Line
	6050 4500 5400 4500
Wire Wire Line
	6650 4600 6650 4500
Wire Wire Line
	6650 4500 6550 4500
Connection ~ 13650 2050
Wire Wire Line
	13700 2650 13850 2650
Connection ~ 13700 2450
Wire Wire Line
	13850 2500 13800 2500
Wire Wire Line
	13800 2500 13800 2250
Connection ~ 13800 2250
Wire Wire Line
	13650 1750 13650 2050
Wire Wire Line
	13700 1750 13650 1750
$Comp
L MyKiCadLibs-Lib:PIN TP525
U 1 1 561D1DA0
P 11100 9950
F 0 "TP525" H 11475 9950 40  0000 C CNN
F 1 "PIN" V 11440 9960 40  0001 C CNN
F 2 "MyKiCadLibs-Footprints:TP-TH-1mm" H 11440 9840 60  0001 C CNN
F 3 "" H 11440 9840 60  0000 C CNN
	1    11100 9950
	1    0    0    -1  
$EndComp
$Comp
L MyKiCadLibs-Lib:PIN TP502
U 1 1 561D074E
P 13700 1750
F 0 "TP502" H 14075 1750 40  0000 C CNN
F 1 "PIN" H 14050 1750 40  0001 C CNN
F 2 "MyKiCadLibs-Footprints:TP-TH-1mm" H 14040 1640 60  0001 C CNN
F 3 "" H 14040 1640 60  0000 C CNN
	1    13700 1750
	1    0    0    -1  
$EndComp
Text Notes 11800 1450 0    59   ~ 0
See ADAU1452 datasheet for details\nOutputs are highly flexible
Wire Wire Line
	13650 3600 13650 3900
Wire Wire Line
	13700 3600 13650 3600
$Comp
L MyKiCadLibs-Lib:PIN TP526
U 1 1 561D4825
P 11100 10150
F 0 "TP526" H 11475 10150 40  0000 C CNN
F 1 "PIN" V 11440 10160 40  0001 C CNN
F 2 "MyKiCadLibs-Footprints:TP-TH-1mm" H 11440 10040 60  0001 C CNN
F 3 "" H 11440 10040 60  0000 C CNN
	1    11100 10150
	1    0    0    -1  
$EndComp
$Comp
L MyKiCadLibs-Lib:PIN TP508
U 1 1 561D482B
P 13700 3600
F 0 "TP508" H 14075 3600 40  0000 C CNN
F 1 "PIN" H 14050 3600 40  0001 C CNN
F 2 "MyKiCadLibs-Footprints:TP-TH-1mm" H 14040 3490 60  0001 C CNN
F 3 "" H 14040 3490 60  0000 C CNN
	1    13700 3600
	1    0    0    -1  
$EndComp
Connection ~ 13650 3900
$Comp
L MyKiCadLibs-Lib:PIN TP509
U 1 1 561D4A2C
P 13850 4450
F 0 "TP509" H 14125 4550 40  0000 C CNN
F 1 "PIN" H 14200 4450 40  0001 C CNN
F 2 "MyKiCadLibs-Footprints:TP-TH-1mm" H 14190 4340 60  0001 C CNN
F 3 "" H 14190 4340 60  0000 C CNN
	1    13850 4450
	1    0    0    -1  
$EndComp
$Comp
L MyKiCadLibs-Lib:PIN TP510
U 1 1 561D4A32
P 13850 4600
F 0 "TP510" H 14125 4500 40  0000 C CNN
F 1 "PIN" H 14200 4600 40  0001 C CNN
F 2 "MyKiCadLibs-Footprints:TP-TH-1mm" H 14190 4490 60  0001 C CNN
F 3 "" H 14190 4490 60  0000 C CNN
	1    13850 4600
	1    0    0    -1  
$EndComp
Wire Wire Line
	13700 4600 13850 4600
Wire Wire Line
	13850 4450 13800 4450
Wire Wire Line
	13800 4450 13800 4100
Connection ~ 13800 4100
Connection ~ 13700 4300
Wire Wire Line
	13650 5450 13650 5750
Wire Wire Line
	13700 5450 13650 5450
$Comp
L MyKiCadLibs-Lib:PIN TP527
U 1 1 561D6B16
P 11100 10400
F 0 "TP527" H 11475 10400 40  0000 C CNN
F 1 "PIN" V 11440 10410 40  0001 C CNN
F 2 "MyKiCadLibs-Footprints:TP-TH-1mm" H 11440 10290 60  0001 C CNN
F 3 "" H 11440 10290 60  0000 C CNN
	1    11100 10400
	1    0    0    -1  
$EndComp
$Comp
L MyKiCadLibs-Lib:PIN TP514
U 1 1 561D6B1C
P 13700 5450
F 0 "TP514" H 14075 5450 40  0000 C CNN
F 1 "PIN" H 14050 5450 40  0001 C CNN
F 2 "MyKiCadLibs-Footprints:TP-TH-1mm" H 14040 5340 60  0001 C CNN
F 3 "" H 14040 5340 60  0000 C CNN
	1    13700 5450
	1    0    0    -1  
$EndComp
$Comp
L MyKiCadLibs-Lib:PIN TP515
U 1 1 561D6D49
P 13850 6300
F 0 "TP515" H 14100 6400 40  0000 C CNN
F 1 "PIN" H 14200 6300 40  0001 C CNN
F 2 "MyKiCadLibs-Footprints:TP-TH-1mm" H 14190 6190 60  0001 C CNN
F 3 "" H 14190 6190 60  0000 C CNN
	1    13850 6300
	1    0    0    -1  
$EndComp
$Comp
L MyKiCadLibs-Lib:PIN TP516
U 1 1 561D6D4F
P 13850 6450
F 0 "TP516" H 14100 6350 40  0000 C CNN
F 1 "PIN" H 14200 6450 40  0001 C CNN
F 2 "MyKiCadLibs-Footprints:TP-TH-1mm" H 14190 6340 60  0001 C CNN
F 3 "" H 14190 6340 60  0000 C CNN
	1    13850 6450
	1    0    0    -1  
$EndComp
Wire Wire Line
	13700 6450 13850 6450
Wire Wire Line
	13850 6300 13800 6300
Wire Wire Line
	13800 6300 13800 5950
Connection ~ 13800 5950
Connection ~ 13700 6150
Connection ~ 13650 5750
Wire Wire Line
	13650 7400 13650 7700
Wire Wire Line
	13700 7400 13650 7400
$Comp
L MyKiCadLibs-Lib:PIN TP528
U 1 1 561D76D9
P 11100 10650
F 0 "TP528" H 11475 10650 40  0000 C CNN
F 1 "PIN" V 11440 10660 40  0001 C CNN
F 2 "MyKiCadLibs-Footprints:TP-TH-1mm" H 11440 10540 60  0001 C CNN
F 3 "" H 11440 10540 60  0000 C CNN
	1    11100 10650
	1    0    0    -1  
$EndComp
$Comp
L MyKiCadLibs-Lib:PIN TP520
U 1 1 561D76DF
P 13700 7400
F 0 "TP520" H 14100 7400 40  0000 C CNN
F 1 "PIN" H 14050 7400 40  0001 C CNN
F 2 "MyKiCadLibs-Footprints:TP-TH-1mm" H 14040 7290 60  0001 C CNN
F 3 "" H 14040 7290 60  0000 C CNN
	1    13700 7400
	1    0    0    -1  
$EndComp
Connection ~ 13650 7700
$Comp
L MyKiCadLibs-Lib:PIN TP521
U 1 1 561D7878
P 13850 8300
F 0 "TP521" H 14100 8400 40  0000 C CNN
F 1 "PIN" H 14200 8300 40  0001 C CNN
F 2 "MyKiCadLibs-Footprints:TP-TH-1mm" H 14190 8190 60  0001 C CNN
F 3 "" H 14190 8190 60  0000 C CNN
	1    13850 8300
	1    0    0    -1  
$EndComp
$Comp
L MyKiCadLibs-Lib:PIN TP522
U 1 1 561D787E
P 13850 8450
F 0 "TP522" H 14100 8350 40  0000 C CNN
F 1 "PIN" H 14200 8450 40  0001 C CNN
F 2 "MyKiCadLibs-Footprints:TP-TH-1mm" H 14190 8340 60  0001 C CNN
F 3 "" H 14190 8340 60  0000 C CNN
	1    13850 8450
	1    0    0    -1  
$EndComp
Wire Wire Line
	13700 8450 13850 8450
Wire Wire Line
	13850 8300 13800 8300
Wire Wire Line
	13800 8300 13800 7900
Connection ~ 13800 7900
Connection ~ 13700 8100
$Comp
L power:GNDD #PWR547
U 1 1 561DD996
P 10950 10750
F 0 "#PWR547" H 10950 10500 60  0001 C CNN
F 1 "GNDD" H 10950 10600 60  0000 C CNN
F 2 "" H 10950 10750 60  0000 C CNN
F 3 "" H 10950 10750 60  0000 C CNN
	1    10950 10750
	1    0    0    -1  
$EndComp
Wire Wire Line
	10950 9950 10950 10750
Wire Wire Line
	10950 10650 11100 10650
Wire Wire Line
	11100 10400 10950 10400
Connection ~ 10950 10650
Wire Wire Line
	10950 10150 11100 10150
Connection ~ 10950 10400
Wire Wire Line
	11100 9950 10950 9950
Connection ~ 10950 10150
Text Notes 9450 7200 0    60   ~ 0
Order for neat PCB routing
$Comp
L MyKiCadLibs-Lib:PIN TP518
U 1 1 561DF928
P 2100 6750
F 0 "TP518" H 2475 6750 40  0000 C CNN
F 1 "PIN" H 2650 6750 40  0001 C CNN
F 2 "MyKiCadLibs-Footprints:TP-TH-1mm" H 2440 6640 60  0001 C CNN
F 3 "" H 2440 6640 60  0000 C CNN
	1    2100 6750
	-1   0    0    -1  
$EndComp
$Comp
L MyKiCadLibs-Lib:PIN TP519
U 1 1 561E149F
P 1800 7350
F 0 "TP519" H 2175 7350 40  0000 C CNN
F 1 "PIN" H 2350 7350 40  0001 C CNN
F 2 "MyKiCadLibs-Footprints:TP-TH-1mm" H 2140 7240 60  0001 C CNN
F 3 "" H 2140 7240 60  0000 C CNN
	1    1800 7350
	-1   0    0    -1  
$EndComp
$Comp
L MyKiCadLibs-Lib:PIN TP523
U 1 1 561E1CA9
P 2050 8500
F 0 "TP523" H 2425 8500 40  0000 C CNN
F 1 "PIN" H 2600 8500 40  0001 C CNN
F 2 "MyKiCadLibs-Footprints:TP-TH-1mm" H 2390 8390 60  0001 C CNN
F 3 "" H 2390 8390 60  0000 C CNN
	1    2050 8500
	-1   0    0    -1  
$EndComp
$Comp
L MyKiCadLibs-Lib:PIN TP524
U 1 1 561E1E4C
P 2050 8650
F 0 "TP524" H 2425 8650 40  0000 C CNN
F 1 "PIN" H 2600 8650 40  0001 C CNN
F 2 "MyKiCadLibs-Footprints:TP-TH-1mm" H 2390 8540 60  0001 C CNN
F 3 "" H 2390 8540 60  0000 C CNN
	1    2050 8650
	-1   0    0    -1  
$EndComp
$Comp
L MyKiCadLibs-Lib:PIN TP517
U 1 1 561E2B73
P 2100 6600
F 0 "TP517" H 2475 6600 40  0000 C CNN
F 1 "PIN" H 2650 6600 40  0001 C CNN
F 2 "MyKiCadLibs-Footprints:TP-TH-1mm" H 2440 6490 60  0001 C CNN
F 3 "" H 2440 6490 60  0000 C CNN
	1    2100 6600
	-1   0    0    -1  
$EndComp
$Comp
L MyKiCadLibs-Lib:PIN TP513
U 1 1 561E2D16
P 1850 5450
F 0 "TP513" H 2225 5450 40  0000 C CNN
F 1 "PIN" H 2400 5450 40  0001 C CNN
F 2 "MyKiCadLibs-Footprints:TP-TH-1mm" H 2190 5340 60  0001 C CNN
F 3 "" H 2190 5340 60  0000 C CNN
	1    1850 5450
	-1   0    0    -1  
$EndComp
$Comp
L MyKiCadLibs-Lib:PIN TP512
U 1 1 561E3E43
P 2150 4850
F 0 "TP512" H 2525 4850 40  0000 C CNN
F 1 "PIN" H 2700 4850 40  0001 C CNN
F 2 "MyKiCadLibs-Footprints:TP-TH-1mm" H 2490 4740 60  0001 C CNN
F 3 "" H 2490 4740 60  0000 C CNN
	1    2150 4850
	-1   0    0    -1  
$EndComp
$Comp
L MyKiCadLibs-Lib:PIN TP511
U 1 1 561E4006
P 2150 4700
F 0 "TP511" H 2525 4700 40  0000 C CNN
F 1 "PIN" H 2700 4700 40  0001 C CNN
F 2 "MyKiCadLibs-Footprints:TP-TH-1mm" H 2490 4590 60  0001 C CNN
F 3 "" H 2490 4590 60  0000 C CNN
	1    2150 4700
	-1   0    0    -1  
$EndComp
$Comp
L MyKiCadLibs-Lib:PIN TP507
U 1 1 561E41A0
P 1900 3550
F 0 "TP507" H 2275 3550 40  0000 C CNN
F 1 "PIN" H 2450 3550 40  0001 C CNN
F 2 "MyKiCadLibs-Footprints:TP-TH-1mm" H 2240 3440 60  0001 C CNN
F 3 "" H 2240 3440 60  0000 C CNN
	1    1900 3550
	-1   0    0    -1  
$EndComp
$Comp
L MyKiCadLibs-Lib:PIN TP506
U 1 1 561E433D
P 2200 2950
F 0 "TP506" H 2575 2950 40  0000 C CNN
F 1 "PIN" H 2750 2950 40  0001 C CNN
F 2 "MyKiCadLibs-Footprints:TP-TH-1mm" H 2540 2840 60  0001 C CNN
F 3 "" H 2540 2840 60  0000 C CNN
	1    2200 2950
	-1   0    0    -1  
$EndComp
$Comp
L MyKiCadLibs-Lib:PIN TP505
U 1 1 561E4509
P 2200 2800
F 0 "TP505" H 2575 2800 40  0000 C CNN
F 1 "PIN" H 2750 2800 40  0001 C CNN
F 2 "MyKiCadLibs-Footprints:TP-TH-1mm" H 2540 2690 60  0001 C CNN
F 3 "" H 2540 2690 60  0000 C CNN
	1    2200 2800
	-1   0    0    -1  
$EndComp
$Comp
L MyKiCadLibs-Lib:PIN TP501
U 1 1 561E46AC
P 1950 1650
F 0 "TP501" H 2325 1650 40  0000 C CNN
F 1 "PIN" H 2500 1650 40  0001 C CNN
F 2 "MyKiCadLibs-Footprints:TP-TH-1mm" H 2290 1540 60  0001 C CNN
F 3 "" H 2290 1540 60  0000 C CNN
	1    1950 1650
	-1   0    0    -1  
$EndComp
Wire Wire Line
	7400 9100 7400 8950
Wire Wire Line
	7100 8500 7100 9100
Connection ~ 7400 8950
Wire Wire Line
	7850 9250 7850 8950
Wire Wire Line
	7850 6750 7850 7650
Wire Wire Line
	6100 7850 6700 7850
Wire Wire Line
	6000 8400 6000 8500
Wire Wire Line
	6000 8500 6150 8500
Wire Wire Line
	6750 9100 6750 9050
Wire Wire Line
	6750 8550 6750 8500
Wire Wire Line
	6650 8500 7100 8500
Connection ~ 6750 8500
Connection ~ 7100 8950
Wire Wire Line
	6750 9500 6750 9700
Wire Wire Line
	6750 9600 7400 9600
Wire Wire Line
	7100 9600 7100 9500
Wire Wire Line
	7400 9600 7400 9500
Connection ~ 7100 9600
$Comp
L power:GNDD #PWR546
U 1 1 562822AE
P 6750 9700
F 0 "#PWR546" H 6750 9450 60  0001 C CNN
F 1 "GNDD" H 6750 9550 60  0000 C CNN
F 2 "" H 6750 9700 60  0000 C CNN
F 3 "" H 6750 9700 60  0000 C CNN
	1    6750 9700
	1    0    0    -1  
$EndComp
Connection ~ 6750 9600
Text HLabel 7550 7625 0    60   Input ~ 0
MCLK2_IN
Wire Wire Line
	7550 7625 7650 7625
Wire Wire Line
	7650 7625 7650 9100
Wire Wire Line
	13500 8250 13500 7500
Connection ~ 13500 7500
Wire Wire Line
	13500 8900 13500 8750
Connection ~ 13350 8900
Wire Wire Line
	13500 6300 13500 5550
Wire Wire Line
	13500 6950 13500 6800
Connection ~ 13350 6950
Wire Wire Line
	13500 4450 13500 3700
Wire Wire Line
	13500 5100 13500 4950
Connection ~ 13500 3700
Connection ~ 13350 5100
Wire Wire Line
	13500 2600 13500 1850
Wire Wire Line
	13500 3250 13500 3100
Connection ~ 13350 3250
Connection ~ 13500 1850
Connection ~ 13500 5550
Connection ~ 2300 8050
Wire Wire Line
	2450 8300 2450 7850
Connection ~ 2450 7850
Wire Wire Line
	2600 8300 2600 7650
Connection ~ 2600 7650
Wire Wire Line
	1800 7350 2300 7350
Connection ~ 2300 7650
Wire Wire Line
	3550 7650 3450 7650
Wire Wire Line
	3550 7850 3450 7850
Wire Wire Line
	3550 8050 3450 8050
Wire Wire Line
	2050 8500 2100 8500
Wire Wire Line
	2100 8500 2100 7850
Connection ~ 2100 7850
Wire Wire Line
	2050 8650 2200 8650
Wire Wire Line
	2200 8650 2200 7950
Connection ~ 2200 7950
Wire Wire Line
	2750 8300 2750 7450
Connection ~ 2750 7450
Wire Wire Line
	2750 8950 2750 8800
Connection ~ 2600 8950
Text HLabel 3600 5750 2    60   Output ~ 0
ADC_LRCLK2
Text HLabel 3600 5950 2    60   Output ~ 0
ADC_BCLK2
Text HLabel 3600 6150 2    60   Output ~ 0
ADC_SDATA2
$Comp
L power:GNDD #PWR535
U 1 1 56991B81
P 2350 7150
F 0 "#PWR535" H 2350 6900 60  0001 C CNN
F 1 "GNDD" H 2350 7000 60  0000 C CNN
F 2 "" H 2350 7150 60  0000 C CNN
F 3 "" H 2350 7150 60  0000 C CNN
	1    2350 7150
	1    0    0    -1  
$EndComp
$Comp
L power:GNDD #PWR529
U 1 1 56991B99
P 1100 6200
F 0 "#PWR529" H 1100 5950 60  0001 C CNN
F 1 "GNDD" H 1100 6050 60  0000 C CNN
F 2 "" H 1100 6200 60  0000 C CNN
F 3 "" H 1100 6200 60  0000 C CNN
	1    1100 6200
	-1   0    0    -1  
$EndComp
$Comp
L power:GNDD #PWR530
U 1 1 56991BA5
P 1700 6200
F 0 "#PWR530" H 1700 5950 60  0001 C CNN
F 1 "GNDD" H 1700 6050 60  0000 C CNN
F 2 "" H 1700 6200 60  0000 C CNN
F 3 "" H 1700 6200 60  0000 C CNN
	1    1700 6200
	-1   0    0    -1  
$EndComp
Wire Wire Line
	1700 6150 1650 6150
Connection ~ 1100 6050
Wire Wire Line
	1100 6050 1150 6050
Connection ~ 1100 5850
Wire Wire Line
	1150 5850 1100 5850
Wire Wire Line
	2350 6150 3000 6150
Wire Wire Line
	2350 6050 2350 6400
Wire Wire Line
	1650 6050 2350 6050
Wire Wire Line
	1650 5950 3000 5950
Wire Wire Line
	2350 5750 3000 5750
Wire Wire Line
	2350 5450 2350 5850
Wire Wire Line
	2350 5850 1650 5850
Connection ~ 1100 5950
Wire Wire Line
	1150 5750 1100 5750
Connection ~ 1100 6150
Wire Wire Line
	1100 5950 1150 5950
Wire Wire Line
	1100 5750 1100 6200
Wire Wire Line
	1100 6150 1150 6150
Wire Wire Line
	2350 6900 2350 7150
Connection ~ 2500 7050
Wire Wire Line
	2650 7050 2650 6900
Connection ~ 2350 7050
Wire Wire Line
	2350 7050 2800 7050
Wire Wire Line
	2500 6900 2500 7050
Wire Wire Line
	1700 6200 1700 6150
Wire Wire Line
	1650 5750 2250 5750
Wire Wire Line
	2250 5750 2250 5550
Wire Wire Line
	2250 5550 3000 5550
Wire Wire Line
	4150 5550 3500 5550
Connection ~ 2350 6150
Wire Wire Line
	2500 6400 2500 5950
Connection ~ 2500 5950
Wire Wire Line
	2650 6400 2650 5750
Connection ~ 2650 5750
Wire Wire Line
	1850 5450 2350 5450
Connection ~ 2350 5750
Wire Wire Line
	3600 5750 3500 5750
Wire Wire Line
	3600 5950 3500 5950
Wire Wire Line
	3600 6150 3500 6150
Wire Wire Line
	2100 6600 2150 6600
Wire Wire Line
	2150 6600 2150 5950
Connection ~ 2150 5950
Wire Wire Line
	2100 6750 2250 6750
Wire Wire Line
	2250 6750 2250 6050
Connection ~ 2250 6050
Wire Wire Line
	2800 6400 2800 5550
Connection ~ 2800 5550
Wire Wire Line
	2800 7050 2800 6900
Connection ~ 2650 7050
$Comp
L power:GNDD #PWR527
U 1 1 56998134
P 2400 5250
F 0 "#PWR527" H 2400 5000 60  0001 C CNN
F 1 "GNDD" H 2400 5100 60  0000 C CNN
F 2 "" H 2400 5250 60  0000 C CNN
F 3 "" H 2400 5250 60  0000 C CNN
	1    2400 5250
	1    0    0    -1  
$EndComp
$Comp
L power:GNDD #PWR520
U 1 1 5699813A
P 1150 4300
F 0 "#PWR520" H 1150 4050 60  0001 C CNN
F 1 "GNDD" H 1150 4150 60  0000 C CNN
F 2 "" H 1150 4300 60  0000 C CNN
F 3 "" H 1150 4300 60  0000 C CNN
	1    1150 4300
	-1   0    0    -1  
$EndComp
$Comp
L power:GNDD #PWR521
U 1 1 56998140
P 1750 4300
F 0 "#PWR521" H 1750 4050 60  0001 C CNN
F 1 "GNDD" H 1750 4150 60  0000 C CNN
F 2 "" H 1750 4300 60  0000 C CNN
F 3 "" H 1750 4300 60  0000 C CNN
	1    1750 4300
	-1   0    0    -1  
$EndComp
Wire Wire Line
	1750 4250 1700 4250
Connection ~ 1150 4150
Wire Wire Line
	1150 4150 1200 4150
Connection ~ 1150 3950
Wire Wire Line
	1200 3950 1150 3950
Wire Wire Line
	2400 4250 3050 4250
Wire Wire Line
	2400 4150 2400 4500
Wire Wire Line
	1700 4150 2400 4150
Wire Wire Line
	1700 4050 3050 4050
Wire Wire Line
	2400 3850 3050 3850
Wire Wire Line
	2400 3550 2400 3950
Wire Wire Line
	2400 3950 1700 3950
Connection ~ 1150 4050
Wire Wire Line
	1200 3850 1150 3850
Connection ~ 1150 4250
Wire Wire Line
	1150 4050 1200 4050
Wire Wire Line
	1150 3850 1150 4300
Wire Wire Line
	1150 4250 1200 4250
Wire Wire Line
	2400 5000 2400 5250
Connection ~ 2550 5150
Wire Wire Line
	2700 5150 2700 5000
Connection ~ 2400 5150
Wire Wire Line
	2400 5150 2850 5150
Wire Wire Line
	2550 5000 2550 5150
Wire Wire Line
	1750 4300 1750 4250
Wire Wire Line
	1700 3850 2300 3850
Wire Wire Line
	2300 3850 2300 3650
Wire Wire Line
	2300 3650 3050 3650
Wire Wire Line
	4200 3650 3550 3650
Connection ~ 2400 4250
Wire Wire Line
	2550 4500 2550 4050
Connection ~ 2550 4050
Wire Wire Line
	2700 4500 2700 3850
Connection ~ 2700 3850
Wire Wire Line
	1900 3550 2400 3550
Connection ~ 2400 3850
Wire Wire Line
	3650 3850 3550 3850
Wire Wire Line
	3650 4050 3550 4050
Wire Wire Line
	3650 4250 3550 4250
Wire Wire Line
	2150 4700 2200 4700
Wire Wire Line
	2200 4700 2200 4050
Connection ~ 2200 4050
Wire Wire Line
	2150 4850 2300 4850
Wire Wire Line
	2300 4850 2300 4150
Connection ~ 2300 4150
Wire Wire Line
	2850 4500 2850 3650
Connection ~ 2850 3650
Wire Wire Line
	2850 5150 2850 5000
Connection ~ 2700 5150
$Comp
L power:GNDD #PWR518
U 1 1 56998C61
P 2450 3350
F 0 "#PWR518" H 2450 3100 60  0001 C CNN
F 1 "GNDD" H 2450 3200 60  0000 C CNN
F 2 "" H 2450 3350 60  0000 C CNN
F 3 "" H 2450 3350 60  0000 C CNN
	1    2450 3350
	1    0    0    -1  
$EndComp
$Comp
L power:GNDD #PWR508
U 1 1 56998C67
P 1200 2400
F 0 "#PWR508" H 1200 2150 60  0001 C CNN
F 1 "GNDD" H 1200 2250 60  0000 C CNN
F 2 "" H 1200 2400 60  0000 C CNN
F 3 "" H 1200 2400 60  0000 C CNN
	1    1200 2400
	-1   0    0    -1  
$EndComp
$Comp
L power:GNDD #PWR509
U 1 1 56998C6D
P 1800 2400
F 0 "#PWR509" H 1800 2150 60  0001 C CNN
F 1 "GNDD" H 1800 2250 60  0000 C CNN
F 2 "" H 1800 2400 60  0000 C CNN
F 3 "" H 1800 2400 60  0000 C CNN
	1    1800 2400
	-1   0    0    -1  
$EndComp
Wire Wire Line
	1800 2350 1750 2350
Connection ~ 1200 2250
Wire Wire Line
	1200 2250 1250 2250
Connection ~ 1200 2050
Wire Wire Line
	1250 2050 1200 2050
Wire Wire Line
	2450 2350 3100 2350
Wire Wire Line
	2450 2250 2450 2600
Wire Wire Line
	1750 2250 2450 2250
Wire Wire Line
	1750 2150 3100 2150
Wire Wire Line
	2450 1950 3100 1950
Wire Wire Line
	2450 1650 2450 2050
Wire Wire Line
	2450 2050 1750 2050
Connection ~ 1200 2150
Wire Wire Line
	1250 1950 1200 1950
Connection ~ 1200 2350
Wire Wire Line
	1200 2150 1250 2150
Wire Wire Line
	1200 1950 1200 2400
Wire Wire Line
	1200 2350 1250 2350
Wire Wire Line
	2450 3100 2450 3350
Connection ~ 2600 3250
Wire Wire Line
	2750 3250 2750 3100
Connection ~ 2450 3250
Wire Wire Line
	2450 3250 2900 3250
Wire Wire Line
	2600 3100 2600 3250
Wire Wire Line
	1800 2400 1800 2350
Wire Wire Line
	1750 1950 2350 1950
Wire Wire Line
	2350 1950 2350 1750
Wire Wire Line
	2350 1750 3100 1750
Wire Wire Line
	4250 1750 3600 1750
Connection ~ 2450 2350
Wire Wire Line
	2600 2600 2600 2150
Connection ~ 2600 2150
Wire Wire Line
	2750 2600 2750 1950
Connection ~ 2750 1950
Wire Wire Line
	1950 1650 2450 1650
Connection ~ 2450 1950
Wire Wire Line
	3700 1950 3600 1950
Wire Wire Line
	3700 2150 3600 2150
Wire Wire Line
	3700 2350 3600 2350
Wire Wire Line
	2200 2800 2250 2800
Wire Wire Line
	2250 2800 2250 2150
Connection ~ 2250 2150
Wire Wire Line
	2200 2950 2350 2950
Wire Wire Line
	2350 2950 2350 2250
Connection ~ 2350 2250
Wire Wire Line
	2900 2600 2900 1750
Connection ~ 2900 1750
Wire Wire Line
	2900 3250 2900 3100
Connection ~ 2750 3250
Text Notes 10950 9850 0    60   ~ 0
Ground Test\nPoints
Text Notes 5200 6275 0    118  ~ 0
Master Clock Fan Out
Text Label 6600 4300 0    60   ~ 0
I2C_RST
Text Label 7150 5725 0    60   ~ 0
GPIO
$Comp
L power:GNDD #PWR525
U 1 1 56ED7EAB
P 8500 4625
F 0 "#PWR525" H 8500 4375 60  0001 C CNN
F 1 "GNDD" H 8500 4475 60  0000 C CNN
F 2 "" H 8500 4625 60  0000 C CNN
F 3 "" H 8500 4625 60  0000 C CNN
	1    8500 4625
	1    0    0    -1  
$EndComp
Wire Wire Line
	8500 4075 8500 4625
Wire Wire Line
	8500 4575 8600 4575
Wire Wire Line
	8600 4475 8500 4475
Connection ~ 8500 4575
Wire Wire Line
	8500 4375 8600 4375
Connection ~ 8500 4475
Wire Wire Line
	8600 4275 8500 4275
Connection ~ 8500 4375
Wire Wire Line
	8500 4175 8600 4175
Connection ~ 8500 4275
Wire Wire Line
	8600 4075 8500 4075
Connection ~ 8500 4175
Text HLabel 9800 4075 2    60   Output ~ 0
M_SPI_MISO
Text HLabel 9800 4175 2    60   Input ~ 0
M_SPI_SCLK
Text HLabel 9800 4375 2    60   Input ~ 0
M_SPI_SS
Text HLabel 9800 4275 2    60   Input ~ 0
M_SPI_MOSI
Wire Wire Line
	9800 4175 9100 4175
Wire Wire Line
	9100 4275 9800 4275
Wire Wire Line
	9100 4375 9800 4375
Text HLabel 9800 4575 2    60   Input ~ 0
M_MUTE
Text Notes 8450 3850 0    118  ~ 0
Master SPI Port
Wire Wire Line
	9100 4575 9800 4575
Text HLabel 9800 4475 2    60   Input ~ 0
M_RST
$Comp
L power:GNDD #PWR528
U 1 1 56EEFF62
P 8400 5875
F 0 "#PWR528" H 8400 5625 60  0001 C CNN
F 1 "GNDD" H 8400 5725 60  0000 C CNN
F 2 "" H 8400 5875 60  0000 C CNN
F 3 "" H 8400 5875 60  0000 C CNN
	1    8400 5875
	-1   0    0    -1  
$EndComp
Wire Wire Line
	8400 5325 8400 5875
Wire Wire Line
	8400 5825 8300 5825
Wire Wire Line
	8300 5725 8400 5725
Connection ~ 8400 5825
Wire Wire Line
	8400 5625 8300 5625
Connection ~ 8400 5725
Wire Wire Line
	8300 5525 8400 5525
Connection ~ 8400 5625
Wire Wire Line
	8400 5425 8300 5425
Connection ~ 8400 5525
Wire Wire Line
	8300 5325 8400 5325
Connection ~ 8400 5425
Wire Wire Line
	7150 5425 7800 5425
Wire Wire Line
	7150 5525 7800 5525
Wire Wire Line
	7150 5325 7800 5325
Wire Wire Line
	7150 5625 7800 5625
Wire Wire Line
	7150 5725 7800 5725
Wire Wire Line
	7150 5825 7800 5825
Text Label 5500 4300 0    60   ~ 0
SL_MISO
Text Label 5500 4400 0    60   ~ 0
SL_SCLK
Text Label 5500 4500 0    60   ~ 0
SL_SS
Text Label 6600 4400 0    60   ~ 0
SL_MOSI
Text Label 7150 5325 0    60   ~ 0
SL_MISO
Text Label 7150 5425 0    60   ~ 0
SL_SCLK
Text Label 7150 5625 0    60   ~ 0
SL_SS
Text Label 7150 5525 0    60   ~ 0
SL_MOSI
Text Label 7150 5825 0    60   ~ 0
I2C_RST
Wire Wire Line
	9150 4075 9100 4075
Wire Wire Line
	9650 4075 9800 4075
$Comp
L MyKiCadLibs-Lib:CONN_02X05 P502
U 1 1 570C3FF4
P 1500 2150
F 0 "P502" H 1500 2450 50  0000 C CNN
F 1 "CONN_02X05" H 1500 1850 50  0000 C CNN
F 2 "MyKiCadLibs-Footprints:CONN_DIL_2X5_BOX_1MM" H 1500 950 60  0001 C CNN
F 3 "" H 1500 950 60  0000 C CNN
F 4 "2x5 2.54mm pitch box header" H 1500 1750 40  0001 C CNN "Description"
	1    1500 2150
	1    0    0    -1  
$EndComp
$Comp
L MyKiCadLibs-Lib:CONN_02X05 P504
U 1 1 570C4AEC
P 1450 4050
F 0 "P504" H 1450 4350 50  0000 C CNN
F 1 "CONN_02X05" H 1450 3750 50  0000 C CNN
F 2 "MyKiCadLibs-Footprints:CONN_DIL_2X5_BOX_1MM" H 1450 2850 60  0001 C CNN
F 3 "" H 1450 2850 60  0000 C CNN
F 4 "2x5 2.54mm pitch box header" H 1450 3650 40  0001 C CNN "Description"
	1    1450 4050
	1    0    0    -1  
$EndComp
$Comp
L MyKiCadLibs-Lib:CONN_02X05 P509
U 1 1 570C6BE7
P 1400 5950
F 0 "P509" H 1400 6250 50  0000 C CNN
F 1 "CONN_02X05" H 1400 5650 50  0000 C CNN
F 2 "MyKiCadLibs-Footprints:CONN_DIL_2X5_BOX_1MM" H 1400 4750 60  0001 C CNN
F 3 "" H 1400 4750 60  0000 C CNN
F 4 "2x5 2.54mm pitch box header" H 1400 5550 40  0001 C CNN "Description"
	1    1400 5950
	1    0    0    -1  
$EndComp
$Comp
L MyKiCadLibs-Lib:CONN_02X05 P511
U 1 1 570C7253
P 1350 7850
F 0 "P511" H 1350 8150 50  0000 C CNN
F 1 "CONN_02X05" H 1350 7550 50  0000 C CNN
F 2 "MyKiCadLibs-Footprints:CONN_DIL_2X5_BOX_1MM" H 1350 6650 60  0001 C CNN
F 3 "" H 1350 6650 60  0000 C CNN
F 4 "2x5 2.54mm pitch box header" H 1350 7450 40  0001 C CNN "Description"
	1    1350 7850
	1    0    0    -1  
$EndComp
$Comp
L MyKiCadLibs-Lib:CONN_02X05 P503
U 1 1 570C928E
P 14700 2250
F 0 "P503" H 14700 2550 50  0000 C CNN
F 1 "CONN_02X05" H 14700 1950 50  0000 C CNN
F 2 "MyKiCadLibs-Footprints:CONN_DIL_2X5_BOX_1MM" H 14700 1050 60  0001 C CNN
F 3 "" H 14700 1050 60  0000 C CNN
F 4 "2x5 2.54mm pitch box header" H 14700 1850 40  0001 C CNN "Description"
	1    14700 2250
	-1   0    0    -1  
$EndComp
$Comp
L MyKiCadLibs-Lib:CONN_02X05 P505
U 1 1 570CA6AE
P 14700 4100
F 0 "P505" H 14700 4400 50  0000 C CNN
F 1 "CONN_02X05" H 14700 3800 50  0000 C CNN
F 2 "MyKiCadLibs-Footprints:CONN_DIL_2X5_BOX_1MM" H 14700 2900 60  0001 C CNN
F 3 "" H 14700 2900 60  0000 C CNN
F 4 "2x5 2.54mm pitch box header" H 14700 3700 40  0001 C CNN "Description"
	1    14700 4100
	-1   0    0    -1  
$EndComp
$Comp
L MyKiCadLibs-Lib:CONN_02X05 P510
U 1 1 570CB69F
P 14700 5950
F 0 "P510" H 14700 6250 50  0000 C CNN
F 1 "CONN_02X05" H 14700 5650 50  0000 C CNN
F 2 "MyKiCadLibs-Footprints:CONN_DIL_2X5_BOX_1MM" H 14700 4750 60  0001 C CNN
F 3 "" H 14700 4750 60  0000 C CNN
F 4 "2x5 2.54mm pitch box header" H 14700 5550 40  0001 C CNN "Description"
	1    14700 5950
	-1   0    0    -1  
$EndComp
$Comp
L MyKiCadLibs-Lib:CONN_02X05 P512
U 1 1 570CC847
P 14700 7900
F 0 "P512" H 14700 8200 50  0000 C CNN
F 1 "CONN_02X05" H 14700 7600 50  0000 C CNN
F 2 "MyKiCadLibs-Footprints:CONN_DIL_2X5_BOX_1MM" H 14700 6700 60  0001 C CNN
F 3 "" H 14700 6700 60  0000 C CNN
F 4 "2x5 2.54mm pitch box header" H 14700 7500 40  0001 C CNN "Description"
	1    14700 7900
	-1   0    0    -1  
$EndComp
$Comp
L MyKiCadLibs-Lib:CONN_02X06 P501
U 1 1 570CEB4F
P 7200 2050
F 0 "P501" H 7200 2400 50  0000 C CNN
F 1 "CONN_02X06" H 7200 1700 50  0000 C CNN
F 2 "MyKiCadLibs-Footprints:CONN_DIL_2X6_1MM" H 7200 850 60  0001 C CNN
F 3 "" H 7200 850 60  0000 C CNN
F 4 "2x6 2.54mm pitch box header" H 7200 1600 40  0001 C CNN "Description"
	1    7200 2050
	1    0    0    -1  
$EndComp
$Comp
L MyKiCadLibs-Lib:CONN_02X05 P506
U 1 1 570CFFEC
P 6300 4300
F 0 "P506" H 6300 4600 50  0000 C CNN
F 1 "CONN_02X05" H 6300 4000 50  0000 C CNN
F 2 "MyKiCadLibs-Footprints:CONN_DIL_2X5_BOX_1MM" H 6300 3100 60  0001 C CNN
F 3 "" H 6300 3100 60  0000 C CNN
F 4 "2x5 2.54mm pitch box header" H 6300 3900 40  0001 C CNN "Description"
	1    6300 4300
	1    0    0    -1  
$EndComp
$Comp
L MyKiCadLibs-Lib:CONN_02X06 P508
U 1 1 570D0AFA
P 8050 5575
F 0 "P508" H 8050 5925 50  0000 C CNN
F 1 "CONN_02X06" H 8050 5225 50  0000 C CNN
F 2 "MyKiCadLibs-Footprints:CONN_DIL_2X6_BOX_1MM" H 8050 4375 60  0001 C CNN
F 3 "" H 8050 4375 60  0000 C CNN
F 4 "2x6 2.54mm pitch box header" H 8050 5125 40  0001 C CNN "Description"
	1    8050 5575
	-1   0    0    -1  
$EndComp
$Comp
L MyKiCadLibs-Lib:CONN_02X06 P507
U 1 1 570D21B4
P 8850 4325
F 0 "P507" H 8850 4675 50  0000 C CNN
F 1 "CONN_02X06" H 8850 3975 50  0000 C CNN
F 2 "MyKiCadLibs-Footprints:CONN_DIL_2X6_BOX_1MM" H 8850 3125 60  0001 C CNN
F 3 "" H 8850 3125 60  0000 C CNN
F 4 "2x6 2.54mm pitch box header" H 8850 3875 40  0001 C CNN "Description"
	1    8850 4325
	1    0    0    -1  
$EndComp
$Comp
L MyKiCadLibs-Lib:C C503
U 1 1 57139416
P 6100 7550
F 0 "C503" H 6100 7650 40  0000 L CNN
F 1 "100p" H 6110 7465 40  0000 L CNN
F 2 "MyKiCadLibs-Footprints:SMD-0805" H 6138 7400 30  0001 C CNN
F 3 "" H 6100 7650 60  0000 C CNN
F 4 "50V" H 6165 7400 40  0000 C CNN "Voltage"
F 5 "C0G" H 6170 7325 40  0000 C CNN "Type"
F 6 "Ceramic capacitor" H 6100 7850 40  0001 L CNN "Description"
F 7 "5%" H 6500 8050 40  0001 C CNN "Tolerance"
F 8 "0805" H 6100 7550 60  0001 C CNN "Size"
	1    6100 7550
	1    0    0    -1  
$EndComp
$Comp
L MyKiCadLibs-Lib:C C504
U 1 1 57139C3D
P 6750 9300
F 0 "C504" H 6750 9400 40  0000 L CNN
F 1 "100p" H 6760 9215 40  0000 L CNN
F 2 "MyKiCadLibs-Footprints:SMD-0805" H 6788 9150 30  0001 C CNN
F 3 "" H 6750 9400 60  0000 C CNN
F 4 "50V" H 6815 9150 40  0000 C CNN "Voltage"
F 5 "C0G" H 6820 9075 40  0000 C CNN "Type"
F 6 "Ceramic capacitor" H 6750 9600 40  0001 L CNN "Description"
F 7 "5%" H 7150 9800 40  0001 C CNN "Tolerance"
F 8 "0805" H 6750 9300 60  0001 C CNN "Size"
	1    6750 9300
	1    0    0    -1  
$EndComp
$Comp
L MyKiCadLibs-Lib:C C501
U 1 1 5713A2B3
P 6400 7350
F 0 "C501" H 6400 7450 40  0000 L CNN
F 1 "22u" H 6410 7265 40  0000 L CNN
F 2 "MyKiCadLibs-Footprints:SMD-0805" H 6438 7200 30  0001 C CNN
F 3 "" H 6400 7450 60  0000 C CNN
F 4 "10V" H 6465 7200 40  0000 C CNN "Voltage"
F 5 "X5R" H 6470 7125 40  0000 C CNN "Type"
F 6 "Ceramic capacitor" H 6400 7650 40  0001 L CNN "Description"
F 7 "20%" H 6800 7850 40  0001 C CNN "Tolerance"
F 8 "0805" H 6400 7350 60  0001 C CNN "Size"
	1    6400 7350
	1    0    0    -1  
$EndComp
$Comp
L MyKiCadLibs-Lib:C C505
U 1 1 5713A93D
P 7100 9300
F 0 "C505" H 7100 9400 40  0000 L CNN
F 1 "22u" H 7110 9215 40  0000 L CNN
F 2 "MyKiCadLibs-Footprints:SMD-0805" H 7138 9150 30  0001 C CNN
F 3 "" H 7100 9400 60  0000 C CNN
F 4 "10V" H 7165 9150 40  0000 C CNN "Voltage"
F 5 "X5R" H 7170 9075 40  0000 C CNN "Type"
F 6 "Ceramic capacitor" H 7100 9600 40  0001 L CNN "Description"
F 7 "20%" H 7500 9800 40  0001 C CNN "Tolerance"
F 8 "0805" H 7100 9300 60  0001 C CNN "Size"
	1    7100 9300
	1    0    0    -1  
$EndComp
$Comp
L MyKiCadLibs-Lib:C C502
U 1 1 5713AFD3
P 6700 7350
F 0 "C502" H 6700 7450 40  0000 L CNN
F 1 "100n" H 6710 7265 40  0000 L CNN
F 2 "MyKiCadLibs-Footprints:SMD-0805" H 6738 7200 30  0001 C CNN
F 3 "" H 6700 7450 60  0000 C CNN
F 4 "50V" H 6765 7200 40  0000 C CNN "Voltage"
F 5 "X7R" H 6770 7125 40  0000 C CNN "Type"
F 6 "Ceramic capacitor" H 6700 7650 40  0001 L CNN "Description"
F 7 "10%" H 7100 7850 40  0001 C CNN "Tolerance"
F 8 "0805" H 6700 7350 60  0001 C CNN "Size"
	1    6700 7350
	1    0    0    -1  
$EndComp
$Comp
L MyKiCadLibs-Lib:C C506
U 1 1 5713B6E9
P 7400 9300
F 0 "C506" H 7400 9400 40  0000 L CNN
F 1 "100n" H 7410 9215 40  0000 L CNN
F 2 "MyKiCadLibs-Footprints:SMD-0805" H 7438 9150 30  0001 C CNN
F 3 "" H 7400 9400 60  0000 C CNN
F 4 "50V" H 7465 9150 40  0000 C CNN "Voltage"
F 5 "X7R" H 7470 9075 40  0000 C CNN "Type"
F 6 "Ceramic capacitor" H 7400 9600 40  0001 L CNN "Description"
F 7 "10%" H 7800 9800 40  0001 C CNN "Tolerance"
F 8 "0805" H 7400 9300 60  0001 C CNN "Size"
	1    7400 9300
	1    0    0    -1  
$EndComp
$Comp
L MyKiCadLibs-Lib:R R501
U 1 1 57127AC7
P 3350 1750
F 0 "R501" V 3300 2050 40  0000 C CNN
F 1 "0" V 3357 1751 40  0000 C CNN
F 2 "MyKiCadLibs-Footprints:SMD-0805" V 3280 1750 30  0001 C CNN
F 3 "" V 3270 1750 30  0000 C CNN
F 4 "100mW" V 3450 1750 40  0001 C CNN "Power"
F 5 "Thick or thin film resistor" V 3595 1750 40  0001 C CNN "Description"
F 6 "0805" V 3525 1750 40  0001 C CNN "Size"
F 7 "1%" V 3675 1750 40  0001 C CNN "Tolerance"
	1    3350 1750
	0    -1   1    0   
$EndComp
$Comp
L MyKiCadLibs-Lib:R R505
U 1 1 571298D3
P 3350 1950
F 0 "R505" V 3300 2250 40  0000 C CNN
F 1 "0" V 3357 1951 40  0000 C CNN
F 2 "MyKiCadLibs-Footprints:SMD-0805" V 3280 1950 30  0001 C CNN
F 3 "" V 3270 1950 30  0000 C CNN
F 4 "100mW" V 3450 1950 40  0001 C CNN "Power"
F 5 "Thick or thin film resistor" V 3595 1950 40  0001 C CNN "Description"
F 6 "0805" V 3525 1950 40  0001 C CNN "Size"
F 7 "1%" V 3675 1950 40  0001 C CNN "Tolerance"
	1    3350 1950
	0    -1   1    0   
$EndComp
$Comp
L MyKiCadLibs-Lib:R R509
U 1 1 57129ACB
P 3350 2150
F 0 "R509" V 3300 2450 40  0000 C CNN
F 1 "0" V 3357 2151 40  0000 C CNN
F 2 "MyKiCadLibs-Footprints:SMD-0805" V 3280 2150 30  0001 C CNN
F 3 "" V 3270 2150 30  0000 C CNN
F 4 "100mW" V 3450 2150 40  0001 C CNN "Power"
F 5 "Thick or thin film resistor" V 3595 2150 40  0001 C CNN "Description"
F 6 "0805" V 3525 2150 40  0001 C CNN "Size"
F 7 "1%" V 3675 2150 40  0001 C CNN "Tolerance"
	1    3350 2150
	0    -1   1    0   
$EndComp
$Comp
L MyKiCadLibs-Lib:R R513
U 1 1 57129CAA
P 3350 2350
F 0 "R513" V 3300 2650 40  0000 C CNN
F 1 "0" V 3357 2351 40  0000 C CNN
F 2 "MyKiCadLibs-Footprints:SMD-0805" V 3280 2350 30  0001 C CNN
F 3 "" V 3270 2350 30  0000 C CNN
F 4 "100mW" V 3450 2350 40  0001 C CNN "Power"
F 5 "Thick or thin film resistor" V 3595 2350 40  0001 C CNN "Description"
F 6 "0805" V 3525 2350 40  0001 C CNN "Size"
F 7 "1%" V 3675 2350 40  0001 C CNN "Tolerance"
	1    3350 2350
	0    -1   1    0   
$EndComp
$Comp
L MyKiCadLibs-Lib:R R515
U 1 1 5712AF3F
P 2450 2850
F 0 "R515" V 2400 3150 40  0000 C CNN
F 1 "N/F" V 2457 2851 40  0000 C CNN
F 2 "MyKiCadLibs-Footprints:SMD-0805" V 2380 2850 30  0001 C CNN
F 3 "" V 2370 2850 30  0000 C CNN
F 4 "100mW" V 2550 2850 40  0001 C CNN "Power"
F 5 "Thick or thin film resistor" V 2695 2850 40  0001 C CNN "Description"
F 6 "0805" V 2625 2850 40  0001 C CNN "Size"
F 7 "1%" V 2775 2850 40  0001 C CNN "Tolerance"
	1    2450 2850
	1    0    0    1   
$EndComp
$Comp
L MyKiCadLibs-Lib:R R516
U 1 1 5712BDAE
P 2600 2850
F 0 "R516" V 2550 3150 40  0000 C CNN
F 1 "N/F" V 2607 2851 40  0000 C CNN
F 2 "MyKiCadLibs-Footprints:SMD-0805" V 2530 2850 30  0001 C CNN
F 3 "" V 2520 2850 30  0000 C CNN
F 4 "100mW" V 2700 2850 40  0001 C CNN "Power"
F 5 "Thick or thin film resistor" V 2845 2850 40  0001 C CNN "Description"
F 6 "0805" V 2775 2850 40  0001 C CNN "Size"
F 7 "1%" V 2925 2850 40  0001 C CNN "Tolerance"
	1    2600 2850
	1    0    0    1   
$EndComp
$Comp
L MyKiCadLibs-Lib:R R517
U 1 1 5712BFA0
P 2750 2850
F 0 "R517" V 2700 3150 40  0000 C CNN
F 1 "N/F" V 2757 2851 40  0000 C CNN
F 2 "MyKiCadLibs-Footprints:SMD-0805" V 2680 2850 30  0001 C CNN
F 3 "" V 2670 2850 30  0000 C CNN
F 4 "100mW" V 2850 2850 40  0001 C CNN "Power"
F 5 "Thick or thin film resistor" V 2995 2850 40  0001 C CNN "Description"
F 6 "0805" V 2925 2850 40  0001 C CNN "Size"
F 7 "1%" V 3075 2850 40  0001 C CNN "Tolerance"
	1    2750 2850
	1    0    0    1   
$EndComp
$Comp
L MyKiCadLibs-Lib:R R518
U 1 1 5712C17B
P 2900 2850
F 0 "R518" V 2850 3150 40  0000 C CNN
F 1 "N/F" V 2907 2851 40  0000 C CNN
F 2 "MyKiCadLibs-Footprints:SMD-0805" V 2830 2850 30  0001 C CNN
F 3 "" V 2820 2850 30  0000 C CNN
F 4 "100mW" V 3000 2850 40  0001 C CNN "Power"
F 5 "Thick or thin film resistor" V 3145 2850 40  0001 C CNN "Description"
F 6 "0805" V 3075 2850 40  0001 C CNN "Size"
F 7 "1%" V 3225 2850 40  0001 C CNN "Tolerance"
	1    2900 2850
	1    0    0    1   
$EndComp
$Comp
L MyKiCadLibs-Lib:R R523
U 1 1 5712E4AB
P 3300 3650
F 0 "R523" V 3250 3950 40  0000 C CNN
F 1 "0" V 3307 3651 40  0000 C CNN
F 2 "MyKiCadLibs-Footprints:SMD-0805" V 3230 3650 30  0001 C CNN
F 3 "" V 3220 3650 30  0000 C CNN
F 4 "100mW" V 3400 3650 40  0001 C CNN "Power"
F 5 "Thick or thin film resistor" V 3545 3650 40  0001 C CNN "Description"
F 6 "0805" V 3475 3650 40  0001 C CNN "Size"
F 7 "1%" V 3625 3650 40  0001 C CNN "Tolerance"
	1    3300 3650
	0    -1   1    0   
$EndComp
$Comp
L MyKiCadLibs-Lib:R R525
U 1 1 5712E4B5
P 3300 3850
F 0 "R525" V 3250 4150 40  0000 C CNN
F 1 "0" V 3307 3851 40  0000 C CNN
F 2 "MyKiCadLibs-Footprints:SMD-0805" V 3230 3850 30  0001 C CNN
F 3 "" V 3220 3850 30  0000 C CNN
F 4 "100mW" V 3400 3850 40  0001 C CNN "Power"
F 5 "Thick or thin film resistor" V 3545 3850 40  0001 C CNN "Description"
F 6 "0805" V 3475 3850 40  0001 C CNN "Size"
F 7 "1%" V 3625 3850 40  0001 C CNN "Tolerance"
	1    3300 3850
	0    -1   1    0   
$EndComp
$Comp
L MyKiCadLibs-Lib:R R527
U 1 1 5712E4BF
P 3300 4050
F 0 "R527" V 3250 4350 40  0000 C CNN
F 1 "0" V 3307 4051 40  0000 C CNN
F 2 "MyKiCadLibs-Footprints:SMD-0805" V 3230 4050 30  0001 C CNN
F 3 "" V 3220 4050 30  0000 C CNN
F 4 "100mW" V 3400 4050 40  0001 C CNN "Power"
F 5 "Thick or thin film resistor" V 3545 4050 40  0001 C CNN "Description"
F 6 "0805" V 3475 4050 40  0001 C CNN "Size"
F 7 "1%" V 3625 4050 40  0001 C CNN "Tolerance"
	1    3300 4050
	0    -1   1    0   
$EndComp
$Comp
L MyKiCadLibs-Lib:R R530
U 1 1 5712E4C9
P 3300 4250
F 0 "R530" V 3250 4550 40  0000 C CNN
F 1 "0" V 3307 4251 40  0000 C CNN
F 2 "MyKiCadLibs-Footprints:SMD-0805" V 3230 4250 30  0001 C CNN
F 3 "" V 3220 4250 30  0000 C CNN
F 4 "100mW" V 3400 4250 40  0001 C CNN "Power"
F 5 "Thick or thin film resistor" V 3545 4250 40  0001 C CNN "Description"
F 6 "0805" V 3475 4250 40  0001 C CNN "Size"
F 7 "1%" V 3625 4250 40  0001 C CNN "Tolerance"
	1    3300 4250
	0    -1   1    0   
$EndComp
$Comp
L MyKiCadLibs-Lib:R R538
U 1 1 5712E64A
P 2400 4750
F 0 "R538" V 2350 5050 40  0000 C CNN
F 1 "N/F" V 2407 4751 40  0000 C CNN
F 2 "MyKiCadLibs-Footprints:SMD-0805" V 2330 4750 30  0001 C CNN
F 3 "" V 2320 4750 30  0000 C CNN
F 4 "100mW" V 2500 4750 40  0001 C CNN "Power"
F 5 "Thick or thin film resistor" V 2645 4750 40  0001 C CNN "Description"
F 6 "0805" V 2575 4750 40  0001 C CNN "Size"
F 7 "1%" V 2725 4750 40  0001 C CNN "Tolerance"
	1    2400 4750
	1    0    0    1   
$EndComp
$Comp
L MyKiCadLibs-Lib:R R539
U 1 1 5712E654
P 2550 4750
F 0 "R539" V 2500 5050 40  0000 C CNN
F 1 "N/F" V 2557 4751 40  0000 C CNN
F 2 "MyKiCadLibs-Footprints:SMD-0805" V 2480 4750 30  0001 C CNN
F 3 "" V 2470 4750 30  0000 C CNN
F 4 "100mW" V 2650 4750 40  0001 C CNN "Power"
F 5 "Thick or thin film resistor" V 2795 4750 40  0001 C CNN "Description"
F 6 "0805" V 2725 4750 40  0001 C CNN "Size"
F 7 "1%" V 2875 4750 40  0001 C CNN "Tolerance"
	1    2550 4750
	1    0    0    1   
$EndComp
$Comp
L MyKiCadLibs-Lib:R R540
U 1 1 5712E65E
P 2700 4750
F 0 "R540" V 2650 5050 40  0000 C CNN
F 1 "N/F" V 2707 4751 40  0000 C CNN
F 2 "MyKiCadLibs-Footprints:SMD-0805" V 2630 4750 30  0001 C CNN
F 3 "" V 2620 4750 30  0000 C CNN
F 4 "100mW" V 2800 4750 40  0001 C CNN "Power"
F 5 "Thick or thin film resistor" V 2945 4750 40  0001 C CNN "Description"
F 6 "0805" V 2875 4750 40  0001 C CNN "Size"
F 7 "1%" V 3025 4750 40  0001 C CNN "Tolerance"
	1    2700 4750
	1    0    0    1   
$EndComp
$Comp
L MyKiCadLibs-Lib:R R541
U 1 1 5712E668
P 2850 4750
F 0 "R541" V 2800 5050 40  0000 C CNN
F 1 "N/F" V 2857 4751 40  0000 C CNN
F 2 "MyKiCadLibs-Footprints:SMD-0805" V 2780 4750 30  0001 C CNN
F 3 "" V 2770 4750 30  0000 C CNN
F 4 "100mW" V 2950 4750 40  0001 C CNN "Power"
F 5 "Thick or thin film resistor" V 3095 4750 40  0001 C CNN "Description"
F 6 "0805" V 3025 4750 40  0001 C CNN "Size"
F 7 "1%" V 3175 4750 40  0001 C CNN "Tolerance"
	1    2850 4750
	1    0    0    1   
$EndComp
$Comp
L MyKiCadLibs-Lib:R R542
U 1 1 5712F657
P 3250 5550
F 0 "R542" V 3200 5850 40  0000 C CNN
F 1 "0" V 3257 5551 40  0000 C CNN
F 2 "MyKiCadLibs-Footprints:SMD-0805" V 3180 5550 30  0001 C CNN
F 3 "" V 3170 5550 30  0000 C CNN
F 4 "100mW" V 3350 5550 40  0001 C CNN "Power"
F 5 "Thick or thin film resistor" V 3495 5550 40  0001 C CNN "Description"
F 6 "0805" V 3425 5550 40  0001 C CNN "Size"
F 7 "1%" V 3575 5550 40  0001 C CNN "Tolerance"
	1    3250 5550
	0    -1   1    0   
$EndComp
$Comp
L MyKiCadLibs-Lib:R R544
U 1 1 5712F661
P 3250 5750
F 0 "R544" V 3200 6050 40  0000 C CNN
F 1 "0" V 3257 5751 40  0000 C CNN
F 2 "MyKiCadLibs-Footprints:SMD-0805" V 3180 5750 30  0001 C CNN
F 3 "" V 3170 5750 30  0000 C CNN
F 4 "100mW" V 3350 5750 40  0001 C CNN "Power"
F 5 "Thick or thin film resistor" V 3495 5750 40  0001 C CNN "Description"
F 6 "0805" V 3425 5750 40  0001 C CNN "Size"
F 7 "1%" V 3575 5750 40  0001 C CNN "Tolerance"
	1    3250 5750
	0    -1   1    0   
$EndComp
$Comp
L MyKiCadLibs-Lib:R R546
U 1 1 5712F66B
P 3250 5950
F 0 "R546" V 3200 6250 40  0000 C CNN
F 1 "0" V 3257 5951 40  0000 C CNN
F 2 "MyKiCadLibs-Footprints:SMD-0805" V 3180 5950 30  0001 C CNN
F 3 "" V 3170 5950 30  0000 C CNN
F 4 "100mW" V 3350 5950 40  0001 C CNN "Power"
F 5 "Thick or thin film resistor" V 3495 5950 40  0001 C CNN "Description"
F 6 "0805" V 3425 5950 40  0001 C CNN "Size"
F 7 "1%" V 3575 5950 40  0001 C CNN "Tolerance"
	1    3250 5950
	0    -1   1    0   
$EndComp
$Comp
L MyKiCadLibs-Lib:R R548
U 1 1 5712F675
P 3250 6150
F 0 "R548" V 3200 6450 40  0000 C CNN
F 1 "0" V 3257 6151 40  0000 C CNN
F 2 "MyKiCadLibs-Footprints:SMD-0805" V 3180 6150 30  0001 C CNN
F 3 "" V 3170 6150 30  0000 C CNN
F 4 "100mW" V 3350 6150 40  0001 C CNN "Power"
F 5 "Thick or thin film resistor" V 3495 6150 40  0001 C CNN "Description"
F 6 "0805" V 3425 6150 40  0001 C CNN "Size"
F 7 "1%" V 3575 6150 40  0001 C CNN "Tolerance"
	1    3250 6150
	0    -1   1    0   
$EndComp
$Comp
L MyKiCadLibs-Lib:R R554
U 1 1 5712F67F
P 2350 6650
F 0 "R554" V 2300 6950 40  0000 C CNN
F 1 "N/F" V 2357 6651 40  0000 C CNN
F 2 "MyKiCadLibs-Footprints:SMD-0805" V 2280 6650 30  0001 C CNN
F 3 "" V 2270 6650 30  0000 C CNN
F 4 "100mW" V 2450 6650 40  0001 C CNN "Power"
F 5 "Thick or thin film resistor" V 2595 6650 40  0001 C CNN "Description"
F 6 "0805" V 2525 6650 40  0001 C CNN "Size"
F 7 "1%" V 2675 6650 40  0001 C CNN "Tolerance"
	1    2350 6650
	1    0    0    1   
$EndComp
$Comp
L MyKiCadLibs-Lib:R R555
U 1 1 5712F689
P 2500 6650
F 0 "R555" V 2450 6950 40  0000 C CNN
F 1 "N/F" V 2507 6651 40  0000 C CNN
F 2 "MyKiCadLibs-Footprints:SMD-0805" V 2430 6650 30  0001 C CNN
F 3 "" V 2420 6650 30  0000 C CNN
F 4 "100mW" V 2600 6650 40  0001 C CNN "Power"
F 5 "Thick or thin film resistor" V 2745 6650 40  0001 C CNN "Description"
F 6 "0805" V 2675 6650 40  0001 C CNN "Size"
F 7 "1%" V 2825 6650 40  0001 C CNN "Tolerance"
	1    2500 6650
	1    0    0    1   
$EndComp
$Comp
L MyKiCadLibs-Lib:R R556
U 1 1 5712F693
P 2650 6650
F 0 "R556" V 2600 6950 40  0000 C CNN
F 1 "N/F" V 2657 6651 40  0000 C CNN
F 2 "MyKiCadLibs-Footprints:SMD-0805" V 2580 6650 30  0001 C CNN
F 3 "" V 2570 6650 30  0000 C CNN
F 4 "100mW" V 2750 6650 40  0001 C CNN "Power"
F 5 "Thick or thin film resistor" V 2895 6650 40  0001 C CNN "Description"
F 6 "0805" V 2825 6650 40  0001 C CNN "Size"
F 7 "1%" V 2975 6650 40  0001 C CNN "Tolerance"
	1    2650 6650
	1    0    0    1   
$EndComp
$Comp
L MyKiCadLibs-Lib:R R557
U 1 1 5712F69D
P 2800 6650
F 0 "R557" V 2750 6950 40  0000 C CNN
F 1 "N/F" V 2807 6651 40  0000 C CNN
F 2 "MyKiCadLibs-Footprints:SMD-0805" V 2730 6650 30  0001 C CNN
F 3 "" V 2720 6650 30  0000 C CNN
F 4 "100mW" V 2900 6650 40  0001 C CNN "Power"
F 5 "Thick or thin film resistor" V 3045 6650 40  0001 C CNN "Description"
F 6 "0805" V 2975 6650 40  0001 C CNN "Size"
F 7 "1%" V 3125 6650 40  0001 C CNN "Tolerance"
	1    2800 6650
	1    0    0    1   
$EndComp
$Comp
L MyKiCadLibs-Lib:R R561
U 1 1 5713005E
P 3200 7450
F 0 "R561" V 3150 7750 40  0000 C CNN
F 1 "0" V 3207 7451 40  0000 C CNN
F 2 "MyKiCadLibs-Footprints:SMD-0805" V 3130 7450 30  0001 C CNN
F 3 "" V 3120 7450 30  0000 C CNN
F 4 "100mW" V 3300 7450 40  0001 C CNN "Power"
F 5 "Thick or thin film resistor" V 3445 7450 40  0001 C CNN "Description"
F 6 "0805" V 3375 7450 40  0001 C CNN "Size"
F 7 "1%" V 3525 7450 40  0001 C CNN "Tolerance"
	1    3200 7450
	0    -1   1    0   
$EndComp
$Comp
L MyKiCadLibs-Lib:R R564
U 1 1 57130068
P 3200 7650
F 0 "R564" V 3150 7950 40  0000 C CNN
F 1 "0" V 3207 7651 40  0000 C CNN
F 2 "MyKiCadLibs-Footprints:SMD-0805" V 3130 7650 30  0001 C CNN
F 3 "" V 3120 7650 30  0000 C CNN
F 4 "100mW" V 3300 7650 40  0001 C CNN "Power"
F 5 "Thick or thin film resistor" V 3445 7650 40  0001 C CNN "Description"
F 6 "0805" V 3375 7650 40  0001 C CNN "Size"
F 7 "1%" V 3525 7650 40  0001 C CNN "Tolerance"
	1    3200 7650
	0    -1   1    0   
$EndComp
$Comp
L MyKiCadLibs-Lib:R R569
U 1 1 57130072
P 3200 7850
F 0 "R569" V 3150 8150 40  0000 C CNN
F 1 "0" V 3207 7851 40  0000 C CNN
F 2 "MyKiCadLibs-Footprints:SMD-0805" V 3130 7850 30  0001 C CNN
F 3 "" V 3120 7850 30  0000 C CNN
F 4 "100mW" V 3300 7850 40  0001 C CNN "Power"
F 5 "Thick or thin film resistor" V 3445 7850 40  0001 C CNN "Description"
F 6 "0805" V 3375 7850 40  0001 C CNN "Size"
F 7 "1%" V 3525 7850 40  0001 C CNN "Tolerance"
	1    3200 7850
	0    -1   1    0   
$EndComp
$Comp
L MyKiCadLibs-Lib:R R571
U 1 1 5713007C
P 3200 8050
F 0 "R571" V 3150 8350 40  0000 C CNN
F 1 "0" V 3207 8051 40  0000 C CNN
F 2 "MyKiCadLibs-Footprints:SMD-0805" V 3130 8050 30  0001 C CNN
F 3 "" V 3120 8050 30  0000 C CNN
F 4 "100mW" V 3300 8050 40  0001 C CNN "Power"
F 5 "Thick or thin film resistor" V 3445 8050 40  0001 C CNN "Description"
F 6 "0805" V 3375 8050 40  0001 C CNN "Size"
F 7 "1%" V 3525 8050 40  0001 C CNN "Tolerance"
	1    3200 8050
	0    -1   1    0   
$EndComp
$Comp
L MyKiCadLibs-Lib:R R578
U 1 1 57130086
P 2300 8550
F 0 "R578" V 2250 8850 40  0000 C CNN
F 1 "N/F" V 2307 8551 40  0000 C CNN
F 2 "MyKiCadLibs-Footprints:SMD-0805" V 2230 8550 30  0001 C CNN
F 3 "" V 2220 8550 30  0000 C CNN
F 4 "100mW" V 2400 8550 40  0001 C CNN "Power"
F 5 "Thick or thin film resistor" V 2545 8550 40  0001 C CNN "Description"
F 6 "0805" V 2475 8550 40  0001 C CNN "Size"
F 7 "1%" V 2625 8550 40  0001 C CNN "Tolerance"
	1    2300 8550
	1    0    0    1   
$EndComp
$Comp
L MyKiCadLibs-Lib:R R579
U 1 1 57130090
P 2450 8550
F 0 "R579" V 2400 8850 40  0000 C CNN
F 1 "N/F" V 2457 8551 40  0000 C CNN
F 2 "MyKiCadLibs-Footprints:SMD-0805" V 2380 8550 30  0001 C CNN
F 3 "" V 2370 8550 30  0000 C CNN
F 4 "100mW" V 2550 8550 40  0001 C CNN "Power"
F 5 "Thick or thin film resistor" V 2695 8550 40  0001 C CNN "Description"
F 6 "0805" V 2625 8550 40  0001 C CNN "Size"
F 7 "1%" V 2775 8550 40  0001 C CNN "Tolerance"
	1    2450 8550
	1    0    0    1   
$EndComp
$Comp
L MyKiCadLibs-Lib:R R580
U 1 1 5713009A
P 2600 8550
F 0 "R580" V 2550 8850 40  0000 C CNN
F 1 "N/F" V 2607 8551 40  0000 C CNN
F 2 "MyKiCadLibs-Footprints:SMD-0805" V 2530 8550 30  0001 C CNN
F 3 "" V 2520 8550 30  0000 C CNN
F 4 "100mW" V 2700 8550 40  0001 C CNN "Power"
F 5 "Thick or thin film resistor" V 2845 8550 40  0001 C CNN "Description"
F 6 "0805" V 2775 8550 40  0001 C CNN "Size"
F 7 "1%" V 2925 8550 40  0001 C CNN "Tolerance"
	1    2600 8550
	1    0    0    1   
$EndComp
$Comp
L MyKiCadLibs-Lib:R R581
U 1 1 571300A4
P 2750 8550
F 0 "R581" V 2700 8850 40  0000 C CNN
F 1 "N/F" V 2757 8551 40  0000 C CNN
F 2 "MyKiCadLibs-Footprints:SMD-0805" V 2680 8550 30  0001 C CNN
F 3 "" V 2670 8550 30  0000 C CNN
F 4 "100mW" V 2850 8550 40  0001 C CNN "Power"
F 5 "Thick or thin film resistor" V 2995 8550 40  0001 C CNN "Description"
F 6 "0805" V 2925 8550 40  0001 C CNN "Size"
F 7 "1%" V 3075 8550 40  0001 C CNN "Tolerance"
	1    2750 8550
	1    0    0    1   
$EndComp
$Comp
L MyKiCadLibs-Lib:R R503
U 1 1 5713A649
P 12750 1850
F 0 "R503" V 12700 2125 40  0000 C CNN
F 1 "0" V 12757 1851 40  0000 C CNN
F 2 "MyKiCadLibs-Footprints:SMD-0805" V 12680 1850 30  0001 C CNN
F 3 "" V 12670 1850 30  0000 C CNN
F 4 "100mW" V 12850 1850 40  0001 C CNN "Power"
F 5 "Thick or thin film resistor" V 12995 1850 40  0001 C CNN "Description"
F 6 "0805" V 12925 1850 40  0001 C CNN "Size"
F 7 "1%" V 13075 1850 40  0001 C CNN "Tolerance"
	1    12750 1850
	0    -1   1    0   
$EndComp
$Comp
L MyKiCadLibs-Lib:R R507
U 1 1 5713D5AC
P 12750 2050
F 0 "R507" V 12700 2325 40  0000 C CNN
F 1 "75" V 12757 2051 40  0000 C CNN
F 2 "MyKiCadLibs-Footprints:SMD-0805" V 12680 2050 30  0001 C CNN
F 3 "" V 12670 2050 30  0000 C CNN
F 4 "100mW" V 12850 2050 40  0001 C CNN "Power"
F 5 "Thick or thin film resistor" V 12995 2050 40  0001 C CNN "Description"
F 6 "0805" V 12925 2050 40  0001 C CNN "Size"
F 7 "1%" V 13075 2050 40  0001 C CNN "Tolerance"
	1    12750 2050
	0    -1   1    0   
$EndComp
$Comp
L MyKiCadLibs-Lib:R R511
U 1 1 5713D5B7
P 12750 2250
F 0 "R511" V 12700 2525 40  0000 C CNN
F 1 "75" V 12757 2251 40  0000 C CNN
F 2 "MyKiCadLibs-Footprints:SMD-0805" V 12680 2250 30  0001 C CNN
F 3 "" V 12670 2250 30  0000 C CNN
F 4 "100mW" V 12850 2250 40  0001 C CNN "Power"
F 5 "Thick or thin film resistor" V 12995 2250 40  0001 C CNN "Description"
F 6 "0805" V 12925 2250 40  0001 C CNN "Size"
F 7 "1%" V 13075 2250 40  0001 C CNN "Tolerance"
	1    12750 2250
	0    -1   1    0   
$EndComp
$Comp
L MyKiCadLibs-Lib:R R514
U 1 1 5713D5C2
P 12750 2450
F 0 "R514" V 12700 2725 40  0000 C CNN
F 1 "75" V 12757 2451 40  0000 C CNN
F 2 "MyKiCadLibs-Footprints:SMD-0805" V 12680 2450 30  0001 C CNN
F 3 "" V 12670 2450 30  0000 C CNN
F 4 "100mW" V 12850 2450 40  0001 C CNN "Power"
F 5 "Thick or thin film resistor" V 12995 2450 40  0001 C CNN "Description"
F 6 "0805" V 12925 2450 40  0001 C CNN "Size"
F 7 "1%" V 13075 2450 40  0001 C CNN "Tolerance"
	1    12750 2450
	0    -1   1    0   
$EndComp
$Comp
L MyKiCadLibs-Lib:R R519
U 1 1 5713D5CD
P 13050 2850
F 0 "R519" V 13000 3150 40  0000 C CNN
F 1 "N/F" V 13057 2851 40  0000 C CNN
F 2 "MyKiCadLibs-Footprints:SMD-0805" V 12980 2850 30  0001 C CNN
F 3 "" V 12970 2850 30  0000 C CNN
F 4 "100mW" V 13150 2850 40  0001 C CNN "Power"
F 5 "Thick or thin film resistor" V 13295 2850 40  0001 C CNN "Description"
F 6 "0805" V 13225 2850 40  0001 C CNN "Size"
F 7 "1%" V 13375 2850 40  0001 C CNN "Tolerance"
	1    13050 2850
	1    0    0    1   
$EndComp
$Comp
L MyKiCadLibs-Lib:R R520
U 1 1 5713D5D8
P 13200 2850
F 0 "R520" V 13150 3150 40  0000 C CNN
F 1 "N/F" V 13207 2851 40  0000 C CNN
F 2 "MyKiCadLibs-Footprints:SMD-0805" V 13130 2850 30  0001 C CNN
F 3 "" V 13120 2850 30  0000 C CNN
F 4 "100mW" V 13300 2850 40  0001 C CNN "Power"
F 5 "Thick or thin film resistor" V 13445 2850 40  0001 C CNN "Description"
F 6 "0805" V 13375 2850 40  0001 C CNN "Size"
F 7 "1%" V 13525 2850 40  0001 C CNN "Tolerance"
	1    13200 2850
	1    0    0    1   
$EndComp
$Comp
L MyKiCadLibs-Lib:R R521
U 1 1 5713D5E3
P 13350 2850
F 0 "R521" V 13300 3150 40  0000 C CNN
F 1 "N/F" V 13357 2851 40  0000 C CNN
F 2 "MyKiCadLibs-Footprints:SMD-0805" V 13280 2850 30  0001 C CNN
F 3 "" V 13270 2850 30  0000 C CNN
F 4 "100mW" V 13450 2850 40  0001 C CNN "Power"
F 5 "Thick or thin film resistor" V 13595 2850 40  0001 C CNN "Description"
F 6 "0805" V 13525 2850 40  0001 C CNN "Size"
F 7 "1%" V 13675 2850 40  0001 C CNN "Tolerance"
	1    13350 2850
	1    0    0    1   
$EndComp
$Comp
L MyKiCadLibs-Lib:R R522
U 1 1 5713D5EE
P 13500 2850
F 0 "R522" V 13450 3150 40  0000 C CNN
F 1 "N/F" V 13507 2851 40  0000 C CNN
F 2 "MyKiCadLibs-Footprints:SMD-0805" V 13430 2850 30  0001 C CNN
F 3 "" V 13420 2850 30  0000 C CNN
F 4 "100mW" V 13600 2850 40  0001 C CNN "Power"
F 5 "Thick or thin film resistor" V 13745 2850 40  0001 C CNN "Description"
F 6 "0805" V 13675 2850 40  0001 C CNN "Size"
F 7 "1%" V 13825 2850 40  0001 C CNN "Tolerance"
	1    13500 2850
	1    0    0    1   
$EndComp
$Comp
L MyKiCadLibs-Lib:R R524
U 1 1 571401A7
P 12750 3700
F 0 "R524" V 12700 3975 40  0000 C CNN
F 1 "0" V 12757 3701 40  0000 C CNN
F 2 "MyKiCadLibs-Footprints:SMD-0805" V 12680 3700 30  0001 C CNN
F 3 "" V 12670 3700 30  0000 C CNN
F 4 "100mW" V 12850 3700 40  0001 C CNN "Power"
F 5 "Thick or thin film resistor" V 12995 3700 40  0001 C CNN "Description"
F 6 "0805" V 12925 3700 40  0001 C CNN "Size"
F 7 "1%" V 13075 3700 40  0001 C CNN "Tolerance"
	1    12750 3700
	0    -1   1    0   
$EndComp
$Comp
L MyKiCadLibs-Lib:R R526
U 1 1 571401B1
P 12750 3900
F 0 "R526" V 12700 4175 40  0000 C CNN
F 1 "75" V 12757 3901 40  0000 C CNN
F 2 "MyKiCadLibs-Footprints:SMD-0805" V 12680 3900 30  0001 C CNN
F 3 "" V 12670 3900 30  0000 C CNN
F 4 "100mW" V 12850 3900 40  0001 C CNN "Power"
F 5 "Thick or thin film resistor" V 12995 3900 40  0001 C CNN "Description"
F 6 "0805" V 12925 3900 40  0001 C CNN "Size"
F 7 "1%" V 13075 3900 40  0001 C CNN "Tolerance"
	1    12750 3900
	0    -1   1    0   
$EndComp
$Comp
L MyKiCadLibs-Lib:R R529
U 1 1 571401BB
P 12750 4100
F 0 "R529" V 12700 4375 40  0000 C CNN
F 1 "75" V 12757 4101 40  0000 C CNN
F 2 "MyKiCadLibs-Footprints:SMD-0805" V 12680 4100 30  0001 C CNN
F 3 "" V 12670 4100 30  0000 C CNN
F 4 "100mW" V 12850 4100 40  0001 C CNN "Power"
F 5 "Thick or thin film resistor" V 12995 4100 40  0001 C CNN "Description"
F 6 "0805" V 12925 4100 40  0001 C CNN "Size"
F 7 "1%" V 13075 4100 40  0001 C CNN "Tolerance"
	1    12750 4100
	0    -1   1    0   
$EndComp
$Comp
L MyKiCadLibs-Lib:R R532
U 1 1 571401C5
P 12750 4300
F 0 "R532" V 12700 4575 40  0000 C CNN
F 1 "75" V 12757 4301 40  0000 C CNN
F 2 "MyKiCadLibs-Footprints:SMD-0805" V 12680 4300 30  0001 C CNN
F 3 "" V 12670 4300 30  0000 C CNN
F 4 "100mW" V 12850 4300 40  0001 C CNN "Power"
F 5 "Thick or thin film resistor" V 12995 4300 40  0001 C CNN "Description"
F 6 "0805" V 12925 4300 40  0001 C CNN "Size"
F 7 "1%" V 13075 4300 40  0001 C CNN "Tolerance"
	1    12750 4300
	0    -1   1    0   
$EndComp
$Comp
L MyKiCadLibs-Lib:R R534
U 1 1 571403B6
P 13050 4700
F 0 "R534" V 13000 5000 40  0000 C CNN
F 1 "N/F" V 13057 4701 40  0000 C CNN
F 2 "MyKiCadLibs-Footprints:SMD-0805" V 12980 4700 30  0001 C CNN
F 3 "" V 12970 4700 30  0000 C CNN
F 4 "100mW" V 13150 4700 40  0001 C CNN "Power"
F 5 "Thick or thin film resistor" V 13295 4700 40  0001 C CNN "Description"
F 6 "0805" V 13225 4700 40  0001 C CNN "Size"
F 7 "1%" V 13375 4700 40  0001 C CNN "Tolerance"
	1    13050 4700
	1    0    0    1   
$EndComp
$Comp
L MyKiCadLibs-Lib:R R535
U 1 1 571403C0
P 13200 4700
F 0 "R535" V 13150 5000 40  0000 C CNN
F 1 "N/F" V 13207 4701 40  0000 C CNN
F 2 "MyKiCadLibs-Footprints:SMD-0805" V 13130 4700 30  0001 C CNN
F 3 "" V 13120 4700 30  0000 C CNN
F 4 "100mW" V 13300 4700 40  0001 C CNN "Power"
F 5 "Thick or thin film resistor" V 13445 4700 40  0001 C CNN "Description"
F 6 "0805" V 13375 4700 40  0001 C CNN "Size"
F 7 "1%" V 13525 4700 40  0001 C CNN "Tolerance"
	1    13200 4700
	1    0    0    1   
$EndComp
$Comp
L MyKiCadLibs-Lib:R R536
U 1 1 571403CA
P 13350 4700
F 0 "R536" V 13300 5000 40  0000 C CNN
F 1 "N/F" V 13357 4701 40  0000 C CNN
F 2 "MyKiCadLibs-Footprints:SMD-0805" V 13280 4700 30  0001 C CNN
F 3 "" V 13270 4700 30  0000 C CNN
F 4 "100mW" V 13450 4700 40  0001 C CNN "Power"
F 5 "Thick or thin film resistor" V 13595 4700 40  0001 C CNN "Description"
F 6 "0805" V 13525 4700 40  0001 C CNN "Size"
F 7 "1%" V 13675 4700 40  0001 C CNN "Tolerance"
	1    13350 4700
	1    0    0    1   
$EndComp
$Comp
L MyKiCadLibs-Lib:R R537
U 1 1 571403D4
P 13500 4700
F 0 "R537" V 13450 5000 40  0000 C CNN
F 1 "N/F" V 13507 4701 40  0000 C CNN
F 2 "MyKiCadLibs-Footprints:SMD-0805" V 13430 4700 30  0001 C CNN
F 3 "" V 13420 4700 30  0000 C CNN
F 4 "100mW" V 13600 4700 40  0001 C CNN "Power"
F 5 "Thick or thin film resistor" V 13745 4700 40  0001 C CNN "Description"
F 6 "0805" V 13675 4700 40  0001 C CNN "Size"
F 7 "1%" V 13825 4700 40  0001 C CNN "Tolerance"
	1    13500 4700
	1    0    0    1   
$EndComp
$Comp
L MyKiCadLibs-Lib:R R543
U 1 1 5714231C
P 12750 5550
F 0 "R543" V 12700 5825 40  0000 C CNN
F 1 "0" V 12757 5551 40  0000 C CNN
F 2 "MyKiCadLibs-Footprints:SMD-0805" V 12680 5550 30  0001 C CNN
F 3 "" V 12670 5550 30  0000 C CNN
F 4 "100mW" V 12850 5550 40  0001 C CNN "Power"
F 5 "Thick or thin film resistor" V 12995 5550 40  0001 C CNN "Description"
F 6 "0805" V 12925 5550 40  0001 C CNN "Size"
F 7 "1%" V 13075 5550 40  0001 C CNN "Tolerance"
	1    12750 5550
	0    -1   1    0   
$EndComp
$Comp
L MyKiCadLibs-Lib:R R545
U 1 1 57142326
P 12750 5750
F 0 "R545" V 12700 6025 40  0000 C CNN
F 1 "75" V 12757 5751 40  0000 C CNN
F 2 "MyKiCadLibs-Footprints:SMD-0805" V 12680 5750 30  0001 C CNN
F 3 "" V 12670 5750 30  0000 C CNN
F 4 "100mW" V 12850 5750 40  0001 C CNN "Power"
F 5 "Thick or thin film resistor" V 12995 5750 40  0001 C CNN "Description"
F 6 "0805" V 12925 5750 40  0001 C CNN "Size"
F 7 "1%" V 13075 5750 40  0001 C CNN "Tolerance"
	1    12750 5750
	0    -1   1    0   
$EndComp
$Comp
L MyKiCadLibs-Lib:R R547
U 1 1 57142330
P 12750 5950
F 0 "R547" V 12700 6225 40  0000 C CNN
F 1 "75" V 12757 5951 40  0000 C CNN
F 2 "MyKiCadLibs-Footprints:SMD-0805" V 12680 5950 30  0001 C CNN
F 3 "" V 12670 5950 30  0000 C CNN
F 4 "100mW" V 12850 5950 40  0001 C CNN "Power"
F 5 "Thick or thin film resistor" V 12995 5950 40  0001 C CNN "Description"
F 6 "0805" V 12925 5950 40  0001 C CNN "Size"
F 7 "1%" V 13075 5950 40  0001 C CNN "Tolerance"
	1    12750 5950
	0    -1   1    0   
$EndComp
$Comp
L MyKiCadLibs-Lib:R R549
U 1 1 5714233A
P 12750 6150
F 0 "R549" V 12700 6425 40  0000 C CNN
F 1 "75" V 12757 6151 40  0000 C CNN
F 2 "MyKiCadLibs-Footprints:SMD-0805" V 12680 6150 30  0001 C CNN
F 3 "" V 12670 6150 30  0000 C CNN
F 4 "100mW" V 12850 6150 40  0001 C CNN "Power"
F 5 "Thick or thin film resistor" V 12995 6150 40  0001 C CNN "Description"
F 6 "0805" V 12925 6150 40  0001 C CNN "Size"
F 7 "1%" V 13075 6150 40  0001 C CNN "Tolerance"
	1    12750 6150
	0    -1   1    0   
$EndComp
$Comp
L MyKiCadLibs-Lib:R R550
U 1 1 5718E7A8
P 13050 6550
F 0 "R550" V 13000 6850 40  0000 C CNN
F 1 "N/F" V 13057 6551 40  0000 C CNN
F 2 "MyKiCadLibs-Footprints:SMD-0805" V 12980 6550 30  0001 C CNN
F 3 "" V 12970 6550 30  0000 C CNN
F 4 "100mW" V 13150 6550 40  0001 C CNN "Power"
F 5 "Thick or thin film resistor" V 13295 6550 40  0001 C CNN "Description"
F 6 "0805" V 13225 6550 40  0001 C CNN "Size"
F 7 "1%" V 13375 6550 40  0001 C CNN "Tolerance"
	1    13050 6550
	1    0    0    1   
$EndComp
$Comp
L MyKiCadLibs-Lib:R R551
U 1 1 5714234E
P 13200 6550
F 0 "R551" V 13150 6850 40  0000 C CNN
F 1 "N/F" V 13207 6551 40  0000 C CNN
F 2 "MyKiCadLibs-Footprints:SMD-0805" V 13130 6550 30  0001 C CNN
F 3 "" V 13120 6550 30  0000 C CNN
F 4 "100mW" V 13300 6550 40  0001 C CNN "Power"
F 5 "Thick or thin film resistor" V 13445 6550 40  0001 C CNN "Description"
F 6 "0805" V 13375 6550 40  0001 C CNN "Size"
F 7 "1%" V 13525 6550 40  0001 C CNN "Tolerance"
	1    13200 6550
	1    0    0    1   
$EndComp
$Comp
L MyKiCadLibs-Lib:R R552
U 1 1 57142358
P 13350 6550
F 0 "R552" V 13300 6850 40  0000 C CNN
F 1 "N/F" V 13357 6551 40  0000 C CNN
F 2 "MyKiCadLibs-Footprints:SMD-0805" V 13280 6550 30  0001 C CNN
F 3 "" V 13270 6550 30  0000 C CNN
F 4 "100mW" V 13450 6550 40  0001 C CNN "Power"
F 5 "Thick or thin film resistor" V 13595 6550 40  0001 C CNN "Description"
F 6 "0805" V 13525 6550 40  0001 C CNN "Size"
F 7 "1%" V 13675 6550 40  0001 C CNN "Tolerance"
	1    13350 6550
	1    0    0    1   
$EndComp
$Comp
L MyKiCadLibs-Lib:R R553
U 1 1 57142362
P 13500 6550
F 0 "R553" V 13450 6850 40  0000 C CNN
F 1 "N/F" V 13507 6551 40  0000 C CNN
F 2 "MyKiCadLibs-Footprints:SMD-0805" V 13430 6550 30  0001 C CNN
F 3 "" V 13420 6550 30  0000 C CNN
F 4 "100mW" V 13600 6550 40  0001 C CNN "Power"
F 5 "Thick or thin film resistor" V 13745 6550 40  0001 C CNN "Description"
F 6 "0805" V 13675 6550 40  0001 C CNN "Size"
F 7 "1%" V 13825 6550 40  0001 C CNN "Tolerance"
	1    13500 6550
	1    0    0    1   
$EndComp
$Comp
L MyKiCadLibs-Lib:R R562
U 1 1 57142F7E
P 12750 7500
F 0 "R562" V 12700 7775 40  0000 C CNN
F 1 "0" V 12757 7501 40  0000 C CNN
F 2 "MyKiCadLibs-Footprints:SMD-0805" V 12680 7500 30  0001 C CNN
F 3 "" V 12670 7500 30  0000 C CNN
F 4 "100mW" V 12850 7500 40  0001 C CNN "Power"
F 5 "Thick or thin film resistor" V 12995 7500 40  0001 C CNN "Description"
F 6 "0805" V 12925 7500 40  0001 C CNN "Size"
F 7 "1%" V 13075 7500 40  0001 C CNN "Tolerance"
	1    12750 7500
	0    -1   1    0   
$EndComp
$Comp
L MyKiCadLibs-Lib:R R567
U 1 1 57142F88
P 12750 7700
F 0 "R567" V 12700 7975 40  0000 C CNN
F 1 "75" V 12757 7701 40  0000 C CNN
F 2 "MyKiCadLibs-Footprints:SMD-0805" V 12680 7700 30  0001 C CNN
F 3 "" V 12670 7700 30  0000 C CNN
F 4 "100mW" V 12850 7700 40  0001 C CNN "Power"
F 5 "Thick or thin film resistor" V 12995 7700 40  0001 C CNN "Description"
F 6 "0805" V 12925 7700 40  0001 C CNN "Size"
F 7 "1%" V 13075 7700 40  0001 C CNN "Tolerance"
	1    12750 7700
	0    -1   1    0   
$EndComp
$Comp
L MyKiCadLibs-Lib:R R570
U 1 1 57142F92
P 12750 7900
F 0 "R570" V 12700 8175 40  0000 C CNN
F 1 "75" V 12757 7901 40  0000 C CNN
F 2 "MyKiCadLibs-Footprints:SMD-0805" V 12680 7900 30  0001 C CNN
F 3 "" V 12670 7900 30  0000 C CNN
F 4 "100mW" V 12850 7900 40  0001 C CNN "Power"
F 5 "Thick or thin film resistor" V 12995 7900 40  0001 C CNN "Description"
F 6 "0805" V 12925 7900 40  0001 C CNN "Size"
F 7 "1%" V 13075 7900 40  0001 C CNN "Tolerance"
	1    12750 7900
	0    -1   1    0   
$EndComp
$Comp
L MyKiCadLibs-Lib:R R572
U 1 1 57142F9C
P 12750 8100
F 0 "R572" V 12700 8375 40  0000 C CNN
F 1 "75" V 12757 8101 40  0000 C CNN
F 2 "MyKiCadLibs-Footprints:SMD-0805" V 12680 8100 30  0001 C CNN
F 3 "" V 12670 8100 30  0000 C CNN
F 4 "100mW" V 12850 8100 40  0001 C CNN "Power"
F 5 "Thick or thin film resistor" V 12995 8100 40  0001 C CNN "Description"
F 6 "0805" V 12925 8100 40  0001 C CNN "Size"
F 7 "1%" V 13075 8100 40  0001 C CNN "Tolerance"
	1    12750 8100
	0    -1   1    0   
$EndComp
$Comp
L MyKiCadLibs-Lib:R R573
U 1 1 57142FA6
P 13050 8500
F 0 "R573" V 13000 8800 40  0000 C CNN
F 1 "N/F" V 13057 8501 40  0000 C CNN
F 2 "MyKiCadLibs-Footprints:SMD-0805" V 12980 8500 30  0001 C CNN
F 3 "" V 12970 8500 30  0000 C CNN
F 4 "100mW" V 13150 8500 40  0001 C CNN "Power"
F 5 "Thick or thin film resistor" V 13295 8500 40  0001 C CNN "Description"
F 6 "0805" V 13225 8500 40  0001 C CNN "Size"
F 7 "1%" V 13375 8500 40  0001 C CNN "Tolerance"
	1    13050 8500
	1    0    0    1   
$EndComp
$Comp
L MyKiCadLibs-Lib:R R574
U 1 1 57142FB0
P 13200 8500
F 0 "R574" V 13150 8800 40  0000 C CNN
F 1 "N/F" V 13207 8501 40  0000 C CNN
F 2 "MyKiCadLibs-Footprints:SMD-0805" V 13130 8500 30  0001 C CNN
F 3 "" V 13120 8500 30  0000 C CNN
F 4 "100mW" V 13300 8500 40  0001 C CNN "Power"
F 5 "Thick or thin film resistor" V 13445 8500 40  0001 C CNN "Description"
F 6 "0805" V 13375 8500 40  0001 C CNN "Size"
F 7 "1%" V 13525 8500 40  0001 C CNN "Tolerance"
	1    13200 8500
	1    0    0    1   
$EndComp
$Comp
L MyKiCadLibs-Lib:R R575
U 1 1 57142FBA
P 13350 8500
F 0 "R575" V 13300 8800 40  0000 C CNN
F 1 "N/F" V 13357 8501 40  0000 C CNN
F 2 "MyKiCadLibs-Footprints:SMD-0805" V 13280 8500 30  0001 C CNN
F 3 "" V 13270 8500 30  0000 C CNN
F 4 "100mW" V 13450 8500 40  0001 C CNN "Power"
F 5 "Thick or thin film resistor" V 13595 8500 40  0001 C CNN "Description"
F 6 "0805" V 13525 8500 40  0001 C CNN "Size"
F 7 "1%" V 13675 8500 40  0001 C CNN "Tolerance"
	1    13350 8500
	1    0    0    1   
$EndComp
$Comp
L MyKiCadLibs-Lib:R R576
U 1 1 57142FC4
P 13500 8500
F 0 "R576" V 13450 8800 40  0000 C CNN
F 1 "N/F" V 13507 8501 40  0000 C CNN
F 2 "MyKiCadLibs-Footprints:SMD-0805" V 13430 8500 30  0001 C CNN
F 3 "" V 13420 8500 30  0000 C CNN
F 4 "100mW" V 13600 8500 40  0001 C CNN "Power"
F 5 "Thick or thin film resistor" V 13745 8500 40  0001 C CNN "Description"
F 6 "0805" V 13675 8500 40  0001 C CNN "Size"
F 7 "1%" V 13825 8500 40  0001 C CNN "Tolerance"
	1    13500 8500
	1    0    0    1   
$EndComp
$Comp
L MyKiCadLibs-Lib:R R560
U 1 1 5714B571
P 9950 7350
F 0 "R560" V 9900 7050 40  0000 C CNN
F 1 "75" V 9957 7351 40  0000 C CNN
F 2 "MyKiCadLibs-Footprints:SMD-0805" V 9880 7350 30  0001 C CNN
F 3 "" V 9870 7350 30  0000 C CNN
F 4 "100mW" V 10050 7350 40  0001 C CNN "Power"
F 5 "Thick or thin film resistor" V 10195 7350 40  0001 C CNN "Description"
F 6 "0805" V 10125 7350 40  0001 C CNN "Size"
F 7 "1%" V 10275 7350 40  0001 C CNN "Tolerance"
	1    9950 7350
	0    1    1    0   
$EndComp
$Comp
L MyKiCadLibs-Lib:R R563
U 1 1 5714BB6C
P 9950 7500
F 0 "R563" V 9900 7200 40  0000 C CNN
F 1 "75" V 9957 7501 40  0000 C CNN
F 2 "MyKiCadLibs-Footprints:SMD-0805" V 9880 7500 30  0001 C CNN
F 3 "" V 9870 7500 30  0000 C CNN
F 4 "100mW" V 10050 7500 40  0001 C CNN "Power"
F 5 "Thick or thin film resistor" V 10195 7500 40  0001 C CNN "Description"
F 6 "0805" V 10125 7500 40  0001 C CNN "Size"
F 7 "1%" V 10275 7500 40  0001 C CNN "Tolerance"
	1    9950 7500
	0    1    1    0   
$EndComp
$Comp
L MyKiCadLibs-Lib:R R566
U 1 1 5714BD45
P 9950 7650
F 0 "R566" V 9900 7350 40  0000 C CNN
F 1 "75" V 9957 7651 40  0000 C CNN
F 2 "MyKiCadLibs-Footprints:SMD-0805" V 9880 7650 30  0001 C CNN
F 3 "" V 9870 7650 30  0000 C CNN
F 4 "100mW" V 10050 7650 40  0001 C CNN "Power"
F 5 "Thick or thin film resistor" V 10195 7650 40  0001 C CNN "Description"
F 6 "0805" V 10125 7650 40  0001 C CNN "Size"
F 7 "1%" V 10275 7650 40  0001 C CNN "Tolerance"
	1    9950 7650
	0    1    1    0   
$EndComp
$Comp
L MyKiCadLibs-Lib:R R568
U 1 1 5714BF25
P 9950 7800
F 0 "R568" V 9900 7500 40  0000 C CNN
F 1 "75" V 9957 7801 40  0000 C CNN
F 2 "MyKiCadLibs-Footprints:SMD-0805" V 9880 7800 30  0001 C CNN
F 3 "" V 9870 7800 30  0000 C CNN
F 4 "100mW" V 10050 7800 40  0001 C CNN "Power"
F 5 "Thick or thin film resistor" V 10195 7800 40  0001 C CNN "Description"
F 6 "0805" V 10125 7800 40  0001 C CNN "Size"
F 7 "1%" V 10275 7800 40  0001 C CNN "Tolerance"
	1    9950 7800
	0    1    1    0   
$EndComp
$Comp
L MyKiCadLibs-Lib:R R583
U 1 1 5714D2D0
P 9950 8950
F 0 "R583" V 9900 8650 40  0000 C CNN
F 1 "75" V 9957 8951 40  0000 C CNN
F 2 "MyKiCadLibs-Footprints:SMD-0805" V 9880 8950 30  0001 C CNN
F 3 "" V 9870 8950 30  0000 C CNN
F 4 "100mW" V 10050 8950 40  0001 C CNN "Power"
F 5 "Thick or thin film resistor" V 10195 8950 40  0001 C CNN "Description"
F 6 "0805" V 10125 8950 40  0001 C CNN "Size"
F 7 "1%" V 10275 8950 40  0001 C CNN "Tolerance"
	1    9950 8950
	0    1    1    0   
$EndComp
$Comp
L MyKiCadLibs-Lib:R R584
U 1 1 5714D2DA
P 9950 9100
F 0 "R584" V 9900 8800 40  0000 C CNN
F 1 "75" V 9957 9101 40  0000 C CNN
F 2 "MyKiCadLibs-Footprints:SMD-0805" V 9880 9100 30  0001 C CNN
F 3 "" V 9870 9100 30  0000 C CNN
F 4 "100mW" V 10050 9100 40  0001 C CNN "Power"
F 5 "Thick or thin film resistor" V 10195 9100 40  0001 C CNN "Description"
F 6 "0805" V 10125 9100 40  0001 C CNN "Size"
F 7 "1%" V 10275 9100 40  0001 C CNN "Tolerance"
	1    9950 9100
	0    1    1    0   
$EndComp
$Comp
L MyKiCadLibs-Lib:R R586
U 1 1 5714D2E4
P 9950 9250
F 0 "R586" V 9900 8950 40  0000 C CNN
F 1 "75" V 9957 9251 40  0000 C CNN
F 2 "MyKiCadLibs-Footprints:SMD-0805" V 9880 9250 30  0001 C CNN
F 3 "" V 9870 9250 30  0000 C CNN
F 4 "100mW" V 10050 9250 40  0001 C CNN "Power"
F 5 "Thick or thin film resistor" V 10195 9250 40  0001 C CNN "Description"
F 6 "0805" V 10125 9250 40  0001 C CNN "Size"
F 7 "1%" V 10275 9250 40  0001 C CNN "Tolerance"
	1    9950 9250
	0    1    1    0   
$EndComp
$Comp
L MyKiCadLibs-Lib:R R587
U 1 1 5714D2EE
P 9950 9400
F 0 "R587" V 9900 9100 40  0000 C CNN
F 1 "75" V 9957 9401 40  0000 C CNN
F 2 "MyKiCadLibs-Footprints:SMD-0805" V 9880 9400 30  0001 C CNN
F 3 "" V 9870 9400 30  0000 C CNN
F 4 "100mW" V 10050 9400 40  0001 C CNN "Power"
F 5 "Thick or thin film resistor" V 10195 9400 40  0001 C CNN "Description"
F 6 "0805" V 10125 9400 40  0001 C CNN "Size"
F 7 "1%" V 10275 9400 40  0001 C CNN "Tolerance"
	1    9950 9400
	0    1    1    0   
$EndComp
$Comp
L MyKiCadLibs-Lib:R R565
U 1 1 5714F1B3
P 8200 7650
F 0 "R565" V 8300 7650 40  0000 C CNN
F 1 "1k" V 8207 7651 40  0000 C CNN
F 2 "MyKiCadLibs-Footprints:SMD-0805" V 8130 7650 30  0001 C CNN
F 3 "" V 8120 7650 30  0000 C CNN
F 4 "100mW" V 8300 7650 40  0001 C CNN "Power"
F 5 "Thick or thin film resistor" V 8445 7650 40  0001 C CNN "Description"
F 6 "0805" V 8375 7650 40  0001 C CNN "Size"
F 7 "1%" V 8525 7650 40  0001 C CNN "Tolerance"
	1    8200 7650
	0    1    1    0   
$EndComp
$Comp
L MyKiCadLibs-Lib:R R585
U 1 1 5714FCC4
P 8200 9250
F 0 "R585" V 8300 9250 40  0000 C CNN
F 1 "1k" V 8207 9251 40  0000 C CNN
F 2 "MyKiCadLibs-Footprints:SMD-0805" V 8130 9250 30  0001 C CNN
F 3 "" V 8120 9250 30  0000 C CNN
F 4 "100mW" V 8300 9250 40  0001 C CNN "Power"
F 5 "Thick or thin film resistor" V 8445 9250 40  0001 C CNN "Description"
F 6 "0805" V 8375 9250 40  0001 C CNN "Size"
F 7 "1%" V 8525 9250 40  0001 C CNN "Tolerance"
	1    8200 9250
	0    1    1    0   
$EndComp
$Comp
L MyKiCadLibs-Lib:R R577
U 1 1 57152345
P 6400 8500
F 0 "R577" V 6500 8500 40  0000 C CNN
F 1 "1" V 6407 8501 40  0000 C CNN
F 2 "MyKiCadLibs-Footprints:SMD-0805" V 6330 8500 30  0001 C CNN
F 3 "" V 6320 8500 30  0000 C CNN
F 4 "100mW" V 6500 8500 40  0001 C CNN "Power"
F 5 "Thick or thin film resistor" V 6645 8500 40  0001 C CNN "Description"
F 6 "0805" V 6575 8500 40  0001 C CNN "Size"
F 7 "1%" V 6725 8500 40  0001 C CNN "Tolerance"
	1    6400 8500
	0    -1   -1   0   
$EndComp
$Comp
L MyKiCadLibs-Lib:R R558
U 1 1 57152AB0
P 5650 6750
F 0 "R558" V 5750 6750 40  0000 C CNN
F 1 "1" V 5657 6751 40  0000 C CNN
F 2 "MyKiCadLibs-Footprints:SMD-0805" V 5580 6750 30  0001 C CNN
F 3 "" V 5570 6750 30  0000 C CNN
F 4 "100mW" V 5750 6750 40  0001 C CNN "Power"
F 5 "Thick or thin film resistor" V 5895 6750 40  0001 C CNN "Description"
F 6 "0805" V 5825 6750 40  0001 C CNN "Size"
F 7 "1%" V 5975 6750 40  0001 C CNN "Tolerance"
	1    5650 6750
	0    -1   -1   0   
$EndComp
$Comp
L MyKiCadLibs-Lib:R R559
U 1 1 571533F6
P 6100 7050
F 0 "R559" V 6200 7050 40  0000 C CNN
F 1 "47" V 6107 7051 40  0000 C CNN
F 2 "MyKiCadLibs-Footprints:SMD-0805" V 6030 7050 30  0001 C CNN
F 3 "" V 6020 7050 30  0000 C CNN
F 4 "100mW" V 6200 7050 40  0001 C CNN "Power"
F 5 "Thick or thin film resistor" V 6345 7050 40  0001 C CNN "Description"
F 6 "0805" V 6275 7050 40  0001 C CNN "Size"
F 7 "1%" V 6425 7050 40  0001 C CNN "Tolerance"
	1    6100 7050
	1    0    0    -1  
$EndComp
$Comp
L MyKiCadLibs-Lib:R R582
U 1 1 571545B0
P 6750 8800
F 0 "R582" V 6850 8800 40  0000 C CNN
F 1 "47" V 6757 8801 40  0000 C CNN
F 2 "MyKiCadLibs-Footprints:SMD-0805" V 6680 8800 30  0001 C CNN
F 3 "" V 6670 8800 30  0000 C CNN
F 4 "100mW" V 6850 8800 40  0001 C CNN "Power"
F 5 "Thick or thin film resistor" V 6995 8800 40  0001 C CNN "Description"
F 6 "0805" V 6925 8800 40  0001 C CNN "Size"
F 7 "1%" V 7075 8800 40  0001 C CNN "Tolerance"
	1    6750 8800
	1    0    0    -1  
$EndComp
$Comp
L MyKiCadLibs-Lib:R R531
U 1 1 5715670F
P 7200 4300
F 0 "R531" V 7300 4300 40  0000 C CNN
F 1 "0" V 7207 4301 40  0000 C CNN
F 2 "MyKiCadLibs-Footprints:SMD-0805" V 7130 4300 30  0001 C CNN
F 3 "" V 7120 4300 30  0000 C CNN
F 4 "100mW" V 7300 4300 40  0001 C CNN "Power"
F 5 "Thick or thin film resistor" V 7445 4300 40  0001 C CNN "Description"
F 6 "0805" V 7375 4300 40  0001 C CNN "Size"
F 7 "1%" V 7525 4300 40  0001 C CNN "Tolerance"
	1    7200 4300
	0    -1   -1   0   
$EndComp
$Comp
L MyKiCadLibs-Lib:R R528
U 1 1 57157291
P 9400 4075
F 0 "R528" V 9500 4075 40  0000 C CNN
F 1 "0" V 9407 4076 40  0000 C CNN
F 2 "MyKiCadLibs-Footprints:SMD-0805" V 9330 4075 30  0001 C CNN
F 3 "" V 9320 4075 30  0000 C CNN
F 4 "100mW" V 9500 4075 40  0001 C CNN "Power"
F 5 "Thick or thin film resistor" V 9645 4075 40  0001 C CNN "Description"
F 6 "0805" V 9575 4075 40  0001 C CNN "Size"
F 7 "1%" V 9725 4075 40  0001 C CNN "Tolerance"
	1    9400 4075
	0    -1   -1   0   
$EndComp
$Comp
L MyKiCadLibs-Lib:R R533
U 1 1 57157EA8
P 9400 4475
F 0 "R533" V 9350 4225 40  0000 C CNN
F 1 "0" V 9407 4476 40  0000 C CNN
F 2 "MyKiCadLibs-Footprints:SMD-0805" V 9330 4475 30  0001 C CNN
F 3 "" V 9320 4475 30  0000 C CNN
F 4 "100mW" V 9500 4475 40  0001 C CNN "Power"
F 5 "Thick or thin film resistor" V 9645 4475 40  0001 C CNN "Description"
F 6 "0805" V 9575 4475 40  0001 C CNN "Size"
F 7 "1%" V 9725 4475 40  0001 C CNN "Tolerance"
	1    9400 4475
	0    -1   1    0   
$EndComp
$Comp
L MyKiCadLibs-Lib:R R502
U 1 1 570F113F
P 7800 1800
F 0 "R502" V 7750 2100 40  0000 C CNN
F 1 "4k7" V 7807 1801 40  0000 C CNN
F 2 "MyKiCadLibs-Footprints:SMD-0805" V 7730 1800 30  0001 C CNN
F 3 "" V 7720 1800 30  0000 C CNN
F 4 "100mW" V 7900 1800 40  0001 C CNN "Power"
F 5 "Thick or thin film resistor" V 8045 1800 40  0001 C CNN "Description"
F 6 "0805" V 7975 1800 40  0001 C CNN "Size"
F 7 "1%" V 8125 1800 40  0001 C CNN "Tolerance"
	1    7800 1800
	0    -1   1    0   
$EndComp
$Comp
L MyKiCadLibs-Lib:R R504
U 1 1 570F2279
P 7800 1900
F 0 "R504" V 7750 2200 40  0000 C CNN
F 1 "4k7" V 7807 1901 40  0000 C CNN
F 2 "MyKiCadLibs-Footprints:SMD-0805" V 7730 1900 30  0001 C CNN
F 3 "" V 7720 1900 30  0000 C CNN
F 4 "100mW" V 7900 1900 40  0001 C CNN "Power"
F 5 "Thick or thin film resistor" V 8045 1900 40  0001 C CNN "Description"
F 6 "0805" V 7975 1900 40  0001 C CNN "Size"
F 7 "1%" V 8125 1900 40  0001 C CNN "Tolerance"
	1    7800 1900
	0    -1   1    0   
$EndComp
$Comp
L MyKiCadLibs-Lib:R R506
U 1 1 570F2618
P 7800 2000
F 0 "R506" V 7750 2300 40  0000 C CNN
F 1 "4k7" V 7807 2001 40  0000 C CNN
F 2 "MyKiCadLibs-Footprints:SMD-0805" V 7730 2000 30  0001 C CNN
F 3 "" V 7720 2000 30  0000 C CNN
F 4 "100mW" V 7900 2000 40  0001 C CNN "Power"
F 5 "Thick or thin film resistor" V 8045 2000 40  0001 C CNN "Description"
F 6 "0805" V 7975 2000 40  0001 C CNN "Size"
F 7 "1%" V 8125 2000 40  0001 C CNN "Tolerance"
	1    7800 2000
	0    -1   1    0   
$EndComp
$Comp
L MyKiCadLibs-Lib:R R508
U 1 1 570F292B
P 7800 2100
F 0 "R508" V 7750 2400 40  0000 C CNN
F 1 "4k7" V 7807 2101 40  0000 C CNN
F 2 "MyKiCadLibs-Footprints:SMD-0805" V 7730 2100 30  0001 C CNN
F 3 "" V 7720 2100 30  0000 C CNN
F 4 "100mW" V 7900 2100 40  0001 C CNN "Power"
F 5 "Thick or thin film resistor" V 8045 2100 40  0001 C CNN "Description"
F 6 "0805" V 7975 2100 40  0001 C CNN "Size"
F 7 "1%" V 8125 2100 40  0001 C CNN "Tolerance"
	1    7800 2100
	0    -1   1    0   
$EndComp
$Comp
L MyKiCadLibs-Lib:R R510
U 1 1 570F2CDA
P 7800 2200
F 0 "R510" V 7750 2500 40  0000 C CNN
F 1 "4k7" V 7807 2201 40  0000 C CNN
F 2 "MyKiCadLibs-Footprints:SMD-0805" V 7730 2200 30  0001 C CNN
F 3 "" V 7720 2200 30  0000 C CNN
F 4 "100mW" V 7900 2200 40  0001 C CNN "Power"
F 5 "Thick or thin film resistor" V 8045 2200 40  0001 C CNN "Description"
F 6 "0805" V 7975 2200 40  0001 C CNN "Size"
F 7 "1%" V 8125 2200 40  0001 C CNN "Tolerance"
	1    7800 2200
	0    -1   1    0   
$EndComp
$Comp
L MyKiCadLibs-Lib:R R512
U 1 1 570F308B
P 7800 2300
F 0 "R512" V 7750 2600 40  0000 C CNN
F 1 "4k7" V 7807 2301 40  0000 C CNN
F 2 "MyKiCadLibs-Footprints:SMD-0805" V 7730 2300 30  0001 C CNN
F 3 "" V 7720 2300 30  0000 C CNN
F 4 "100mW" V 7900 2300 40  0001 C CNN "Power"
F 5 "Thick or thin film resistor" V 8045 2300 40  0001 C CNN "Description"
F 6 "0805" V 7975 2300 40  0001 C CNN "Size"
F 7 "1%" V 8125 2300 40  0001 C CNN "Tolerance"
	1    7800 2300
	0    -1   1    0   
$EndComp
Wire Wire Line
	9650 4475 9800 4475
Wire Wire Line
	9150 4475 9100 4475
Text Notes 7150 5100 0    118  ~ 0
Slave SPI Port
Text Notes 1050 850  0    118  ~ 0
Connectors
$Comp
L power:+3V3 #PWR533
U 1 1 59B1006E
P 5250 6600
F 0 "#PWR533" H 5250 6450 50  0001 C CNN
F 1 "+3V3" H 5250 6740 50  0000 C CNN
F 2 "" H 5250 6600 50  0001 C CNN
F 3 "" H 5250 6600 50  0001 C CNN
	1    5250 6600
	1    0    0    -1  
$EndComp
$Comp
L power:+3V3 #PWR542
U 1 1 59B155DF
P 6000 8400
F 0 "#PWR542" H 6000 8250 50  0001 C CNN
F 1 "+3V3" H 6000 8540 50  0000 C CNN
F 2 "" H 6000 8400 50  0001 C CNN
F 3 "" H 6000 8400 50  0001 C CNN
	1    6000 8400
	1    0    0    -1  
$EndComp
$Comp
L MyKiCadLibs-Lib:PIN TP529
U 1 1 59B0FC8D
P 7800 8150
F 0 "TP529" H 8150 8150 40  0000 C CNN
F 1 "PIN" H 8350 8150 40  0001 C CNN
F 2 "MyKiCadLibs-Footprints:TP-TH-1mm" H 8140 8040 60  0001 C CNN
F 3 "" H 8140 8040 60  0000 C CNN
	1    7800 8150
	1    0    0    1   
$EndComp
Wire Wire Line
	7800 8150 7750 8150
Wire Wire Line
	7750 8150 7750 7500
Connection ~ 7750 7500
$Comp
L MyKiCadLibs-Lib:PIN TP530
U 1 1 59B128C0
P 7800 8350
F 0 "TP530" H 8150 8350 40  0000 C CNN
F 1 "PIN" H 8350 8350 40  0001 C CNN
F 2 "MyKiCadLibs-Footprints:TP-TH-1mm" H 8140 8240 60  0001 C CNN
F 3 "" H 8140 8240 60  0000 C CNN
	1    7800 8350
	1    0    0    1   
$EndComp
Wire Wire Line
	7800 8350 7650 8350
Connection ~ 7650 8350
$Comp
L MyKiCadLibs-Lib:DIODE_DUAL_BAV99 D506
U 1 1 59B635E6
P 9200 2900
F 0 "D506" H 9200 2850 40  0000 C CNN
F 1 "BAV99" H 9200 2800 40  0000 C CNN
F 2 "MyKiCadLibs-Footprints:IC-SOT23" H 9200 2650 60  0001 C CNN
F 3 "" H 9050 2900 60  0000 C CNN
F 4 "100V 150mA Small Signal Switching Diode, Dual in Series" H 9200 2750 40  0001 C CNN "Description"
	1    9200 2900
	0    -1   -1   0   
$EndComp
Wire Wire Line
	9300 1800 8050 1800
Wire Wire Line
	8050 1900 9300 1900
Wire Wire Line
	9300 2000 8050 2000
Wire Wire Line
	8050 2100 9300 2100
Wire Wire Line
	9300 2200 8050 2200
Wire Wire Line
	8050 2300 9300 2300
Wire Wire Line
	9200 3200 9200 3150
$Comp
L power:+3V3 #PWR514
U 1 1 59B66A91
P 9200 2600
F 0 "#PWR514" H 9200 2450 50  0001 C CNN
F 1 "+3V3" H 9200 2740 50  0000 C CNN
F 2 "" H 9200 2600 50  0001 C CNN
F 3 "" H 9200 2600 50  0001 C CNN
	1    9200 2600
	1    0    0    -1  
$EndComp
Wire Wire Line
	9200 2600 9200 2650
$Comp
L power:GNDD #PWR516
U 1 1 59B67598
P 8850 3200
F 0 "#PWR516" H 8850 2950 60  0001 C CNN
F 1 "GNDD" H 8850 3050 60  0000 C CNN
F 2 "" H 8850 3200 60  0000 C CNN
F 3 "" H 8850 3200 60  0000 C CNN
	1    8850 3200
	1    0    0    -1  
$EndComp
$Comp
L MyKiCadLibs-Lib:DIODE_DUAL_BAV99 D505
U 1 1 59B6759F
P 8850 2900
F 0 "D505" H 8850 2850 40  0000 C CNN
F 1 "BAV99" H 8850 2800 40  0000 C CNN
F 2 "MyKiCadLibs-Footprints:IC-SOT23" H 8850 2650 60  0001 C CNN
F 3 "" H 8700 2900 60  0000 C CNN
F 4 "100V 150mA Small Signal Switching Diode, Dual in Series" H 8850 2750 40  0001 C CNN "Description"
	1    8850 2900
	0    -1   -1   0   
$EndComp
Wire Wire Line
	8850 3200 8850 3150
$Comp
L power:+3V3 #PWR513
U 1 1 59B675A6
P 8850 2600
F 0 "#PWR513" H 8850 2450 50  0001 C CNN
F 1 "+3V3" H 8850 2740 50  0000 C CNN
F 2 "" H 8850 2600 50  0001 C CNN
F 3 "" H 8850 2600 50  0001 C CNN
	1    8850 2600
	1    0    0    -1  
$EndComp
Wire Wire Line
	8850 2600 8850 2650
$Comp
L power:GNDD #PWR515
U 1 1 59B6764C
P 8500 3200
F 0 "#PWR515" H 8500 2950 60  0001 C CNN
F 1 "GNDD" H 8500 3050 60  0000 C CNN
F 2 "" H 8500 3200 60  0000 C CNN
F 3 "" H 8500 3200 60  0000 C CNN
	1    8500 3200
	1    0    0    -1  
$EndComp
$Comp
L MyKiCadLibs-Lib:DIODE_DUAL_BAV99 D504
U 1 1 59B67653
P 8500 2900
F 0 "D504" H 8500 2850 40  0000 C CNN
F 1 "BAV99" H 8500 2800 40  0000 C CNN
F 2 "MyKiCadLibs-Footprints:IC-SOT23" H 8500 2650 60  0001 C CNN
F 3 "" H 8350 2900 60  0000 C CNN
F 4 "100V 150mA Small Signal Switching Diode, Dual in Series" H 8500 2750 40  0001 C CNN "Description"
	1    8500 2900
	0    -1   -1   0   
$EndComp
Wire Wire Line
	8500 3200 8500 3150
$Comp
L power:+3V3 #PWR512
U 1 1 59B6765A
P 8500 2600
F 0 "#PWR512" H 8500 2450 50  0001 C CNN
F 1 "+3V3" H 8500 2740 50  0000 C CNN
F 2 "" H 8500 2600 50  0001 C CNN
F 3 "" H 8500 2600 50  0001 C CNN
	1    8500 2600
	1    0    0    -1  
$EndComp
Wire Wire Line
	8500 2600 8500 2650
Wire Wire Line
	9150 2900 9050 2900
Wire Wire Line
	9050 2900 9050 2300
Connection ~ 9050 2300
Wire Wire Line
	8800 2900 8700 2900
Wire Wire Line
	8700 2900 8700 2200
Connection ~ 8700 2200
Wire Wire Line
	8450 2900 8350 2900
$Comp
L power:GNDD #PWR506
U 1 1 59B68528
P 9050 1550
F 0 "#PWR506" H 9050 1300 60  0001 C CNN
F 1 "GNDD" H 9050 1400 60  0000 C CNN
F 2 "" H 9050 1550 60  0000 C CNN
F 3 "" H 9050 1550 60  0000 C CNN
	1    9050 1550
	1    0    0    -1  
$EndComp
$Comp
L MyKiCadLibs-Lib:DIODE_DUAL_BAV99 D503
U 1 1 59B6852F
P 9050 1250
F 0 "D503" H 9050 1200 40  0000 C CNN
F 1 "BAV99" H 9050 1150 40  0000 C CNN
F 2 "MyKiCadLibs-Footprints:IC-SOT23" H 9050 1000 60  0001 C CNN
F 3 "" H 8900 1250 60  0000 C CNN
F 4 "100V 150mA Small Signal Switching Diode, Dual in Series" H 9050 1100 40  0001 C CNN "Description"
	1    9050 1250
	0    -1   -1   0   
$EndComp
Wire Wire Line
	9050 1550 9050 1500
$Comp
L power:+3V3 #PWR503
U 1 1 59B68536
P 9050 950
F 0 "#PWR503" H 9050 800 50  0001 C CNN
F 1 "+3V3" H 9050 1090 50  0000 C CNN
F 2 "" H 9050 950 50  0001 C CNN
F 3 "" H 9050 950 50  0001 C CNN
	1    9050 950 
	1    0    0    -1  
$EndComp
Wire Wire Line
	9050 950  9050 1000
$Comp
L power:GNDD #PWR505
U 1 1 59B6853D
P 8700 1550
F 0 "#PWR505" H 8700 1300 60  0001 C CNN
F 1 "GNDD" H 8700 1400 60  0000 C CNN
F 2 "" H 8700 1550 60  0000 C CNN
F 3 "" H 8700 1550 60  0000 C CNN
	1    8700 1550
	1    0    0    -1  
$EndComp
$Comp
L MyKiCadLibs-Lib:DIODE_DUAL_BAV99 D502
U 1 1 59B68544
P 8700 1250
F 0 "D502" H 8700 1200 40  0000 C CNN
F 1 "BAV99" H 8700 1150 40  0000 C CNN
F 2 "MyKiCadLibs-Footprints:IC-SOT23" H 8700 1000 60  0001 C CNN
F 3 "" H 8550 1250 60  0000 C CNN
F 4 "100V 150mA Small Signal Switching Diode, Dual in Series" H 8700 1100 40  0001 C CNN "Description"
	1    8700 1250
	0    -1   -1   0   
$EndComp
Wire Wire Line
	8700 1550 8700 1500
$Comp
L power:+3V3 #PWR502
U 1 1 59B6854B
P 8700 950
F 0 "#PWR502" H 8700 800 50  0001 C CNN
F 1 "+3V3" H 8700 1090 50  0000 C CNN
F 2 "" H 8700 950 50  0001 C CNN
F 3 "" H 8700 950 50  0001 C CNN
	1    8700 950 
	1    0    0    -1  
$EndComp
Wire Wire Line
	8700 950  8700 1000
$Comp
L power:GNDD #PWR504
U 1 1 59B68552
P 8350 1550
F 0 "#PWR504" H 8350 1300 60  0001 C CNN
F 1 "GNDD" H 8350 1400 60  0000 C CNN
F 2 "" H 8350 1550 60  0000 C CNN
F 3 "" H 8350 1550 60  0000 C CNN
	1    8350 1550
	1    0    0    -1  
$EndComp
$Comp
L MyKiCadLibs-Lib:DIODE_DUAL_BAV99 D501
U 1 1 59B68559
P 8350 1250
F 0 "D501" H 8350 1200 40  0000 C CNN
F 1 "BAV99" H 8350 1150 40  0000 C CNN
F 2 "MyKiCadLibs-Footprints:IC-SOT23" H 8350 1000 60  0001 C CNN
F 3 "" H 8200 1250 60  0000 C CNN
F 4 "100V 150mA Small Signal Switching Diode, Dual in Series" H 8350 1100 40  0001 C CNN "Description"
	1    8350 1250
	0    -1   -1   0   
$EndComp
Wire Wire Line
	8350 1550 8350 1500
$Comp
L power:+3V3 #PWR501
U 1 1 59B68560
P 8350 950
F 0 "#PWR501" H 8350 800 50  0001 C CNN
F 1 "+3V3" H 8350 1090 50  0000 C CNN
F 2 "" H 8350 950 50  0001 C CNN
F 3 "" H 8350 950 50  0001 C CNN
	1    8350 950 
	1    0    0    -1  
$EndComp
Wire Wire Line
	8350 950  8350 1000
Wire Wire Line
	9000 1250 8900 1250
Wire Wire Line
	8650 1250 8550 1250
Wire Wire Line
	8300 1250 8200 1250
Wire Wire Line
	8350 2900 8350 2100
Connection ~ 8350 2100
Wire Wire Line
	8200 1250 8200 1800
Connection ~ 8200 1800
Wire Wire Line
	8550 1250 8550 1900
Connection ~ 8550 1900
Wire Wire Line
	8900 1250 8900 2000
Connection ~ 8900 2000
$EndSCHEMATC
