EESchema Schematic File Version 2
LIBS:power
LIBS:MyKiCadLibs-Lib
LIBS:DSPOne-cache
EELAYER 25 0
EELAYER END
$Descr A4 11693 8268
encoding utf-8
Sheet 6 6
Title "ADAU145x DSP - ADAU1452, ADAU1451, ADAU1450 supported"
Date "2016-05-25"
Rev "2.0"
Comp "Open Hardware DSP Platform - www.ohdsp.org"
Comment1 "MERCHANTABILITY, SATISFACTORY QUALITY AND FITNESS FOR A PARTICULAR PURPOSE."
Comment2 "is distributed WITHOUT ANY EXPRESS OR IMPLIED WARRANTY, INCLUDING OF"
Comment3 "Licensed under the TAPR Open Hardware License (www.tapr.org/OHL). This documentation"
Comment4 "Copyright Paul Janicki 2016"
$EndDescr
Text Notes 1000 1300 0    59   ~ 0
Generate a global reset based on voltage rails.\nUse ADM13307-5ARZ only! (Sense1=3v3, Sense2/3=Adj).\nSupports external reset signal.
Text Notes 1000 1000 0    118  ~ 0
Voltage Monitor Reset
$Comp
L SWITCH SW601
U 1 1 57DA6BD2
P 7700 3650
F 0 "SW601" H 7900 3780 70  0000 C CNN
F 1 "SWITCH" H 7900 3900 70  0000 C CNN
F 2 "MyKiCadLibs-Footprints:SW_TACT_SMD" H 7965 3650 60  0001 C CNN
F 3 "" H 7965 3650 60  0000 C CNN
F 4 "6mm x 6mm SMD tactile switch - e.g. TE FSM2JSMA" H 7700 3650 60  0001 C CNN "Description"
	1    7700 3650
	0    1    1    0   
$EndComp
$Comp
L GNDD #PWR602
U 1 1 57DA6BD9
P 7950 2600
F 0 "#PWR602" H 7950 2350 60  0001 C CNN
F 1 "GNDD" H 7950 2450 60  0000 C CNN
F 2 "" H 7950 2600 60  0000 C CNN
F 3 "" H 7950 2600 60  0000 C CNN
	1    7950 2600
	-1   0    0    -1  
$EndComp
Text Notes 9300 4000 0    59   ~ 0
External reset\ninput
$Comp
L IC-RST-ADM13307 U601
U 1 1 57DA6BE1
P 5350 3050
F 0 "U601" H 5650 3300 60  0000 C CNN
F 1 "ADM13307-5ARZ" H 6000 3200 60  0000 C CNN
F 2 "MyKiCadLibs-Footprints:IC_SOIC_8" H 5350 3050 60  0001 C CNN
F 3 "" H 5350 3050 60  0000 C CNN
F 4 "Triple Processor Supervisors - Use ADM13307-5ARZ only (Sense1 = 3v3, Sense2/3=Adj)" H 5350 3050 60  0001 C CNN "Description"
	1    5350 3050
	1    0    0    -1  
$EndComp
$Comp
L GNDD #PWR611
U 1 1 57DA6BE8
P 7700 4100
F 0 "#PWR611" H 7700 3850 60  0001 C CNN
F 1 "GNDD" H 7700 3950 60  0000 C CNN
F 2 "" H 7700 4100 60  0000 C CNN
F 3 "" H 7700 4100 60  0000 C CNN
	1    7700 4100
	-1   0    0    -1  
$EndComp
$Comp
L GNDD #PWR610
U 1 1 57DA6BEE
P 6750 4100
F 0 "#PWR610" H 6750 3850 60  0001 C CNN
F 1 "GNDD" H 6750 3950 60  0000 C CNN
F 2 "" H 6750 4100 60  0000 C CNN
F 3 "" H 6750 4100 60  0000 C CNN
	1    6750 4100
	-1   0    0    -1  
$EndComp
$Comp
L GNDD #PWR608
U 1 1 57DA6BFA
P 2750 3700
F 0 "#PWR608" H 2750 3450 60  0001 C CNN
F 1 "GNDD" H 2750 3550 60  0000 C CNN
F 2 "" H 2750 3700 60  0000 C CNN
F 3 "" H 2750 3700 60  0000 C CNN
	1    2750 3700
	-1   0    0    -1  
$EndComp
$Comp
L GNDD #PWR607
U 1 1 57DA6C00
P 5300 3650
F 0 "#PWR607" H 5300 3400 60  0001 C CNN
F 1 "GNDD" H 5300 3500 60  0000 C CNN
F 2 "" H 5300 3650 60  0000 C CNN
F 3 "" H 5300 3650 60  0000 C CNN
	1    5300 3650
	-1   0    0    -1  
$EndComp
$Comp
L GNDD #PWR609
U 1 1 57DA6C06
P 5100 4100
F 0 "#PWR609" H 5100 3850 60  0001 C CNN
F 1 "GNDD" H 5100 3950 60  0000 C CNN
F 2 "" H 5100 4100 60  0000 C CNN
F 3 "" H 5100 4100 60  0000 C CNN
	1    5100 4100
	-1   0    0    -1  
$EndComp
Text HLabel 8750 2300 2    60   Output ~ 0
GLB_RESET
Text HLabel 8750 3550 2    60   Input ~ 0
RST_IN
$Comp
L GNDD #PWR603
U 1 1 57DA6C27
P 8650 2800
F 0 "#PWR603" H 8650 2550 60  0001 C CNN
F 1 "GNDD" H 8650 2650 60  0000 C CNN
F 2 "" H 8650 2800 60  0000 C CNN
F 3 "" H 8650 2800 60  0000 C CNN
	1    8650 2800
	-1   0    0    -1  
$EndComp
$Comp
L GNDD #PWR612
U 1 1 57DA6C34
P 8250 4200
F 0 "#PWR612" H 8250 3950 60  0001 C CNN
F 1 "GNDD" H 8250 4050 60  0000 C CNN
F 2 "" H 8250 4200 60  0000 C CNN
F 3 "" H 8250 4200 60  0000 C CNN
	1    8250 4200
	-1   0    0    -1  
$EndComp
$Comp
L PIN TP603
U 1 1 57DA6C3A
P 6800 2900
F 0 "TP603" V 7100 2900 40  0000 C CNN
F 1 "PIN" V 7140 2910 40  0001 C CNN
F 2 "MyKiCadLibs-Footprints:TP-TH-1mm" H 7140 2790 60  0001 C CNN
F 3 "" H 7140 2790 60  0000 C CNN
	1    6800 2900
	0    -1   -1   0   
$EndComp
$Comp
L PIN TP602
U 1 1 57DA6C41
P 7950 2150
F 0 "TP602" H 8325 2150 40  0000 C CNN
F 1 "PIN" H 8450 2150 40  0001 C CNN
F 2 "MyKiCadLibs-Footprints:TP-2mm" H 8290 2040 60  0001 C CNN
F 3 "" H 8290 2040 60  0000 C CNN
	1    7950 2150
	1    0    0    -1  
$EndComp
$Comp
L CONN_2x1 P601
U 1 1 57DA6C4A
P 8300 3900
F 0 "P601" V 8795 3745 40  0000 C CNN
F 1 "CONN_2x1" V 8740 3860 40  0000 C CNN
F 2 "MyKiCadLibs-Footprints:CONN_SIL_2_1MM" H 8640 3790 60  0001 C CNN
F 3 "" H 8640 3790 60  0000 C CNN
F 4 "1x2 2.54mm pitch pin header" H 8550 3650 40  0001 C CNN "Description"
	1    8300 3900
	1    0    0    -1  
$EndComp
$Comp
L C C602
U 1 1 57DA6C62
P 8650 2550
F 0 "C602" H 8650 2650 40  0000 L CNN
F 1 "100n" H 8660 2465 40  0000 L CNN
F 2 "MyKiCadLibs-Footprints:SMD-0805" H 8688 2400 30  0001 C CNN
F 3 "" H 8650 2650 60  0000 C CNN
F 4 "50V" H 8715 2400 40  0000 C CNN "Voltage"
F 5 "X7R" H 8720 2325 40  0000 C CNN "Type"
F 6 "Ceramic capacitor" H 8650 2850 40  0001 L CNN "Description"
F 7 "10%" H 9050 3050 40  0001 C CNN "Tolerance"
F 8 "0805" H 8650 2550 60  0001 C CNN "Size"
	1    8650 2550
	1    0    0    -1  
$EndComp
$Comp
L C C606
U 1 1 57DA6C6E
P 6750 3850
F 0 "C606" H 6750 3950 40  0000 L CNN
F 1 "10n" H 6760 3765 40  0000 L CNN
F 2 "MyKiCadLibs-Footprints:SMD-0805" H 6788 3700 30  0001 C CNN
F 3 "" H 6750 3950 60  0000 C CNN
F 4 "50V" H 6815 3700 40  0000 C CNN "Voltage"
F 5 "X7R" H 6820 3625 40  0000 C CNN "Type"
F 6 "Ceramic capacitor" H 6750 4150 40  0001 L CNN "Description"
F 7 "10%" H 7150 4350 40  0001 C CNN "Tolerance"
F 8 "0805" H 6750 3850 60  0001 C CNN "Size"
	1    6750 3850
	1    0    0    -1  
$EndComp
$Comp
L C C603
U 1 1 57DA6C86
P 2750 3350
F 0 "C603" H 2750 3450 40  0000 L CNN
F 1 "10u" H 2760 3265 40  0000 L CNN
F 2 "MyKiCadLibs-Footprints:SMD-0805" H 2788 3200 30  0001 C CNN
F 3 "" H 2750 3450 60  0000 C CNN
F 4 "10V" H 2815 3200 40  0000 C CNN "Voltage"
F 5 "X5R" H 2820 3125 40  0000 C CNN "Type"
F 6 "Ceramic capacitor" H 2750 3650 40  0001 L CNN "Description"
F 7 "20%" H 3150 3850 40  0001 C CNN "Tolerance"
F 8 "0805" H 2750 3350 60  0001 C CNN "Size"
	1    2750 3350
	1    0    0    -1  
$EndComp
$Comp
L C C604
U 1 1 57DA6C92
P 3000 3350
F 0 "C604" H 3000 3450 40  0000 L CNN
F 1 "100n" H 3010 3265 40  0000 L CNN
F 2 "MyKiCadLibs-Footprints:SMD-0805" H 3038 3200 30  0001 C CNN
F 3 "" H 3000 3450 60  0000 C CNN
F 4 "50V" H 3065 3200 40  0000 C CNN "Voltage"
F 5 "X7R" H 3070 3125 40  0000 C CNN "Type"
F 6 "Ceramic capacitor" H 3000 3650 40  0001 L CNN "Description"
F 7 "10%" H 3400 3850 40  0001 C CNN "Tolerance"
F 8 "0805" H 3000 3350 60  0001 C CNN "Size"
	1    3000 3350
	1    0    0    -1  
$EndComp
$Comp
L C C605
U 1 1 57DA6C9E
P 3250 3350
F 0 "C605" H 3250 3450 40  0000 L CNN
F 1 "10n" H 3260 3265 40  0000 L CNN
F 2 "MyKiCadLibs-Footprints:SMD-0805" H 3288 3200 30  0001 C CNN
F 3 "" H 3250 3450 60  0000 C CNN
F 4 "50V" H 3315 3200 40  0000 C CNN "Voltage"
F 5 "X7R" H 3320 3125 40  0000 C CNN "Type"
F 6 "Ceramic capacitor" H 3250 3650 40  0001 L CNN "Description"
F 7 "10%" H 3650 3850 40  0001 C CNN "Tolerance"
F 8 "0805" H 3250 3350 60  0001 C CNN "Size"
	1    3250 3350
	1    0    0    -1  
$EndComp
$Comp
L R R604
U 1 1 57DA6CCB
P 4350 3200
F 0 "R604" V 4300 3500 40  0000 C CNN
F 1 "0" V 4357 3201 40  0000 C CNN
F 2 "MyKiCadLibs-Footprints:SMD-0805" V 4280 3200 30  0001 C CNN
F 3 "" V 4270 3200 30  0000 C CNN
F 4 "100mW" V 4450 3200 40  0001 C CNN "Power"
F 5 "Thick or thin film resistor" V 4595 3200 40  0001 C CNN "Description"
F 6 "0805" V 4525 3200 40  0001 C CNN "Size"
F 7 "1%" V 4675 3200 40  0001 C CNN "Tolerance"
	1    4350 3200
	0    -1   1    0   
$EndComp
$Comp
L R R605
U 1 1 57DA6CD6
P 4350 3300
F 0 "R605" V 4300 3600 40  0000 C CNN
F 1 "9k1" V 4357 3301 40  0000 C CNN
F 2 "MyKiCadLibs-Footprints:SMD-0805" V 4280 3300 30  0001 C CNN
F 3 "" V 4270 3300 30  0000 C CNN
F 4 "100mW" V 4450 3300 40  0001 C CNN "Power"
F 5 "Thick or thin film resistor" V 4595 3300 40  0001 C CNN "Description"
F 6 "0805" V 4525 3300 40  0001 C CNN "Size"
F 7 "1%" V 4675 3300 40  0001 C CNN "Tolerance"
	1    4350 3300
	0    -1   1    0   
$EndComp
$Comp
L R R609
U 1 1 57DA6CEC
P 4700 3700
F 0 "R609" V 4620 3700 40  0000 C CNN
F 1 "N/F" V 4707 3701 40  0000 C CNN
F 2 "MyKiCadLibs-Footprints:SMD-0805" V 4630 3700 30  0001 C CNN
F 3 "" V 4620 3700 30  0000 C CNN
F 4 "100mW" V 4800 3700 40  0001 C CNN "Power"
F 5 "Thick or thin film resistor" V 4945 3700 40  0001 C CNN "Description"
F 6 "0805" V 4875 3700 40  0001 C CNN "Size"
F 7 "1%" V 5025 3700 40  0001 C CNN "Tolerance"
	1    4700 3700
	1    0    0    1   
$EndComp
$Comp
L R R610
U 1 1 57DA6CF7
P 4900 3700
F 0 "R610" V 4820 3700 40  0000 C CNN
F 1 "10k" V 4907 3701 40  0000 C CNN
F 2 "MyKiCadLibs-Footprints:SMD-0805" V 4830 3700 30  0001 C CNN
F 3 "" V 4820 3700 30  0000 C CNN
F 4 "100mW" V 5000 3700 40  0001 C CNN "Power"
F 5 "Thick or thin film resistor" V 5145 3700 40  0001 C CNN "Description"
F 6 "0805" V 5075 3700 40  0001 C CNN "Size"
F 7 "1%" V 5225 3700 40  0001 C CNN "Tolerance"
	1    4900 3700
	1    0    0    1   
$EndComp
$Comp
L R R611
U 1 1 57DA6D02
P 5100 3700
F 0 "R611" V 5020 3700 40  0000 C CNN
F 1 "10k" V 5107 3701 40  0000 C CNN
F 2 "MyKiCadLibs-Footprints:SMD-0805" V 5030 3700 30  0001 C CNN
F 3 "" V 5020 3700 30  0000 C CNN
F 4 "100mW" V 5200 3700 40  0001 C CNN "Power"
F 5 "Thick or thin film resistor" V 5345 3700 40  0001 C CNN "Description"
F 6 "0805" V 5275 3700 40  0001 C CNN "Size"
F 7 "1%" V 5425 3700 40  0001 C CNN "Tolerance"
	1    5100 3700
	1    0    0    1   
$EndComp
$Comp
L R R607
U 1 1 57DA6D0D
P 7050 3550
F 0 "R607" V 6950 3550 40  0000 C CNN
F 1 "100" V 7057 3551 40  0000 C CNN
F 2 "MyKiCadLibs-Footprints:SMD-0805" V 6980 3550 30  0001 C CNN
F 3 "" V 6970 3550 30  0000 C CNN
F 4 "100mW" V 7150 3550 40  0001 C CNN "Power"
F 5 "Thick or thin film resistor" V 7295 3550 40  0001 C CNN "Description"
F 6 "0805" V 7225 3550 40  0001 C CNN "Size"
F 7 "1%" V 7375 3550 40  0001 C CNN "Tolerance"
	1    7050 3550
	0    -1   1    0   
$EndComp
$Comp
L R R602
U 1 1 57DA6D23
P 7600 2300
F 0 "R602" V 7500 2300 40  0000 C CNN
F 1 "100" V 7607 2301 40  0000 C CNN
F 2 "MyKiCadLibs-Footprints:SMD-0805" V 7530 2300 30  0001 C CNN
F 3 "" V 7520 2300 30  0000 C CNN
F 4 "100mW" V 7700 2300 40  0001 C CNN "Power"
F 5 "Thick or thin film resistor" V 7845 2300 40  0001 C CNN "Description"
F 6 "0805" V 7775 2300 40  0001 C CNN "Size"
F 7 "1%" V 7925 2300 40  0001 C CNN "Tolerance"
	1    7600 2300
	0    1    1    0   
$EndComp
$Comp
L R R603
U 1 1 57DA6D2E
P 7600 2500
F 0 "R603" V 7700 2500 40  0000 C CNN
F 1 "100k" V 7607 2501 40  0000 C CNN
F 2 "MyKiCadLibs-Footprints:SMD-0805" V 7530 2500 30  0001 C CNN
F 3 "" V 7520 2500 30  0000 C CNN
F 4 "100mW" V 7700 2500 40  0001 C CNN "Power"
F 5 "Thick or thin film resistor" V 7845 2500 40  0001 C CNN "Description"
F 6 "0805" V 7775 2500 40  0001 C CNN "Size"
F 7 "1%" V 7925 2500 40  0001 C CNN "Tolerance"
	1    7600 2500
	0    1    1    0   
$EndComp
Wire Wire Line
	8250 4000 8300 4000
Wire Wire Line
	8250 4200 8250 4000
Connection ~ 8100 3550
Wire Wire Line
	7300 3550 8150 3550
Wire Wire Line
	8100 3550 8100 3900
Wire Wire Line
	8100 3900 8300 3900
Wire Wire Line
	7000 2300 7350 2300
Wire Wire Line
	7000 3200 6700 3200
Wire Wire Line
	7000 1400 7000 3200
Wire Wire Line
	7850 2300 8750 2300
Wire Wire Line
	8650 2800 8650 2750
Connection ~ 6750 3550
Wire Wire Line
	6750 3650 6750 3550
Wire Wire Line
	6700 3550 6800 3550
Wire Wire Line
	7950 2500 7950 2600
Wire Wire Line
	7850 2500 7950 2500
Wire Wire Line
	7000 2500 7350 2500
Wire Wire Line
	4100 3200 3950 3200
Wire Wire Line
	3700 3300 4100 3300
Connection ~ 4900 4050
Wire Wire Line
	4700 3950 4700 4050
Connection ~ 5100 4050
Wire Wire Line
	4700 4050 5100 4050
Wire Wire Line
	4900 3950 4900 4050
Wire Wire Line
	5100 3950 5100 4100
Connection ~ 4900 3300
Wire Wire Line
	4900 3450 4900 3300
Wire Wire Line
	3950 3200 3950 2950
Wire Wire Line
	3700 2950 3700 3400
Connection ~ 5100 3400
Wire Wire Line
	5100 3450 5100 3400
Connection ~ 4700 3200
Wire Wire Line
	4700 3450 4700 3200
Wire Wire Line
	4600 3200 5350 3200
Wire Wire Line
	4600 3300 5350 3300
Wire Wire Line
	4600 3400 5350 3400
Wire Wire Line
	5300 3550 5350 3550
Wire Wire Line
	5300 3650 5300 3550
Connection ~ 3000 3050
Connection ~ 2750 3050
Wire Wire Line
	3000 3050 3000 3150
Wire Wire Line
	2750 3050 2750 3150
Connection ~ 2750 3650
Wire Wire Line
	2750 3650 3250 3650
Wire Wire Line
	3000 3550 3000 3650
Wire Wire Line
	2750 3550 2750 3700
Wire Wire Line
	2600 3050 5350 3050
Wire Wire Line
	2600 2950 2600 3050
Connection ~ 7700 3550
Wire Wire Line
	6750 4100 6750 4050
Wire Wire Line
	7700 4100 7700 4050
Wire Wire Line
	7700 3650 7700 3550
Wire Wire Line
	6800 2900 6800 3050
Wire Wire Line
	6800 3050 6700 3050
Wire Wire Line
	7900 2150 7950 2150
Wire Wire Line
	7900 2150 7900 2300
Connection ~ 7900 2300
Wire Wire Line
	3250 3050 3250 3150
Wire Wire Line
	3250 3650 3250 3550
Connection ~ 3250 3050
Connection ~ 3000 3650
Connection ~ 7000 2500
$Comp
L R R608
U 1 1 57F2AA81
P 8400 3550
F 0 "R608" V 8300 3550 40  0000 C CNN
F 1 "0" V 8407 3551 40  0000 C CNN
F 2 "MyKiCadLibs-Footprints:SMD-0805" V 8330 3550 30  0001 C CNN
F 3 "" V 8320 3550 30  0000 C CNN
F 4 "100mW" V 8500 3550 40  0001 C CNN "Power"
F 5 "Thick or thin film resistor" V 8645 3550 40  0001 C CNN "Description"
F 6 "0805" V 8575 3550 40  0001 C CNN "Size"
F 7 "1%" V 8725 3550 40  0001 C CNN "Tolerance"
	1    8400 3550
	0    -1   1    0   
$EndComp
Wire Wire Line
	8750 3550 8650 3550
$Comp
L +3V3 #PWR606
U 1 1 57F2B715
P 3950 2950
F 0 "#PWR606" H 3950 2800 50  0001 C CNN
F 1 "+3V3" H 3950 3090 50  0000 C CNN
F 2 "" H 3950 2950 50  0000 C CNN
F 3 "" H 3950 2950 50  0000 C CNN
	1    3950 2950
	1    0    0    -1  
$EndComp
Wire Wire Line
	8650 2350 8650 2300
Connection ~ 8650 2300
Wire Wire Line
	3700 3400 4100 3400
Connection ~ 3700 3300
$Comp
L R R606
U 1 1 57DA6CE1
P 4350 3400
F 0 "R606" V 4300 3700 40  0000 C CNN
F 1 "9k1" V 4357 3401 40  0000 C CNN
F 2 "MyKiCadLibs-Footprints:SMD-0805" V 4280 3400 30  0001 C CNN
F 3 "" V 4270 3400 30  0000 C CNN
F 4 "100mW" V 4450 3400 40  0001 C CNN "Power"
F 5 "Thick or thin film resistor" V 4595 3400 40  0001 C CNN "Description"
F 6 "0805" V 4525 3400 40  0001 C CNN "Size"
F 7 "1%" V 4675 3400 40  0001 C CNN "Tolerance"
	1    4350 3400
	0    -1   1    0   
$EndComp
$Comp
L +3V3 #PWR604
U 1 1 592AFC1C
P 2600 2950
F 0 "#PWR604" H 2600 2800 50  0001 C CNN
F 1 "+3V3" H 2600 3090 50  0000 C CNN
F 2 "" H 2600 2950 50  0000 C CNN
F 3 "" H 2600 2950 50  0000 C CNN
	1    2600 2950
	1    0    0    -1  
$EndComp
$Comp
L +1V2 #PWR605
U 1 1 596A1892
P 3700 2950
F 0 "#PWR605" H 3700 2800 50  0001 C CNN
F 1 "+1V2" H 3700 3090 50  0000 C CNN
F 2 "" H 3700 2950 50  0001 C CNN
F 3 "" H 3700 2950 50  0001 C CNN
	1    3700 2950
	1    0    0    -1  
$EndComp
Text HLabel 8750 1400 2    60   Output ~ 0
DSP_RESET
$Comp
L C C601
U 1 1 59B0670F
P 8650 1700
F 0 "C601" H 8650 1800 40  0000 L CNN
F 1 "100n" H 8660 1615 40  0000 L CNN
F 2 "MyKiCadLibs-Footprints:SMD-0805" H 8688 1550 30  0001 C CNN
F 3 "" H 8650 1800 60  0000 C CNN
F 4 "50V" H 8715 1550 40  0000 C CNN "Voltage"
F 5 "X7R" H 8720 1475 40  0000 C CNN "Type"
F 6 "Ceramic capacitor" H 8650 2000 40  0001 L CNN "Description"
F 7 "10%" H 9050 2200 40  0001 C CNN "Tolerance"
F 8 "0805" H 8650 1700 60  0001 C CNN "Size"
	1    8650 1700
	1    0    0    -1  
$EndComp
$Comp
L GNDD #PWR601
U 1 1 59B068C0
P 8650 2000
F 0 "#PWR601" H 8650 1750 60  0001 C CNN
F 1 "GNDD" H 8650 1850 60  0000 C CNN
F 2 "" H 8650 2000 60  0000 C CNN
F 3 "" H 8650 2000 60  0000 C CNN
	1    8650 2000
	-1   0    0    -1  
$EndComp
Wire Wire Line
	8650 2000 8650 1900
Wire Wire Line
	8650 1500 8650 1400
Wire Wire Line
	7850 1400 8750 1400
$Comp
L R R601
U 1 1 59B069D4
P 7600 1400
F 0 "R601" V 7500 1400 40  0000 C CNN
F 1 "100" V 7607 1401 40  0000 C CNN
F 2 "MyKiCadLibs-Footprints:SMD-0805" V 7530 1400 30  0001 C CNN
F 3 "" V 7520 1400 30  0000 C CNN
F 4 "100mW" V 7700 1400 40  0001 C CNN "Power"
F 5 "Thick or thin film resistor" V 7845 1400 40  0001 C CNN "Description"
F 6 "0805" V 7775 1400 40  0001 C CNN "Size"
F 7 "1%" V 7925 1400 40  0001 C CNN "Tolerance"
	1    7600 1400
	0    1    1    0   
$EndComp
$Comp
L PIN TP601
U 1 1 59B06A4A
P 8000 1250
F 0 "TP601" H 8375 1250 40  0000 C CNN
F 1 "PIN" H 8500 1250 40  0001 C CNN
F 2 "MyKiCadLibs-Footprints:TP-2mm" H 8340 1140 60  0001 C CNN
F 3 "" H 8340 1140 60  0000 C CNN
	1    8000 1250
	1    0    0    -1  
$EndComp
Connection ~ 8650 1400
Wire Wire Line
	8000 1250 7900 1250
Wire Wire Line
	7900 1250 7900 1400
Connection ~ 7900 1400
Wire Wire Line
	7350 1400 7000 1400
Connection ~ 7000 2300
$EndSCHEMATC
